EESchema Schematic File Version 4
EELAYER 30 0
EELAYER END
$Descr A4 11693 8268
encoding utf-8
Sheet 21 21
Title ""
Date ""
Rev ""
Comp ""
Comment1 ""
Comment2 ""
Comment3 ""
Comment4 ""
$EndDescr
$Comp
L Transistor_FET:IRLML6401 Q?
U 1 1 62435DC8
P 3900 2500
AR Path="/61AE8AE6/61B1299A/62435DC8" Ref="Q?"  Part="1" 
AR Path="/61AE8AE6/61B1F28D/62435DC8" Ref="Q?"  Part="1" 
AR Path="/61B04C8D/61B1299A/62435DC8" Ref="Q?"  Part="1" 
AR Path="/61B04C8D/61B1F28D/62435DC8" Ref="Q?"  Part="1" 
AR Path="/61B04C8D/61D8C465/62435DC8" Ref="Q?"  Part="1" 
AR Path="/61AE8AE6/61D8C45F/62435DC8" Ref="Q?"  Part="1" 
AR Path="/61B04C8D/62432B25/62435DC8" Ref="Q6"  Part="1" 
AR Path="/61B04C8D/6243BA80/62435DC8" Ref="Q9"  Part="1" 
F 0 "Q9" V 4242 2500 50  0000 C CNN
F 1 "IRLML2244" V 4151 2500 50  0000 C CNN
F 2 "Package_TO_SOT_SMD:SOT-23_Handsoldering" H 4100 2425 50  0001 L CIN
F 3 "https://www.infineon.com/dgdl/irlml6401pbf.pdf?fileId=5546d462533600a401535668b96d2634" H 3900 2500 50  0001 L CNN
	1    3900 2500
	0    1    -1   0   
$EndComp
$Comp
L Transistor_FET:IRLML0030 Q?
U 1 1 62435DCE
P 3400 3400
AR Path="/61AE8AE6/61B1299A/62435DCE" Ref="Q?"  Part="1" 
AR Path="/61AE8AE6/61B1F28D/62435DCE" Ref="Q?"  Part="1" 
AR Path="/61B04C8D/61B1299A/62435DCE" Ref="Q?"  Part="1" 
AR Path="/61B04C8D/61B1F28D/62435DCE" Ref="Q?"  Part="1" 
AR Path="/61B04C8D/61D8C465/62435DCE" Ref="Q?"  Part="1" 
AR Path="/61AE8AE6/61D8C45F/62435DCE" Ref="Q?"  Part="1" 
AR Path="/61B04C8D/62432B25/62435DCE" Ref="Q7"  Part="1" 
AR Path="/61B04C8D/6243BA80/62435DCE" Ref="Q10"  Part="1" 
F 0 "Q10" H 3605 3446 50  0000 L CNN
F 1 "FDV 303N" H 3605 3355 50  0000 L CNN
F 2 "Package_TO_SOT_SMD:SOT-23_Handsoldering" H 3600 3325 50  0001 L CIN
F 3 "https://www.infineon.com/dgdl/irlml0030pbf.pdf?fileId=5546d462533600a401535664773825df" H 3400 3400 50  0001 L CNN
	1    3400 3400
	1    0    0    -1  
$EndComp
$Comp
L Device:R R?
U 1 1 62435DD4
P 3500 2750
AR Path="/61AE8AE6/61B1299A/62435DD4" Ref="R?"  Part="1" 
AR Path="/61AE8AE6/61B1F28D/62435DD4" Ref="R?"  Part="1" 
AR Path="/61B04C8D/61B1299A/62435DD4" Ref="R?"  Part="1" 
AR Path="/61B04C8D/61B1F28D/62435DD4" Ref="R?"  Part="1" 
AR Path="/61B04C8D/61D8C465/62435DD4" Ref="R?"  Part="1" 
AR Path="/61AE8AE6/61D8C45F/62435DD4" Ref="R?"  Part="1" 
AR Path="/61B04C8D/62432B25/62435DD4" Ref="R9"  Part="1" 
AR Path="/61B04C8D/6243BA80/62435DD4" Ref="R14"  Part="1" 
F 0 "R14" H 3570 2796 50  0000 L CNN
F 1 "330k" H 3570 2705 50  0000 L CNN
F 2 "Resistor_SMD:R_0603_1608Metric_Pad0.98x0.95mm_HandSolder" V 3430 2750 50  0001 C CNN
F 3 "~" H 3500 2750 50  0001 C CNN
	1    3500 2750
	1    0    0    -1  
$EndComp
$Comp
L Device:R R?
U 1 1 62435DDA
P 2850 3400
AR Path="/61AE8AE6/61B1299A/62435DDA" Ref="R?"  Part="1" 
AR Path="/61AE8AE6/61B1F28D/62435DDA" Ref="R?"  Part="1" 
AR Path="/61B04C8D/61B1299A/62435DDA" Ref="R?"  Part="1" 
AR Path="/61B04C8D/61B1F28D/62435DDA" Ref="R?"  Part="1" 
AR Path="/61B04C8D/61D8C465/62435DDA" Ref="R?"  Part="1" 
AR Path="/61AE8AE6/61D8C45F/62435DDA" Ref="R?"  Part="1" 
AR Path="/61B04C8D/62432B25/62435DDA" Ref="R10"  Part="1" 
AR Path="/61B04C8D/6243BA80/62435DDA" Ref="R15"  Part="1" 
F 0 "R15" V 2643 3400 50  0000 C CNN
F 1 "330R" V 2734 3400 50  0000 C CNN
F 2 "Resistor_SMD:R_0603_1608Metric_Pad0.98x0.95mm_HandSolder" V 2780 3400 50  0001 C CNN
F 3 "~" H 2850 3400 50  0001 C CNN
	1    2850 3400
	0    1    1    0   
$EndComp
Wire Wire Line
	3500 3200 3500 3050
Wire Wire Line
	3500 2900 3500 3050
Wire Wire Line
	3100 3050 3500 3050
Connection ~ 3500 3050
Wire Wire Line
	3900 3050 3900 2700
Wire Wire Line
	3500 2600 3500 2400
Wire Wire Line
	3500 2400 3700 2400
Wire Wire Line
	3500 2400 3300 2400
Wire Wire Line
	2500 3400 2700 3400
Connection ~ 3500 2400
Wire Wire Line
	3000 3400 3200 3400
Wire Wire Line
	3500 3600 3500 3750
Wire Wire Line
	4450 2400 4100 2400
$Comp
L power:GNDD #PWR?
U 1 1 62435DED
P 3500 3750
AR Path="/61AE8AE6/61B1299A/62435DED" Ref="#PWR?"  Part="1" 
AR Path="/61AE8AE6/61B1F28D/62435DED" Ref="#PWR?"  Part="1" 
AR Path="/61B04C8D/61B1299A/62435DED" Ref="#PWR?"  Part="1" 
AR Path="/61B04C8D/61B1F28D/62435DED" Ref="#PWR?"  Part="1" 
AR Path="/61B04C8D/61D8C465/62435DED" Ref="#PWR?"  Part="1" 
AR Path="/61AE8AE6/61D8C45F/62435DED" Ref="#PWR?"  Part="1" 
AR Path="/61B04C8D/62432B25/62435DED" Ref="#PWR012"  Part="1" 
AR Path="/61B04C8D/6243BA80/62435DED" Ref="#PWR013"  Part="1" 
F 0 "#PWR013" H 3500 3500 50  0001 C CNN
F 1 "GNDD" H 3504 3595 50  0000 C CNN
F 2 "" H 3500 3750 50  0001 C CNN
F 3 "" H 3500 3750 50  0001 C CNN
	1    3500 3750
	1    0    0    -1  
$EndComp
Text HLabel 2500 3400 0    50   Input ~ 0
Enable
Text HLabel 2300 2400 0    50   Input ~ 0
In
Text HLabel 4450 2400 2    50   Input ~ 0
Out
$Comp
L Transistor_FET:IRLML6401 Q?
U 1 1 62435DF6
P 3100 2500
AR Path="/61AE8AE6/61B1299A/62435DF6" Ref="Q?"  Part="1" 
AR Path="/61AE8AE6/61B1F28D/62435DF6" Ref="Q?"  Part="1" 
AR Path="/61B04C8D/61B1299A/62435DF6" Ref="Q?"  Part="1" 
AR Path="/61B04C8D/61B1F28D/62435DF6" Ref="Q?"  Part="1" 
AR Path="/61B04C8D/61D8C465/62435DF6" Ref="Q?"  Part="1" 
AR Path="/61AE8AE6/61D8C45F/62435DF6" Ref="Q?"  Part="1" 
AR Path="/61B04C8D/62432B25/62435DF6" Ref="Q5"  Part="1" 
AR Path="/61B04C8D/6243BA80/62435DF6" Ref="Q8"  Part="1" 
F 0 "Q8" V 3442 2500 50  0000 C CNN
F 1 "IRLML2244" V 3351 2500 50  0000 C CNN
F 2 "Package_TO_SOT_SMD:SOT-23_Handsoldering" H 3300 2425 50  0001 L CIN
F 3 "https://www.infineon.com/dgdl/irlml6401pbf.pdf?fileId=5546d462533600a401535668b96d2634" H 3100 2500 50  0001 L CNN
	1    3100 2500
	0    -1   -1   0   
$EndComp
Wire Wire Line
	2900 2400 2300 2400
Wire Wire Line
	3100 2700 3100 3050
Wire Wire Line
	3500 3050 3900 3050
$EndSCHEMATC
