EESchema Schematic File Version 4
EELAYER 30 0
EELAYER END
$Descr A4 11693 8268
encoding utf-8
Sheet 11 21
Title ""
Date ""
Rev ""
Comp ""
Comment1 ""
Comment2 ""
Comment3 ""
Comment4 ""
$EndDescr
$Comp
L parts:FSUSB30MUX U?
U 1 1 61D8C451
P 4000 3750
AR Path="/61D8C451" Ref="U?"  Part="1" 
AR Path="/61AE8AE6/61D8C451" Ref="U2"  Part="1" 
AR Path="/61B04C8D/61D8C451" Ref="U3"  Part="1" 
F 0 "U3" H 4150 4300 50  0000 C CNN
F 1 "FSUSB30MUX" H 4300 4200 50  0000 C CNN
F 2 "Package_SO:MSOP-10_3x3mm_P0.5mm" H 4000 2950 50  0001 C CNN
F 3 "" H 4000 3650 50  0001 C CNN
	1    4000 3750
	-1   0    0    -1  
$EndComp
$Comp
L Connector:USB_A J?
U 1 1 61D8C452
P 8850 3550
AR Path="/61D8C452" Ref="J?"  Part="1" 
AR Path="/61AE8AE6/61D8C452" Ref="J3"  Part="1" 
AR Path="/61B04C8D/61D8C452" Ref="J5"  Part="1" 
F 0 "J5" H 8620 3539 50  0000 R CNN
F 1 "USB_A_Socket" H 8620 3448 50  0000 R CNN
F 2 "Connector_USB:USB_A_Molex_67643_Horizontal" H 9000 4100 50  0001 C CNN
F 3 " ~" H 9000 4100 50  0001 C CNN
	1    8850 3550
	-1   0    0    -1  
$EndComp
$Comp
L Device:R R?
U 1 1 61D8C453
P 4000 2450
AR Path="/61D8C453" Ref="R?"  Part="1" 
AR Path="/61AE8AE6/61D8C453" Ref="R1"  Part="1" 
AR Path="/61B04C8D/61D8C453" Ref="R6"  Part="1" 
F 0 "R6" H 4070 2496 50  0000 L CNN
F 1 "100R" H 4070 2405 50  0000 L CNN
F 2 "Resistor_SMD:R_0603_1608Metric_Pad0.98x0.95mm_HandSolder" V 3930 2450 50  0001 C CNN
F 3 "~" H 4000 2450 50  0001 C CNN
	1    4000 2450
	1    0    0    -1  
$EndComp
Wire Wire Line
	4000 3350 4000 2700
Connection ~ 4000 2700
Wire Wire Line
	4000 2700 4000 2600
Wire Wire Line
	4000 2700 4300 2700
$Comp
L Device:C C?
U 1 1 61AEC455
P 4300 2950
AR Path="/61AEC455" Ref="C?"  Part="1" 
AR Path="/61AE8AE6/61AEC455" Ref="C3"  Part="1" 
AR Path="/61B04C8D/61AEC455" Ref="C5"  Part="1" 
F 0 "C5" H 4415 2996 50  0000 L CNN
F 1 "1u" H 4415 2905 50  0000 L CNN
F 2 "Capacitor_SMD:C_0805_2012Metric_Pad1.18x1.45mm_HandSolder" H 4338 2800 50  0001 C CNN
F 3 "~" H 4300 2950 50  0001 C CNN
	1    4300 2950
	1    0    0    -1  
$EndComp
Wire Wire Line
	4300 2700 4300 2800
Wire Wire Line
	4300 3200 4300 3100
$Comp
L power:GNDD #PWR010
U 1 1 61AEE25D
P 4300 3200
AR Path="/61AE8AE6/61AEE25D" Ref="#PWR010"  Part="1" 
AR Path="/61B04C8D/61AEE25D" Ref="#PWR020"  Part="1" 
F 0 "#PWR020" H 4300 2950 50  0001 C CNN
F 1 "GNDD" H 4304 3045 50  0000 C CNN
F 2 "" H 4300 3200 50  0001 C CNN
F 3 "" H 4300 3200 50  0001 C CNN
	1    4300 3200
	1    0    0    -1  
$EndComp
$Comp
L power:GNDD #PWR014
U 1 1 61AEE417
P 4000 4250
AR Path="/61AE8AE6/61AEE417" Ref="#PWR014"  Part="1" 
AR Path="/61B04C8D/61AEE417" Ref="#PWR024"  Part="1" 
F 0 "#PWR024" H 4000 4000 50  0001 C CNN
F 1 "GNDD" H 4004 4095 50  0000 C CNN
F 2 "" H 4000 4250 50  0001 C CNN
F 3 "" H 4000 4250 50  0001 C CNN
	1    4000 4250
	-1   0    0    -1  
$EndComp
Wire Wire Line
	4000 4250 4000 4150
Text HLabel 1700 950  1    50   Input ~ 0
VBUS_IN2
Wire Wire Line
	4000 2200 4000 2300
$Comp
L power:+3V3 #PWR09
U 1 1 61D8C45B
P 4000 2200
AR Path="/61AE8AE6/61D8C45B" Ref="#PWR09"  Part="1" 
AR Path="/61B04C8D/61D8C45B" Ref="#PWR019"  Part="1" 
F 0 "#PWR019" H 4000 2050 50  0001 C CNN
F 1 "+3V3" H 4015 2373 50  0000 C CNN
F 2 "" H 4000 2200 50  0001 C CNN
F 3 "" H 4000 2200 50  0001 C CNN
	1    4000 2200
	1    0    0    -1  
$EndComp
Wire Wire Line
	4400 3850 4500 3850
Wire Wire Line
	4500 3950 4400 3950
Text HLabel 4500 3850 2    50   Input ~ 0
~OE~
Text HLabel 4500 3950 2    50   Input ~ 0
SEL
$Comp
L Device:C C?
U 1 1 61D8C45C
P 4650 2950
AR Path="/61D8C45C" Ref="C?"  Part="1" 
AR Path="/61AE8AE6/61D8C45C" Ref="C4"  Part="1" 
AR Path="/61B04C8D/61D8C45C" Ref="C6"  Part="1" 
F 0 "C6" H 4765 2996 50  0000 L CNN
F 1 "100n" H 4765 2905 50  0000 L CNN
F 2 "Capacitor_SMD:C_0603_1608Metric_Pad1.08x0.95mm_HandSolder" H 4688 2800 50  0001 C CNN
F 3 "~" H 4650 2950 50  0001 C CNN
	1    4650 2950
	1    0    0    -1  
$EndComp
Wire Wire Line
	4650 2800 4650 2700
Wire Wire Line
	4650 2700 4300 2700
Connection ~ 4300 2700
$Comp
L power:GNDD #PWR011
U 1 1 61D8C45D
P 4650 3200
AR Path="/61AE8AE6/61D8C45D" Ref="#PWR011"  Part="1" 
AR Path="/61B04C8D/61D8C45D" Ref="#PWR021"  Part="1" 
F 0 "#PWR021" H 4650 2950 50  0001 C CNN
F 1 "GNDD" H 4654 3045 50  0000 C CNN
F 2 "" H 4650 3200 50  0001 C CNN
F 3 "" H 4650 3200 50  0001 C CNN
	1    4650 3200
	1    0    0    -1  
$EndComp
Wire Wire Line
	4650 3200 4650 3100
Wire Wire Line
	2600 2400 2700 2400
Text HLabel 2600 2400 0    50   Input ~ 0
VBUS_Enable_1
Text HLabel 2600 1600 0    50   Input ~ 0
VBUS_Enable_2
Text Label 5000 3550 0    50   ~ 0
OUT_D+
Text Label 5000 3650 0    50   ~ 0
OUT_D-
$Bitmap
Pos 4150 4950
Scale 0.500000
Data
89 50 4E 47 0D 0A 1A 0A 00 00 00 0D 49 48 44 52 00 00 03 64 00 00 01 00 08 02 00 00 00 53 70 22 
FA 00 00 00 03 73 42 49 54 08 08 08 DB E1 4F E0 00 00 00 09 70 48 59 73 00 00 0E 74 00 00 0E 74 
01 6B 24 B3 D6 00 00 20 00 49 44 41 54 78 9C ED DD 77 5C 53 D7 DF 07 F0 93 84 3D 04 45 19 15 17 
5A 11 C5 85 16 AC 5B EA 9E F0 58 5A B5 8E AA D5 BA 67 55 B4 EE 89 DB BA F7 A8 D6 AD 45 41 05 71 
A0 A8 28 8E 96 8A 03 A4 5A 15 15 14 17 22 88 40 F2 FC 71 EA F9 DD 66 DE 90 9D 7C DE 2F 5E ED C9 
CD B9 37 27 D7 9B E4 7B CF 14 E4 E7 E7 13 90 47 20 10 08 85 42 91 48 24 14 0A 0D 5D 16 00 30 4B 
12 99 2D 82 FF 3C 2D 91 14 17 17 4B 24 12 89 44 22 16 8B F5 56 2C 00 90 25 FC 44 20 10 10 42 E8 
7F 2D 04 C2 20 00 00 A3 66 51 BF 49 00 60 84 AC 0C 5D 00 00 00 4B 23 5D A1 28 91 FC E7 29 6E 74 
68 81 75 18 00 C6 43 22 91 FA 48 4A 64 B6 58 04 D4 2C 02 00 00 00 80 42 A8 59 04 00 30 5E A8 59 
04 30 32 12 A9 BE C5 96 00 C1 22 00 80 F1 62 C1 A2 40 20 90 48 64 07 C4 00 80 9E 48 24 EC 23 28 
B1 B4 FB 37 15 C1 A2 BD BD BD 7E CA 01 00 00 00 00 FA A7 F2 46 14 7D 16 01 00 00 00 40 21 5E CD 
D0 96 39 17 23 E6 59 34 2C 34 BA 81 41 E8 E5 C2 53 32 1A FA DF 32 48 65 10 8B C5 C5 C5 45 74 AA 
45 7C 2C 00 0C 82 F5 09 11 89 44 34 42 30 74 89 B4 80 67 7B BA 39 BC 55 00 00 0B 20 10 08 04 16 
D8 B3 1E 00 0C 0E C1 22 00 80 A9 40 A4 08 00 06 80 D1 D0 00 00 C6 85 B5 83 CB CE CE 2D 95 01 00 
F4 E6 7F 63 A1 25 16 37 1A 1A 35 8B 00 00 26 80 CE 9E 63 E8 52 00 58 3A CB BC 55 43 CD 22 00 80 
9E 49 C7 7C 2C 08 54 F4 3B C4 C2 44 0C FC 02 D0 35 A9 8F 18 6E D2 08 6A 16 01 00 00 00 40 09 D4 
2C 02 00 98 00 54 6F 00 80 A1 20 58 04 00 30 76 DC 66 68 B4 44 03 E8 93 EC 80 33 89 44 42 88 84 
33 61 AA F9 DF C8 21 58 04 30 3C E3 AF 34 42 74 02 00 60 B1 D0 67 11 00 00 00 00 14 42 CD 22 00 
80 B1 50 59 C7 8C 09 74 00 74 8D 7E C4 E4 35 A7 FC 6F 9E 45 8A 93 DD CC A1 66 11 00 C0 C4 58 C4 
AF 13 80 11 93 48 FE FD B3 10 A8 59 04 30 3C F4 08 04 9E 04 9F 10 5C 36 00 BA 24 7B 47 C6 3E 70 
DC 9A 45 0B B9 73 43 CD 22 00 00 00 00 28 84 60 11 00 00 00 00 14 42 33 34 00 80 29 E1 8E 71 41 
4B 34 C8 4A 4D 4D 7D F2 E4 09 77 4B 70 70 B0 A1 0A 63 CA 64 DB 97 FF F3 71 93 48 24 16 D2 06 4D 
10 2C 02 00 98 16 CC CB 0D CA AD 5A B5 6A CB 96 2D DC 2D F9 F9 F9 86 2A 0C 98 07 04 8B 5A 93 9B 
9B 1B 13 13 73 FD FA F5 23 47 8E E4 E4 E4 E4 E6 E6 0A 04 02 47 47 C7 D2 A5 4B 77 E8 D0 A1 69 D3 
A6 C1 C1 C1 4E 4E 4E 86 2E 26 00 80 29 D9 B3 67 CF 3F FF FC 53 82 1D C7 8D 1B 67 6B 6B AB ED E2 
00 58 22 81 F2 1B 0E 7B 7B 7B 62 A9 37 25 02 81 40 28 14 8A 44 22 A1 50 59 CF CE C2 C2 C2 D1 A3 
47 6F D8 B0 41 2C 16 F3 39 EC F2 E5 CB C7 8C 19 A3 A5 32 9A 33 D4 9D 80 41 18 F3 85 C7 0A 26 FE 
84 6D E1 AC 48 F6 EF FF F5 5F 3C 1D E9 D0 A1 43 7C 7C 7C 09 76 7C F6 EC 99 AB AB AB B6 8B 63 14 
DA B6 6D 4B 13 7D FA F4 E9 D3 A7 8F D4 B3 23 46 8C 40 CD A2 4E 09 38 44 22 91 49 37 46 F3 9C 5A 
01 35 8B 9A EA D8 B1 E3 A9 53 A7 F8 E7 1F 3B 76 EC DB B7 6F 67 CC 98 A1 BB 22 01 00 80 B9 BA 7F 
FF 7E 42 42 02 4D 37 6F DE 5C 36 43 C3 86 0D DF BE 7D AB DF 42 81 99 43 B0 A8 29 B5 22 45 6A D6 
AC 59 8D 1B 37 6E D3 A6 8D 2E CA 03 00 00 66 6C DF BE 7D CA 33 7C FF FD F7 DF 7F FF BD 5E CA 02 
96 02 C1 A2 46 92 93 93 A5 B6 B8 BB BB 1F 3A 74 C8 D7 D7 B7 74 E9 D2 79 79 79 E9 E9 E9 A7 4F 9F 
9E 38 71 22 37 8F 44 22 09 0F 0F 47 B0 08 00 6A 61 AD 5D 4A 9A BD 68 6B 92 29 37 8B A9 56 AA 54 
29 3E D9 4C BA 71 50 89 FD FB F7 1B BA 08 96 CE 68 7B AA E8 0E 82 45 8D 70 3B 8B 08 04 82 B4 B4 
B4 6A D5 AA B1 2D A5 4A 95 0A 08 08 08 08 08 18 3B 76 EC 97 5F 7E 79 ED DA 35 F6 D4 8D 1B 37 F4 
5A 50 30 41 B1 B1 B1 AB 56 AD 8A 8D 8D 2D 2A 2A 52 94 C7 D6 D6 F6 EC D9 B3 5F 7E F9 A5 92 E3 B4 
6E DD FA F4 E9 D3 25 2B 43 A7 4E 9D A2 A3 A3 4B B6 2F E8 9A 31 77 AF D4 A9 AC AC 2C 43 17 41 8E 
77 EF DE FD FD F7 DF 65 CA 94 F1 F2 F2 B2 B6 B6 56 6B DF 87 0F 1F E6 E5 E5 B9 B8 B8 B8 B9 B9 29 
1F 94 33 6D DA B4 BB 77 EF 6A 56 52 F9 C4 62 F1 DF 7F FF 2D 10 08 4A 97 2E ED E6 E6 A6 E1 D1 34 
39 1B 60 84 10 2C 6A 24 23 23 83 A5 2B 56 AC C8 8D 14 B9 AC AC AC A6 4D 9B D6 AD 5B 37 42 88 8F 
8F 4F B5 6A D5 AA 56 AD AA A7 22 82 69 BA 73 E7 4E FB F6 ED 55 66 2B 28 28 68 DC B8 71 48 48 C8 
CA 95 2B 2B 54 A8 A0 87 82 81 91 A0 D5 66 9F E2 45 E9 90 51 22 91 98 DF 48 17 4D 84 84 84 14 17 
17 B3 87 51 51 51 B2 79 92 93 93 A7 4E 9D CA DD 22 95 2D 3C 3C FC D6 AD 5B B2 CF AE 5E BD 7A E7 
CE 9D 7F FD F5 17 7D 68 6F 6F BF 77 EF 5E 36 06 45 89 75 EB D6 9D 3A 75 2A 21 21 E1 DD BB 77 74 
8B 50 28 FC F1 C7 1F FB F5 EB 57 B7 6E 5D 6E CE 98 98 98 35 6B D6 10 42 B8 95 0E 84 90 DD BB 77 
5F B9 72 45 AA 3C 6B D7 AE 3D 71 E2 84 92 37 C2 25 91 48 26 4C 98 10 1F 1F 7F FB F6 6D 76 EF E1 
E7 E7 D7 AC 59 B3 D6 AD 5B 77 EA D4 49 D1 10 4F EE D9 68 D1 A2 C5 4F 3F FD 44 D3 25 3E 1B A6 C5 
A2 D6 FA 23 18 0D AD 04 9F D1 D0 42 A1 90 7D BA BC BC BC 9E 3E 7D AA 28 E7 C7 8F 1F E3 E3 E3 AB 
56 AD 8A 30 91 27 8B AD 35 21 84 EC D8 B1 63 E8 D0 A1 6A 7D EE 4A 97 2E FD EA D5 2B B9 4F A1 66 
51 2D 26 71 E1 B1 A1 D0 9F 06 44 CB 29 B2 D9 04 8B B2 A3 A1 4B F0 93 E4 E8 E8 C8 9D B0 42 EE 11 
CE 9C 39 D3 A9 53 27 25 2F D4 B5 6B D7 B8 B8 38 A9 67 93 93 93 1B 35 6A 24 7B B4 90 90 90 6D DB 
B6 D9 D9 D9 C9 2D 4F 7E 7E FE D2 A5 4B E7 CD 9B A7 A8 C0 AD 5B B7 E6 46 78 9B 36 6D 1A 35 6A 94 
A2 CC 52 A5 E5 3F 1A 3A 3A 3A 7A CE 9C 39 2C B0 93 55 AD 5A B5 9B 37 6F CA 7D 8A 7B 36 58 69 4B 
76 36 4C 14 0D 12 AC AC AC 4C 3A 64 C4 68 68 7D A8 5F BF 3E 6B 50 7E F6 EC 59 DD BA 75 4F 9C 38 
F1 D9 67 9F C9 E6 B4 B1 B1 31 BF 5B 2B D0 05 B9 DF 3B 02 81 A0 7E FD FA D5 AA 55 2B 57 AE 5C 56 
56 D6 9D 3B 77 B8 35 1C 84 90 D7 AF 5F 5B 5B 5B 47 47 47 B7 6B D7 4E F9 F1 1D 1C 1C F8 B7 0A 61 
66 50 A3 F5 A9 66 91 18 7D 64 6B 3E CA 95 2B C7 7D F8 FE FD FB C0 C0 C0 FB F7 EF CB CD 1C 19 19 
19 19 19 B9 6C D9 B2 A1 43 87 4A 3D 55 B3 66 CD 07 0F 1E 28 7F AD 53 A7 4E 39 3B 3B 1F 3E 7C 58 
47 BD DB 8B 8B 8B F9 7C BA D3 D3 D3 ED ED ED 1B 37 6E 1C 13 13 23 F5 BD C1 3D 1B 8F 1E 3D E2 73 
36 2C B3 E2 C9 3C 20 58 D4 48 CB 96 2D B9 BD 0F FF FA EB 2F 3F 3F BF E4 E4 E4 CA 95 2B 1B AE 50 
60 C2 52 53 53 65 37 BA B8 B8 A4 A6 A6 7A 78 78 70 37 4E 9E 3C 79 F9 F2 E5 05 05 05 6C 4B 51 51 
51 EF DE BD FF FA EB 2F 2F 2F 2F 25 2F F1 DB 6F BF 85 84 84 68 AB C0 60 10 DC 91 2E 02 C1 FF 1A 
9D 11 38 EA 94 8D 8D 0D F7 E1 92 25 4B 68 6C 54 BA 74 69 2F 2F AF 17 2F 5E BC 78 F1 42 6A 97 A5 
4B 97 CA 06 8B 52 91 A2 50 28 9C 35 6B 96 93 93 53 7A 7A FA 81 03 07 9E 3F 7F 4E B7 17 15 15 0D 
18 30 E0 EA D5 AB 9E 9E 9E E5 CA 95 AB 5F BF 7E 41 41 C1 ED DB B7 B9 FB 7A 7A 7A 2A FF BC 2B 32 
73 E6 4C A9 2D 5E 5E 5E A3 47 8F 16 89 44 7F FF FD F7 FA F5 EB B9 4F 5D BA 74 69 F2 E4 C9 4B 96 
2C E1 6E E4 9E 8D 77 EF DE F1 39 1B C5 C5 C5 22 91 A8 04 A5 35 4E 12 89 C4 F8 5B 21 B4 45 D9 74 
D3 A0 D2 E0 C1 83 A5 B6 E4 E4 E4 54 A9 52 A5 56 AD 5A A3 46 8D 52 D2 2A 0D 20 D7 B0 61 C3 A4 B6 
34 6D DA F4 DE BD 7B 52 91 22 21 64 C1 82 05 29 29 29 9F 7F FE 39 77 63 76 76 36 A6 7C 07 D0 11 
A9 5A FF 95 2B 57 12 42 AA 54 A9 F2 E4 C9 93 EB D7 AF 3F 7A F4 48 B6 97 91 D4 1A CD 84 90 83 07 
0F 72 1F BA BA BA C6 C5 C5 FD F4 D3 4F 43 86 0C 59 B2 64 89 54 8B 41 76 76 F6 E2 C5 8B 09 21 21 
21 21 97 2E 5D 92 1D 07 3D 70 E0 C0 4B 9F F0 7F 23 89 89 89 52 91 DF B8 71 E3 EE DE BD 3B 7A F4 
E8 11 23 46 C8 5D 39 82 F6 98 E4 E2 9E 8D 57 AF 5E F1 39 1B 67 CE 9C E1 5F 48 30 2A 08 16 35 E2 
EB EB DB B9 73 67 D9 ED B7 6F DF 5E B5 6A 55 F9 F2 E5 D9 24 EF DE DE DE 43 87 0E 65 33 A9 02 C8 
0A 09 09 E1 7E 99 BA BA BA 66 64 64 24 24 24 48 35 7E 31 D5 AA 55 4B 4B 4B 93 BA 53 DF BF 7F 7F 
DF BE 7D 75 5B 50 30 0E 02 81 80 D6 2D 12 F2 EF 1F D7 A7 8D A0 35 52 FD D7 F3 F2 F2 4E 9E 3C 79 
FB F6 6D 16 36 A5 A4 A4 4C 9A 34 49 C9 11 AE 5D BB C6 9D 43 A3 4E 9D 3A CF 9E 3D 6B DC B8 31 DB 
E2 E4 E4 24 15 A8 AD 5D BB 56 0B 45 E7 B8 73 E7 4E 70 70 30 77 4B 56 56 D6 BC 79 F3 B8 35 85 0B 
16 2C C8 C8 C8 70 74 74 E4 66 E3 0E E8 24 FF 3D 1B 05 05 05 7C CE C6 E6 CD 9B B5 F5 2E 8C 87 84 
C3 D0 65 D1 21 34 43 6B 2A 32 32 72 FE FC F9 F3 E7 CF FF F0 E1 83 92 6C 4F 9E 3C 59 BF 7E FD FA 
F5 EB 4F 9C 38 C1 67 94 2B 58 9A B7 6F DF 1E 3F 7E 9C BB 65 FA F4 E9 E5 CB 97 57 B9 E3 C0 81 03 
37 6E DC C8 DD 72 E8 D0 A1 5F 7F FD 55 CB E5 03 30 1A A1 A1 A1 7C B2 FD FE FB EF 3A 2D 46 93 26 
4D 9A 35 6B 26 B5 B1 5B B7 6E 0B 17 2E 54 B4 8B D4 50 33 B9 6F 24 34 34 34 35 35 D5 D9 D9 D9 CB 
CB CB C9 C9 C9 D9 D9 59 2B A5 65 62 63 63 A5 B6 C8 9D B7 D2 CD CD AD 5D BB 76 87 0F 1F 66 5B 2E 
5C B8 D0 A3 47 0F 45 87 E5 73 36 14 0D C2 03 E3 87 60 51 53 22 91 68 DA B4 69 FD FB F7 AF 5D BB 
F6 9B 37 6F 54 E6 EF D0 A1 C3 E0 C1 83 57 AE 5C 89 15 EE 81 EB E4 C9 93 85 85 85 DC 2D FD FB F7 
E7 B3 E3 F0 E1 C3 A5 82 C5 BC BC 3C 6D 96 0C C0 C8 C4 C4 C4 18 BA 08 84 10 42 67 43 93 52 AB 56 
2D A1 50 C8 1D 79 CD 75 F9 F2 65 EE 43 6E 9D 22 13 18 18 C8 0D D1 B4 8E 7F 03 57 AB 56 AD B8 25 
B9 74 E9 92 92 60 91 CF D9 C0 22 84 A6 0B CD D0 DA E1 ED ED FD FA F5 6B 5A 11 FD E2 C5 8B C8 C8 
C8 49 93 26 49 D5 E1 33 1B 37 6E 34 B3 19 04 40 73 9B 36 6D 92 DA E2 EA EA CA 67 C7 3A 75 EA FC 
F0 C3 0F 3A 28 11 18 35 81 40 AA D1 19 F4 4D 6E 1B 91 8D 8D 8D 92 19 4F A5 E6 00 6A D2 A4 89 D6 
4B A5 12 FF 8E 83 2D 5A B4 E0 3E 54 DE 2D 92 CF D9 50 B2 BE 80 89 52 D5 06 2D 91 F9 33 55 A8 59 
D4 BE B2 65 CB 76 EB D6 AD 5B B7 6E 73 E7 CE BD 7E FD 7A 6C 6C EC 8C 19 33 64 B3 7D F8 F0 01 21 
23 30 8F 1E 3D 2A F1 BE 0D 1A 34 E0 DF 19 68 C5 8A 15 52 5D EC 15 F9 F9 E7 9F FD FC FC 4A 5C 2A 
00 F3 46 E7 21 96 A5 68 6A DE 8F 1F 3F 4A F5 56 32 C8 D0 60 FE 65 70 70 70 E0 3E 7C FD FA B5 92 
C3 AA 7B 36 C0 B4 20 58 D4 21 2B 2B AB A0 A0 A0 A0 A0 A0 DA B5 6B 8F 18 31 42 6A 70 F4 B9 73 E7 
54 4E 89 07 96 83 CD 97 51 02 EE EE EE FC 33 9F 3B 77 8E 67 CE 1F 7E F8 01 C1 22 18 21 13 ED F6 
6D 9C B3 0C 2A 09 16 A5 9E 32 BF 7A 41 E0 0F C1 A2 3E 84 86 86 86 86 86 AE 5B B7 8E 3B 31 CA FE 
FD FB 11 2C 02 A3 49 47 C3 B2 65 CB 6A B1 24 00 46 4E 47 23 57 32 33 33 75 71 58 C6 C5 C5 C5 D5 
D5 95 DB B5 FD F9 F3 E7 6A DD E9 69 85 BB BB 3B F7 D6 F4 E3 C7 8F 8A 72 4A CD 07 29 35 51 17 58 
14 D4 0F 6B E4 CD 9B 37 9B 37 6F 1E 3B 76 2C 9F B0 AF 61 C3 86 DC 87 B9 B9 B9 3A 2B 17 98 1E 4D 
FA 24 F0 19 59 05 66 0C 7D 16 55 E2 73 8A A4 E6 38 D4 05 A9 EE 8C 2A D7 71 D1 05 FE 31 9F D4 1A 
01 D5 AA 55 D3 41 71 C0 34 A0 66 B1 84 76 EC D8 31 79 F2 E4 67 CF 9E F1 DF 45 AA EA 48 76 9A 65 
B0 64 65 CA 94 29 F1 50 41 B5 82 45 3F 3F BF 32 65 CA F0 C9 E9 E2 E2 52 B2 F2 00 18 1B 27 27 27 
EE E7 AB B0 B0 50 76 D1 4B EE BA CF 3A 12 14 14 C4 5D 6A F9 EA D5 AB 41 41 41 52 79 72 72 72 5A 
B4 68 E1 E8 E8 E8 E1 E1 E1 E4 E4 E4 E8 E8 A8 DD A9 16 9B 35 6B 76 F1 E2 45 3E 39 A5 C6 4D CB CE 
8C 03 96 03 C1 62 09 D5 AC 59 53 2A 52 8C 8E 8E 96 3B 41 37 73 E4 C8 11 EE 43 25 23 E6 C0 02 55 
A8 50 A1 C4 D5 0C 52 2B 80 29 37 7F FE 7C 2C F7 67 36 B8 EB FE 99 F7 9C C0 1A 72 75 75 E5 06 8B 
E7 CE 9D 6B DD BA B5 54 1E 6E 18 A7 23 8D 1B 37 E6 8E 45 3B 76 EC D8 88 11 23 A4 F2 24 26 26 DE 
BD 7B 97 BB 45 49 B0 58 82 7E 90 2D 5B B6 8C 88 88 E0 6E 91 48 24 B2 35 AF B9 B9 B9 C7 8E 1D E3 
6E 91 1A 1C 0D 14 FD DC 29 A8 BA 36 9F 2A 7F 34 43 97 D0 17 5F 7C B1 6F DF 3E EE 96 2E 5D BA 08 
85 C2 D0 D0 D0 9C 9C 1C EE F6 BC BC BC 1E 3D 7A 08 85 C2 E5 CB 97 73 B7 4F 98 30 41 1F 05 05 13 
21 BB EC 8A D4 B4 8B 8A E4 E4 E4 AC 5E BD 5A 07 25 02 30 1F 3D 7B F6 E4 3E EC D2 A5 4B 78 78 38 
1B B1 F1 EC D9 B3 B6 6D DB EA 61 6C 72 CF 9E 3D 47 8F 1E CD 1E C6 C7 C7 D7 AB 57 4F 6A AA 6A A9 
7B B9 5A B5 6A B1 B4 EC EC BC 52 73 AC F2 D1 A2 45 0B A9 C9 13 CA 95 2B 97 94 94 C4 DD B2 7B F7 
6E 77 77 77 A9 B6 0E 6F 6F 6F 75 5F 0B CC 06 82 C5 92 FB E6 9B 6F A4 BA 2A 4A 24 92 C8 C8 48 17 
17 97 CF 3E FB AC 4E 9D 3A 75 EA D4 F1 F6 F6 76 72 72 DA B7 6F 9F D4 4D 3F FA 18 81 94 B6 6D DB 
4A 6D 89 8C 8C E4 B3 E3 EE DD BB DF BF 7F CF DD 82 F9 DE 01 A4 C8 AE 95 F2 CB 2F BF D4 AA 55 6B 
D8 B0 61 DF 7E FB AD 9F 9F 5F 42 42 C2 C8 91 23 F5 50 92 F1 E3 C7 73 1F A6 A6 A6 36 6A D4 28 35 
35 F5 E9 D3 A7 E7 CF 9F FF FE FB EF A5 F2 73 6B 01 CB 96 2D 2B F5 DB 91 9B 9B BB 6F DF BE A4 A4 
24 A9 F5 9F 94 EB D9 B3 27 77 C5 BF F7 EF DF 7F F5 D5 57 3F FD F4 53 46 46 C6 BD 7B F7 8E 1C 39 
32 70 E0 40 A9 DF AC 21 43 86 F0 3F 3E 98 1F 34 43 6B 64 DF BE 7D 72 67 4E 7E F6 EC 99 F2 EE 8C 
72 67 5E 04 4B 56 A1 42 85 C0 C0 40 EE FD FD EC D9 B3 BB 75 EB C6 5D B0 55 AE A5 4B 97 4A 6D E9 
D4 A9 93 F6 CB 07 C6 84 DB FA CC 12 68 86 56 A2 4E 9D 3A 4D 9B 36 BD 70 E1 02 77 E3 A3 47 8F B6 
6D DB C6 1E 86 87 87 AF 58 B1 42 D7 25 29 57 AE 9C D4 3F D6 E3 C7 8F EB D5 AB 27 37 F3 94 29 53 
B8 CD E5 76 76 76 B5 6B D7 FE EB AF BF B8 79 58 7C C9 BF 49 5A 28 14 EE D8 B1 43 6A BA EC 35 6B 
D6 AC 59 B3 46 6E FE 46 8D 1A 2D 5A B4 88 E7 C1 2D 0A 77 3A 6E F3 AE 03 42 CD A2 46 5C 5C 5C C4 
62 F1 E6 CD 9B AB 54 A9 C2 73 97 9B 37 6F 4A 24 12 04 8B 20 2B 21 21 A1 72 E5 CA EC 61 4A 4A 8A 
AD AD ED 92 25 4B 94 EC B2 78 F1 E2 F4 F4 74 EE 96 A6 4D 9B 1E 3A 74 48 47 25 04 E3 64 DE BF 52 
DA 12 17 17 E7 E4 E4 24 F7 29 27 27 A7 83 07 0F BA B8 B8 54 AC 58 51 0F 25 C9 CB CB 3B 7D FA B4 
AF AF AF 92 3C E5 CB 97 CF CF CF 9F 36 6D 9A D4 F6 0B 17 2E 34 6A D4 48 F3 32 94 2D 5B F6 C5 8B 
17 FD FB F7 57 DE F8 EE EC EC FC FE FD FB B3 67 CF CA 8E 07 02 4A F1 F2 2D 66 05 C1 A2 A6 04 02 
C1 C0 81 03 D3 D2 D2 06 0C 18 F0 D9 67 9F C9 CD 63 6D 6D 5D B7 6E DD E9 D3 A7 DF BC 79 D3 DF DF 
5F CF 25 04 53 61 63 63 23 5B 4D 38 61 C2 04 D9 96 29 42 48 66 66 66 FF FE FD 27 4E 9C C8 DD 68 
65 65 A5 DD 81 93 60 E4 B0 E8 9F 5A 92 92 92 BE FD F6 5B 2B AB FF 34 A9 7D F3 CD 37 49 49 49 B4 
3E 5E 6F 53 96 36 6E DC F8 C6 8D 1B 4D 9B 36 95 2A 0C 21 C4 D7 D7 77 CE 9C 39 C9 C9 C9 72 77 B4 
B6 B6 8E 8E 8E 96 0D DD 4A D0 A1 D0 C9 C9 69 ED DA B5 37 6F DE 94 1B 22 D7 A9 53 67 DA B4 69 69 
69 69 58 82 45 39 A5 CB FD 99 0F 81 F2 8A 6B BA 80 8F 71 CE 3B AF 6B 02 81 40 28 14 8A 44 22 B5 
3E 2A 2F 5F BE 8C 89 89 79 F7 EE DD FB F7 EF 6D 6C 6C 9C 9C 9C 5C 5D 5D 3B 77 EE 8C DB 32 75 59 
6C B3 9A DC 9F FC BE 7D FB 76 E9 D2 A5 46 8D 1A 65 CB 96 7D FE FC F9 ED DB B7 07 0D 1A 24 3B 55 
67 44 44 C4 A4 49 93 A4 36 B6 6E DD FA F4 E9 D3 EC E1 A0 41 83 EA D4 A9 C3 BF 3C B2 A3 35 CD 9B 
69 5D 78 EC 57 AA B8 B8 58 2C 16 9B 50 C9 0D 28 37 37 77 EF DE BD 6F DE BC 71 70 70 F0 F1 F1 31 
EC 7A 30 B9 B9 B9 D7 AE 5D 4B 49 49 C9 CF CF 77 76 76 AE 58 B1 62 C7 8E 1D 55 EE F5 FA F5 EB C4 
C4 44 BA 2A 58 95 2A 55 3E FF FC 73 0D EB 44 EF DF BF 7F FB F6 ED B4 B4 34 1B 1B 9B 32 65 CA B4 
6B D7 CE CD CD 4D 93 03 5A 0E 7A 9F 46 A3 05 53 BC 61 A3 65 56 F9 D5 81 60 51 A1 92 05 8B A0 2D 
A6 F5 9B AD 45 EF DE BD 0B 09 09 39 73 E6 8C BA 3B 16 17 17 CB BD 56 A5 82 45 75 59 DA BF 82 69 
5D 78 08 16 01 0C CB 42 82 45 84 41 00 C6 C5 D9 D9 39 26 26 46 AA 7D 59 39 57 57 D7 2D 5B B6 E0 
AE C6 32 B1 26 68 13 FC 9D 02 30 03 92 FF A6 B9 7F E6 03 BF 2E 00 46 C7 DA DA 7A E1 C2 85 B2 93 
06 CB 35 64 C8 90 3B 77 EE 0C 18 30 40 D7 A5 02 00 00 CB 84 66 68 85 D0 0C 6D 58 A6 D5 1A A8 6B 
17 2F 5E FC E7 9F 7F B2 B3 B3 0B 0B 0B 9D 9D 9D DD DC DC BA 75 EB 86 8E B0 BA 60 A2 17 5E 51 51 
91 58 2C 16 8B C5 86 2E 08 80 C5 11 0A 85 9F 9A A1 A5 9E 31 81 DA 7E F4 59 D4 14 82 45 C3 32 D1 
DF 6C 30 75 26 7A E1 21 58 04 30 14 4B 08 16 11 06 01 00 00 00 80 42 08 16 01 00 00 00 4A C8 12 
E6 59 44 B0 08 00 00 00 00 0A 21 58 04 00 30 07 58 C4 05 00 74 44 7A A1 21 00 00 30 39 34 4C E4 
D9 57 1D 00 B4 4E 22 91 D0 11 2D F2 EE D9 A4 3E 92 A6 77 53 87 9A 45 00 00 00 00 50 08 C1 22 00 
00 00 00 28 84 60 11 00 C0 E4 49 35 43 33 86 2E 17 00 98 03 04 8B 00 00 00 00 A0 10 06 B8 00 00 
98 03 0C 85 06 30 08 6E 45 BE 82 8F A1 C9 7F 36 51 B3 08 00 00 00 00 0A 21 58 04 00 00 00 00 85 
D0 0C 0D 00 60 BA FE 1D C2 C2 1A BF 30 35 37 80 81 B0 F1 64 66 F8 01 44 CD 22 00 00 00 00 28 84 
9A 45 00 00 73 40 27 CF 31 74 29 00 C0 0C 21 58 04 00 30 79 2C 52 44 1B 34 80 41 B0 59 4D CD F2 
23 88 66 68 00 00 00 00 50 08 C1 22 00 00 00 40 C9 99 FD 82 49 BC 9A A1 ED ED ED 75 5D 0E 00 59 
68 50 03 83 C0 85 07 00 C0 85 9A 45 00 00 00 00 50 88 57 CD 62 7E 7E BE AE CB 61 84 04 02 81 50 
28 14 89 44 42 21 42 6A 03 10 08 04 E6 5D AB 0F C6 C9 A4 2F 3C 89 44 52 54 54 24 16 8B 4D F7 2D 
00 98 22 1A 30 08 85 42 9A 30 74 71 D4 C0 B3 21 C5 94 DE 12 00 00 00 00 E8 19 82 45 00 00 00 00 
50 08 F3 2C 02 00 98 0A D9 C6 65 E9 26 24 B6 DC 1F 5A A2 01 F4 89 0D 88 66 1F 3D 79 0D BC A6 3A 
78 0E 35 8B 00 00 66 45 20 30 CF 69 81 01 C0 50 10 2C 02 00 00 00 80 42 68 86 06 00 30 1F 02 81 
E0 D3 BA 7F 68 88 06 D0 13 D6 00 6D AE B3 B4 A2 66 11 00 00 00 00 14 42 CD 22 00 80 A9 50 5D 69 
21 10 FC 9B 4D 22 E1 76 B4 37 CF DA 0E 00 23 64 96 1F 37 D4 2C 02 00 98 19 33 FC AD 02 00 03 42 
CD A2 46 8A 8A 8A DE BF 7F 4F D3 2E 2E 2E 7C 76 79 FB F6 2D 4D 94 2A 55 CA 2C EF 3F 80 AB B0 B0 
30 2F 2F 8F 10 22 12 89 9C 9C 9C 54 E6 CF CB CB 2B 2C 2C 24 84 D8 D9 D9 D9 DA DA 72 9F CA CF CF 
FF F8 F1 23 21 C4 D6 D6 D6 CE CE 4E E5 A1 D2 D2 D2 2E 5F BE 7C E7 CE 9D DC DC 5C 17 17 97 80 80 
80 A0 A0 A0 F2 E5 CB EB AD C0 00 9A 60 5F 95 B2 AC AD AD 1D 1C 1C F8 1C 44 22 91 E4 E4 E4 10 42 
6C 6C 6C EC ED ED B5 56 38 00 0B 83 9A 45 8D BC 7F FF DE F5 93 A7 4F 9F AA CC 7F F3 E6 4D 96 5F 
0F C5 03 83 3B 7A F4 28 FD E7 6E D3 A6 0D 9F FC 03 07 0E A4 F9 57 AF 5E 2D F5 D4 C4 89 13 E9 53 
93 27 4F 56 7E 90 5B B7 6E 95 2D 5B D6 D7 D7 B7 5F BF 7E 11 11 11 AB 57 AF 9E 37 6F 5E F7 EE DD 
BD BD BD 7D 7C 7C 32 32 32 F4 53 60 30 10 01 1B E3 62 BA DE BE 7D EB A9 98 9B 9B 5B B9 72 E5 6A 
D7 AE BD 73 E7 CE 97 2F 5F 2A 39 CE AB 57 AF E8 2E A3 46 8D D2 5B E1 01 CC 0F 82 45 8D B8 B8 B8 
8C 18 31 82 A6 CB 97 2F BF 77 EF 5E 25 99 23 22 22 EA D4 A9 43 D3 BF FD F6 1B AA 15 41 BB CE 9E 
3D EB EE EE 2E 10 08 FC FD FD 15 FD 82 3E 78 F0 A0 42 85 0A 02 81 A0 7E FD FA 7A 2E 1E 80 16 E5 
E6 E6 A6 A7 A7 0F 1E 3C D8 DB DB DB DE DE 3E 21 21 C1 D0 25 02 D5 B2 B2 B2 76 EE DC B9 73 E7 CE 
D4 D4 54 43 97 05 D4 83 66 68 4D 2D 5C B8 30 36 36 F6 DE BD 7B 84 90 91 23 47 7E F5 D5 57 E5 CA 
95 93 CD 76 F7 EE DD 99 33 67 D2 F4 37 DF 7C D3 AB 57 2F 7D 16 12 2C 41 97 2E 5D 58 A7 08 5B 5B 
DB D6 AD 5B 87 86 86 76 E8 D0 C1 D9 D9 F9 E1 C3 87 B1 B1 B1 DB B7 6F 4F 49 49 A1 19 FE FC F3 CF 
E7 CF 9F BB BB BB 1B AE BC A0 43 E6 34 2F F7 B0 61 C3 6C 6C 6C B8 5B B2 B3 B3 B3 B2 B2 AE 5D BB 
F6 FA F5 6B BA A5 5B B7 6E 87 0E 1D 6A D5 AA 95 21 0A 08 7C A5 A6 A6 0E 1E 3C 98 10 B2 7C F9 72 
5F 5F 5F 43 17 47 CB 24 9F 18 BA 20 3A 81 60 51 53 0E 0E 0E BF FE FA 6B D3 A6 4D 8B 8B 8B B3 B3 
B3 47 8E 1C 29 5B BF 28 16 8B FB F7 EF 5F 50 50 40 08 29 5F BE FC BA 75 EB 0C 51 52 30 67 C9 C9 
C9 2C 52 24 84 A4 A5 A5 55 AC 58 91 3D F4 F7 F7 F7 F7 F7 1F 37 6E 5C 54 54 54 B7 6E DD E8 C6 7E 
FD FA 1D 3F 7E 1C 35 DC 60 E4 66 CF 9E ED E8 E8 28 BB BD B8 B8 B8 53 A7 4E E7 CE 9D 23 84 E4 E7 
E7 87 86 86 26 26 26 FA F9 F9 71 F3 D8 D9 D9 D1 C6 9F 86 0D 1B EA A7 B4 00 66 09 CD D0 5A D0 A8 
51 A3 89 13 27 D2 F4 BE 7D FB 64 33 AC 58 B1 E2 F2 E5 CB 34 BD 6D DB B6 32 65 CA E8 AF 70 60 01 
F2 F3 F3 BB 74 E9 42 D3 56 56 56 BF FD F6 1B 37 52 64 04 02 41 D7 AE 5D 9B 37 6F 4E 1F C6 C4 C4 
6C DB B6 4D 7F A5 04 BD F8 B4 36 B4 C9 77 5B 54 49 24 12 C5 C4 C4 AC 5F BF 5E 28 14 12 42 0A 0A 
0A 86 0C 19 22 16 8B B9 79 1C 1D 1D 17 2F 5E BC 78 F1 E2 6F BF FD D6 40 C5 04 30 07 08 16 B5 63 
FE FC F9 AC A1 A4 7F FF FE DC A7 24 12 C9 F8 F1 E3 69 BA 46 8D 1A 3C C7 0D 00 F0 94 99 99 E9 EE 
EE FE F8 F1 63 42 C8 CF 3F FF 5C 58 58 A8 BC 93 C3 B9 73 E7 AE 5C B9 42 D3 03 07 0E 8C 8D 8D D5 
47 29 41 2F 04 FF F5 29 64 34 E7 A8 B1 5F BF 7E AC 4E 3D 29 29 09 9D 71 01 74 01 CD D0 5A 33 73 
E6 CC 29 53 A6 10 42 B6 6F DF DE A3 47 8F 76 ED DA D1 ED 6B D6 AC A1 09 6B 6B EB 5D BB 76 19 AC 
7C 60 A6 22 22 22 72 73 73 09 21 7E 7E 7E 33 66 CC E0 B3 4B 60 60 60 40 40 C0 8D 1B 37 08 21 27 
4F 9E 64 D7 2A 80 89 B2 B6 B6 A6 53 38 A5 A5 A5 49 3D 45 43 49 2B 2B 2B B9 53 3B 5D BA 74 69 D7 
AE 5D 6F DE BC 71 74 74 6C D5 AA 95 BF BF 3F 1B 86 A8 C8 ED DB B7 4F 9C 38 F1 F8 F1 E3 FC FC 7C 
2F 2F AF C0 C0 C0 8E 1D 3B 2A DF E5 E1 C3 87 27 4E 9C B8 74 E9 92 44 22 F1 F0 F0 18 3C 78 70 F5 
EA D5 15 65 CE CB CB A3 FD DE 58 E3 FB D1 A3 47 6F DC B8 F1 E4 C9 93 4A 95 2A 55 AB 56 AD 69 D3 
A6 DE DE DE B2 3B D2 77 6A 63 63 63 6D 6D 4D 08 29 2A 2A 9A 3B 77 EE 93 27 4F 3E 7E FC D8 A1 43 
07 45 7B 71 7D F8 F0 E1 CC 99 33 49 49 49 F7 EE DD AB 58 B1 A2 8F 8F 4F ED DA B5 1B 35 6A A4 7C 
2F C2 39 27 59 59 59 BE BE BE 81 81 81 5F 7D F5 15 F7 84 17 15 15 15 14 14 7C F8 F0 81 3E 2C 28 
28 60 21 BE DC 3E 06 60 6C 10 2C 6A CD C4 89 13 A3 A2 A2 12 13 13 09 21 83 07 0F 4E 49 49 71 76 
76 FE E7 9F 7F C2 C3 C3 69 86 19 33 66 34 68 D0 C0 A0 65 04 33 74 F8 F0 61 9A 18 3F 7E 3C FD 91 
E0 63 E6 CC 99 BB 77 EF 26 84 F0 99 4C 11 C0 C8 75 E8 D0 E1 E8 D1 A3 B2 DB 0B 0A 0A CA 96 2D 4B 
08 E9 DD BB F7 A6 4D 9B B8 4F C5 C6 C6 CE 9E 3D 9B DE 32 51 F4 66 BE 5D BB 76 91 91 91 8A 5E 28 
3E 3E BE 43 87 0E 52 1B 27 4C 98 10 1E 1E AE 68 EA C7 E0 E0 60 FA BB C0 AC 59 B3 A6 56 AD 5A F3 
E7 CF 6F DB B6 AD 6C FE 9A 35 6B 66 65 65 11 42 F2 F3 F3 09 21 3B 76 EC 18 32 64 08 37 83 AD AD 
ED 3F FF FC 23 3B FF 1A 7D A7 3F FF FC F3 D4 A9 53 77 EC D8 31 73 E6 CC CC CC 4C FA D4 FE FD FB 
6D 6D 6D 87 0F 1F 3E 61 C2 04 45 13 B7 E5 E6 E6 56 AE 5C 99 DB F5 99 DA B6 6D 5B 58 58 98 48 24 
92 BB 17 51 70 4E 9C 9C 9C 1E 3E 7C C8 CE C9 AE 5D BB 86 0E 1D CA 9E 0D 0F 0F 67 BF 8C F4 6D 82 
91 43 33 B4 D6 88 44 A2 4B 97 2E D1 D9 E6 1E 3D 7A E4 E2 E2 B2 71 E3 C6 2A 55 AA BC 7F FF DE D1 
D1 31 3D 3D FD E7 9F 7F 36 74 19 C1 0C D1 06 68 42 C8 C0 81 03 F9 EF D5 A5 4B 97 3D 7B F6 EC D9 
B3 67 D6 AC 59 BA 29 17 80 FE 2C 59 B2 84 A5 E9 AC F2 CA D9 DB DB 87 84 84 D0 48 F1 F3 CF 3F 6F 
D5 AA 15 AB 3F 8B 8D 8D B5 B7 B7 3F 7D FA B4 D4 2E C3 86 0D B3 B7 B7 A7 51 11 9D A0 AA 66 CD 9A 
B4 F7 D1 E2 C5 8B DD DC DC AA 55 AB 26 B5 CB E4 C9 93 ED ED ED 59 A4 D8 AC 59 B3 96 2D 5B D2 FE 
C4 B7 6E DD EA D6 AD DB 77 DF 7D A7 A4 90 F3 E6 CD B3 B7 B7 1F 32 64 48 F3 E6 CD 7F FC F1 C7 41 
83 06 D1 97 2B 28 28 F0 F2 F2 92 8A 20 A5 DE DD 90 21 43 9E 3F 7F 4E F7 6A D6 AC 19 DD 6B D9 B2 
65 5E 5E 5E B2 F9 AF 5F BF EE E9 E9 59 AE 5C 39 16 29 B6 6E DD DA DF DF 9F 8E 7E EB DF BF BF 93 
93 13 3D 88 CA 73 D2 BA 75 6B 5A C8 DC DC 5C 7A 4E E8 17 94 48 24 72 74 74 64 AB 09 58 5B 5B 3B 
7E A2 E4 0C 80 F1 40 B0 A8 65 C3 86 0D A3 09 89 44 32 61 C2 04 9A 5E B1 62 45 D5 AA 55 0D 57 28 
00 00 73 56 A1 42 05 56 61 76 EB D6 2D E5 99 8F 1F 3F CE D2 E1 E1 E1 7F FD F5 D7 F1 E3 C7 CF 9E 
3D 7B F4 E8 51 1F 1F 1F BA 9D CD 74 46 ED DD BB 97 8D 06 FB FE FB EF D3 D2 D2 AE 5E BD 7A FD FA 
F5 AC AC AC E9 D3 A7 D3 ED 4F 9E 3C E1 EE 72 F2 E4 C9 15 2B 56 D0 74 9D 3A 75 4E 9E 3C 79 F2 E4 
C9 13 27 4E A4 A6 A6 B2 41 66 87 0F 1F DE BA 75 AB A2 72 CE 9B 37 8F 10 E2 EF EF 1F 1B 1B BB 62 
C5 8A 95 2B 57 FE F1 C7 1F 6C DF 1D 3B 76 DC BF 7F 5F 76 AF F3 E7 CF D3 BD 6E DE BC 49 F7 3A 79 
F2 24 DB 8B 10 22 BB 57 EF DE BD E9 7A 39 CE CE CE EB D6 AD 7B FE FC 79 54 54 D4 D5 AB 57 1F 3C 
78 D0 A3 47 0F 9A E7 DA B5 6B B2 AF 25 7B 4E A2 A2 A2 E8 39 A1 EB E5 3C 79 F2 64 F6 EC D9 84 90 
3E 7D FA 64 67 67 1F 39 72 84 E6 5F B4 68 51 F6 27 8A DE 3E 18 15 34 43 6B 99 40 20 70 71 71 A1 
1F 3C BA CC 14 21 E4 87 1F 7E 30 68 A1 C0 F0 72 73 73 AF 5F BF AE 32 DB AB 57 AF F4 50 18 3E 4C 
AE C0 60 E1 AA 54 A9 F2 C7 1F 7F 10 42 94 AF E9 42 08 F9 ED B7 DF 68 62 EE DC B9 6C F4 21 21 A4 
4D 9B 36 87 0E 1D FA F2 CB 2F 3F 7C F8 70 ED DA B5 A7 4F 9F 7E F6 D9 67 F4 29 6E 36 EE DC 67 76 
76 76 93 27 4F A6 F1 10 21 E4 C1 83 07 55 AA 54 21 84 14 15 15 8D 1C 39 92 1D F6 E0 C1 83 DC A9 
22 63 62 62 06 0F 1E 4C 5B BD C3 C3 C3 BF FE FA EB 52 A5 4A C9 96 53 22 91 74 E8 D0 81 DB D3 DD 
C7 C7 E7 C0 81 03 0D 1A 34 A0 EB 30 9D 3F 7F 9E 45 B7 4C 42 42 02 DD 8B DB 2C AE 7C AF 7F FE F9 
87 26 AE 5E BD 5A A9 52 25 B6 DD C3 C3 63 DB B6 6D FB F6 ED A3 7D 28 AF 5E BD FA C5 17 5F B0 67 
B9 EB 31 CA 9E 93 80 80 80 90 90 10 42 C8 9E 3D 7B A4 3A 00 80 29 42 B0 A8 7D 6F DE BC A9 57 AF 
5E 72 72 32 7D B8 7C F9 72 C3 96 07 8C 41 4A 4A 8A 2E 66 7A E3 33 01 EC E3 C7 8F 03 02 02 94 64 
F8 F5 D7 5F 65 BB 1C E9 A8 C0 A0 4F 02 81 C0 5C A7 08 96 E5 ED ED 4D 83 C5 07 0F 1E 28 CF 49 DB 
85 6D 6D 6D 47 8F 1E 2D F5 54 8D 1A 35 4E 9C 38 71 F7 EE 5D 42 08 1D 31 43 B1 9B 22 B9 77 50 B1 
B1 B1 74 94 D8 AC 59 B3 B6 6F DF 4E 08 09 0B 0B 7B F4 E8 11 7D 56 B6 33 A5 40 20 D8 B4 69 53 97 
2E 5D BE FD F6 DB 77 EF DE 75 EC D8 F1 C2 85 0B B2 87 1D 39 72 E4 A2 45 8B A4 36 96 2A 55 6A F3 
E6 CD ED DB B7 27 84 28 5A BA 93 F5 63 E6 B3 17 8B F3 C6 8E 1D CB 8D 14 99 87 0F 1F FA FB FB E7 
E4 E4 B4 6C D9 F2 D1 A3 47 6E 6E 6E 74 3B 9B 02 5D EE 39 61 C3 E6 8A 8B 8B E5 16 12 4C 0B 82 45 
ED 3B 76 EC 18 8B 14 09 21 AB 56 AD 1A 33 66 8C 01 CB 03 66 8C 4F DF 70 B1 58 AC BC AD E7 E3 C7 
8F DA 2B 11 80 81 D1 69 17 95 A8 5A B5 EA B3 67 CF 0A 0A 0A F6 EC D9 D3 A7 4F 1F A9 67 1B 35 6A 
24 35 FE 97 0D 13 A9 5B B7 6E CD 9A 35 65 0F F8 E5 97 5F 76 EE DC B9 B8 B8 B8 42 85 0A 74 0B EB 
A7 28 B5 F6 0C 17 BB 43 FB F3 CF 3F E5 66 E8 D9 B3 A7 DC ED 9E 9E 9E 8A 8E A9 84 A2 BD CE 9C 39 
43 13 8A A6 DC 2A 57 AE 5C B3 66 CD 8E 1D 3B 26 16 8B 6F DC B8 41 67 7F CB CC CC BC 73 E7 0E 51 
7C 4E 08 21 F4 9C 94 A0 A8 60 84 10 2C 6A 9F 54 A3 B3 DC 6E 25 60 69 7C 7C 7C E8 CC 4A CA 6D D8 
B0 E1 EA D5 AB FC 0F AB 68 00 A6 E6 74 54 60 00 1D 61 DD 7E 14 8D F6 65 6A D7 AE 4D 6B F2 86 0F 
1F 9E 96 96 36 67 CE 1C E5 F9 93 92 92 68 42 D1 24 32 D6 D6 D6 07 0E 1C E0 6E 61 4D B4 8A 02 29 
BA 17 4D 28 8A A8 14 F5 74 2F D9 AA 4B 8A F6 A2 0B 46 38 39 39 29 29 AA 9F 9F DF B1 63 C7 08 21 
77 EF DE A5 C1 A2 CA 73 42 08 91 3A 27 60 D2 10 2C 6A D9 AF BF FE 4A 6F 43 45 22 51 8F 1E 3D 68 
E7 18 0F 0F 8F 94 94 14 B9 6B 46 83 85 70 77 77 E7 33 5A F9 D4 A9 53 5A 8F BD 2A 55 AA 24 B7 2D 
52 F9 4F 8E 01 0B 0C EA 90 DF CA 2C 10 58 CF E5 A9 00 00 20 00 49 44 41 54 FC EF DF D7 42 5A A2 
59 7B 8E EC A8 64 29 CB 96 2D DB B1 63 47 5E 5E 5E 61 61 E1 92 25 4B D8 48 6A 5A 41 D8 BD 7B 77 
A9 D6 D8 4B 97 2E D1 04 9F 19 07 A5 34 6D DA 54 DD 5D 18 B9 1D 19 55 F2 F7 F7 E7 9F 39 3D 3D 9D 
36 3B E4 E6 E6 F2 19 98 4C 1B E8 89 66 E7 C4 1C FD FB 11 93 5A 1E 5A F6 3B 56 EA C3 68 42 AB AD 
62 34 B4 36 3D 7A F4 88 75 6A 1E 37 6E DC 2F BF FC E2 E1 E1 41 08 79 FE FC F9 A0 41 83 0C 5A 34 
00 00 B3 F5 E8 D1 A3 37 6F DE D0 74 AD 5A B5 54 E6 4F 4A 4A 0A 0B 0B 93 6A B0 4E 4C 4C FC F9 E7 
9F 6B D4 A8 21 D5 09 EF F5 EB D7 34 C1 C6 BB F0 57 82 5D 34 A4 B2 15 9E 8B BD 35 9E 58 97 15 4D 
CE 09 98 22 D4 2C 6A 8D 44 22 E9 D7 AF 1F 6D 0A A9 5E BD FA EC D9 B3 ED EC EC D6 AC 59 F3 F5 D7 
5F 13 42 8E 1C 39 B2 6D DB 36 A9 95 00 01 B4 48 22 91 98 D0 7D 2A E8 1A F7 62 30 FB CA 45 B6 82 
25 21 84 4D E6 A7 44 D5 AA 55 7F FD F5 D7 45 8B 16 1D 3C 78 70 DA B4 69 6C 65 11 AA 79 F3 E6 93 
27 4F 9E 3A 75 2A 7D 68 65 F5 EF 0F 65 09 7A F7 AA 1B 8D E9 19 EB 52 E9 ED ED 5D BB 76 6D 95 F9 
59 53 B5 26 E7 04 4C 11 82 45 AD B1 B7 B7 2F 28 28 20 84 8C 19 33 86 8D 80 EE DE BD 7B 56 56 16 
AD 5F 1C 30 60 C0 D6 AD 5B 13 12 12 0C 59 4A 30 3B 81 81 81 B4 FF 50 BB 76 ED 4E 9E 3C C9 73 2F 
45 E3 28 01 4C D1 80 01 03 4A B0 97 A7 A7 E7 88 11 23 46 8C 18 41 1F BE 7F FF FE F7 DF 7F 9F 31 
63 C6 D3 A7 4F E7 CD 9B B7 73 E7 CE D4 D4 54 42 08 5B 9A EF C2 85 0B AD 5B B7 56 EB 25 E4 0E 73 
36 1E 9F 7F FE 39 4B C8 8E A1 56 42 93 73 02 A6 08 CD D0 DA F1 F1 E3 47 1A 29 92 4F 33 A9 32 EE 
EE EE 2C 6D E4 5F 1C 60 8A 7E FA E9 27 9A 88 8B 8B 8B 8B 8B E3 B9 17 9B 19 0E C0 0C 14 15 15 D1 
84 CA 95 9D 95 70 74 74 EC DD BB F7 B9 73 E7 E8 43 36 F7 0D 5B A6 95 C6 8E 72 75 ED DA D5 DB DB 
BB 4A 95 2A 74 B4 0A AB 78 93 5D AB DA A8 38 38 38 F8 F9 F9 11 42 6E DE BC A9 D6 C8 65 FE E7 C4 
DB DB 1B 63 A2 CD 00 82 45 ED 98 31 63 06 4D 08 04 02 D9 01 AA 5D BB 76 65 69 EE AC 3A 00 9A FB 
BF FF FB 3F 36 C5 6E DF BE 7D 5F BC 78 A1 72 97 F8 F8 78 25 EB 46 80 29 13 70 FE 2C C5 96 2D 5B 
58 7A D4 A8 51 CA 33 6F DB B6 AD 56 AD 5A B5 6A D5 52 F4 11 F0 F6 F6 96 DA C2 02 A3 E8 E8 68 B9 
55 F2 AF 5F BF 3E 7D FA F4 CB 97 2F 4B 95 2A 45 D7 50 AE 5B B7 2E 7D 4A C9 0C E1 AC 1D 40 EE 12 
7C 7A 13 14 14 44 08 C9 CE CE FE FD F7 DF 15 E5 69 D6 AC 99 BD BD 7D D9 B2 65 D9 52 8A 0D 1A 34 
A0 01 B1 A2 73 42 08 A1 E7 E4 E5 CB 97 4A D6 95 36 17 FF F9 D0 71 C7 B8 48 E7 FB 2F 3D 96 50 53 
08 16 B5 E0 E2 C5 8B 6C EA 54 B6 DC 1F D7 FA F5 EB 4B 97 2E 4D D3 BD 7B F7 66 75 90 00 9A 13 89 
44 6B D7 AE A5 DF 3B 99 99 99 9D 3B 77 7E FE FC B9 92 FC 29 29 29 DD BB 77 C7 BD 3E 98 01 89 44 
B2 6A D5 2A D6 8E DC AA 55 2B E5 AB 2D 13 42 EC EC EC EE DF BF 7F FF FE FD F8 F8 78 9E AF 42 57 
AE 23 84 14 15 15 AD 5C B9 52 36 C3 EF BF FF 2E 16 8B 09 67 68 70 F7 EE DD 55 1E 76 F1 E2 C5 34 
41 FB B5 1B 4A 58 58 18 4D 2C 5B B6 4C 6E 86 F8 F8 78 BA D6 5F B7 6E DD 58 55 88 BD BD 7D E7 CE 
9D 89 E2 73 42 08 A1 E7 04 CC 03 82 45 4D 0D 1A 34 A8 69 D3 A6 F4 53 11 17 17 B7 7A F5 6A D9 3C 
5E 5E 5E AF 5E BD A2 53 B0 A6 A4 A4 38 38 38 B0 96 0E 00 CD B5 6B D7 8E CD CE 9D 94 94 E4 E1 E1 
D1 B9 73 E7 E8 E8 68 56 0D 40 08 C9 CB CB 3B 7A F4 68 93 26 4D 6A D7 AE FD EA D5 2B D9 EA 13 30 
4D 02 B3 AF 4D 1C 33 66 CC D0 FF FA F6 DB 6F 5B B5 6A 55 A6 4C 19 07 07 87 89 13 27 12 42 5C 5D 
5D 13 12 12 B8 8B 3E 2B D2 B3 67 4F 3A 7F E1 81 03 07 EA D5 AB F7 D7 5F 7F 71 9F BD 79 F3 26 6B 
C8 A6 AB D5 51 1D 3B 76 A4 89 55 AB 56 49 F5 0C BE 7D FB F6 F0 E1 C3 69 9A BB 1A CA CF 3F FF 4C 
D3 F6 F6 F6 B3 66 CD E2 0E 04 59 B9 72 A5 93 93 13 ED 95 F4 C3 0F 3F C8 2E D3 A2 4F C1 C1 C1 34 
F1 C7 1F 7F F4 ED DB 57 AA 2A F4 FA F5 EB 6C F2 F0 8D 1B 37 72 9F DA B3 67 0F 4D C8 3D 27 8D 1B 
37 A6 69 B9 E3 66 F8 34 80 80 51 C1 00 17 4D 6D DE BC 99 26 06 0F 1E AC BC 9F EF C6 8D 1B 6B D5 
AA 95 93 93 23 16 8B FB F5 EB C7 96 E3 04 D0 9C AD AD 6D F7 EE DD 0F 1D 3A 44 1F 1E 3B 76 EC D8 
B1 63 76 76 76 ED DA B5 73 73 73 7B FB F6 6D 74 74 34 AB D2 AE 5E BD 7A 5C 5C 5C FD FA F5 B1 B2 
33 18 3F EE E2 C8 8A C4 C4 C4 B0 96 5F 95 A6 4C 99 42 E7 10 4D 4D 4D 0D 0A 0A FA FE FB EF AB 57 
AF 6E 6B 6B 1B 19 19 C9 06 20 DA D9 D9 71 7B 9F AF 59 B3 26 30 30 90 86 38 DD BA 75 FB E2 8B 2F 
DA B4 69 23 10 08 6E DD BA 15 1D 1D 4D F3 58 59 59 71 A7 AD 99 34 69 D2 89 13 27 6E DC B8 41 08 
89 88 88 D8 B6 6D DB 84 09 13 44 22 D1 FD FB F7 57 AD 5A 45 F3 54 AD 5A 35 22 22 82 67 B1 75 67 
E0 C0 81 B4 29 FF C0 81 03 47 8F 1E ED DC B9 73 8B 16 2D 1E 3D 7A 74 E3 C6 0D B6 BE 8B BB BB BB 
6C 6B 72 B9 72 E5 A4 CE 89 A7 A7 E7 99 33 67 A2 A3 A3 69 2F 52 2B 2B 2B EE 82 B7 AC 8E 76 DB B6 
6D 7E 7E 7E DE DE DE 2F 5F BE EC D4 A9 93 1E DE 23 68 08 C1 A2 46 B8 B7 47 AC 4D 41 11 6F 6F EF 
25 4B 96 0C 1E 3C 98 10 F2 F0 E1 43 DD 96 0C 2C CF FE FD FB E7 CE 9D 1B 11 11 C1 6A 19 3F 7C F8 
70 E4 C8 11 A9 6C 7D FB F6 5D B6 6C 99 9B 9B 5B 93 26 4D A2 A2 A2 F4 5E 4C 00 6D 72 74 74 1C 3F 
7E 3C FF 48 91 10 D2 AB 57 2F EE 84 F3 74 35 67 2E 3B 3B BB 7D FB F6 B1 AE C0 84 10 4F 4F CF 93 
27 4F 76 EC D8 F1 D9 B3 67 84 90 AB 57 AF 4A CD 45 2F 14 0A D7 AE 5D CB DD 62 6D 6D 1D 15 15 D5 
AD 5B 37 DA 86 9B 95 95 C5 C6 A2 31 B1 B1 B1 7C A6 C2 D6 B5 5F 7E F9 E5 E3 C7 8F 3B 77 EE 24 84 
14 14 14 1C 3A 74 88 DD 76 52 76 76 76 FB F7 EF 97 DD 91 CF 39 69 D2 A4 09 DB 52 B3 66 4D BA 5E 
F9 B3 67 CF D8 42 8B 7C D6 2C 05 83 13 28 FF 77 A2 F7 01 96 F9 6F 29 10 08 84 42 A1 48 24 52 6B 
8E 53 D0 16 FA 9D 62 E8 52 98 AA 9D 3B 77 46 45 45 DD BF 7F FF CF 3F FF 74 72 72 F2 F2 F2 EA DD 
BB 77 58 58 18 9B F0 82 10 92 93 93 F3 F8 F1 63 42 48 C5 8A 15 9D 9D 9D 0D 57 58 E3 62 1E 17 9E 
44 22 11 8B C5 EC BF 66 F0 8E B4 EE E5 CB 97 7B F7 EE 3D 7F FE FC 99 33 67 72 73 73 6D 6D 6D 03 
03 03 83 82 82 BE FE FA 6B E5 A1 E7 F4 E9 D3 4F 9D 3A F5 E4 C9 93 F7 EF DF BB BB BB 7F F9 E5 97 
1B 37 6E 54 32 86 23 23 23 E3 F7 DF 7F 3F 71 E2 C4 A5 4B 97 C4 62 B1 87 87 C7 8F 3F FE C8 1D 97 
66 3C 7E FB ED B7 63 C7 8E 25 27 27 3F 78 F0 C0 D5 D5 B5 52 A5 4A 8D 1B 37 5E BA 74 A9 CA 1D D9 
39 79 F1 E2 45 E5 CA 95 BF FC F2 CB 8E 1D 3B CA ED B8 59 5C 5C BC 7B F7 EE 49 93 26 BD 7E FD DA 
D9 D9 B9 4A 95 2A DC 39 32 4D 1D 0D 1B 84 42 A1 09 0D 61 A1 85 54 F9 15 81 60 51 21 04 8B 86 65 
1E BF D9 60 72 CC E3 C2 43 B0 A8 16 4C 68 0F 5A 61 C6 C1 22 C2 20 00 00 B0 68 26 F1 A3 0E 60 40 
08 16 01 00 00 00 34 65 C6 77 1D 08 16 01 00 00 00 40 21 04 8B 00 00 00 00 A0 10 A6 CE 01 00 30 
31 B2 BD D1 E5 B6 7F B1 2E F6 18 E0 02 A0 07 12 89 C4 5C 1B A2 51 B3 08 00 00 00 00 0A 21 58 04 
00 00 00 D0 0E B3 AC 5C 44 B0 08 00 00 00 00 0A 21 58 04 00 00 00 00 85 30 C0 05 00 00 00 40 0B 
24 12 22 91 10 42 24 C4 BC A6 5D 44 CD 22 00 00 00 00 28 84 60 11 00 00 00 40 3B CC 72 A6 2A 34 
43 03 00 98 18 73 6A DE 02 00 E3 87 9A 45 00 00 00 00 50 08 C1 22 00 80 19 12 7C 62 E8 82 00 80 
C9 43 B0 08 00 00 00 00 0A 21 58 04 00 00 00 00 85 78 0D 70 B1 B7 B7 D7 75 39 00 64 A1 05 0D 0C 
02 17 1E 00 00 17 AF 60 31 3F 3F 5F D7 E5 30 42 02 81 40 28 14 8A 44 22 A1 10 F5 AF 06 20 10 08 
CC 72 02 02 30 72 E6 71 E1 B1 B7 20 16 8B C5 62 71 71 71 B1 61 CB 03 60 09 68 2F 61 A1 50 C8 12 
86 2E 91 6A 3C EF 8D 4D E0 9D 00 00 00 00 80 A1 60 9E 45 00 00 93 63 F2 75 9F 00 60 42 50 B3 08 
00 00 00 00 0A 21 58 04 00 00 00 00 85 D0 0C 0D 00 60 6E 30 A0 1B 00 B4 08 35 8B 00 00 00 00 A0 
10 6A 16 01 00 4C 8E 6C C5 21 86 BC 00 80 AE A0 66 11 00 00 00 00 14 42 B0 08 00 00 00 00 0A A1 
19 1A 00 C0 0C 48 35 4C A3 55 1A 00 B4 06 35 8B 00 00 00 00 A0 90 C5 05 8B 4B 96 2C B1 B7 B7 B7 
B7 B7 1F 30 60 80 26 C7 49 4E 4E 1E 33 66 8C 8F 8F 8F 40 46 97 2E 5D B6 6E DD 5A 58 58 28 77 C7 
8A 15 2B D2 6C 21 21 21 4A 8E BF 65 CB 16 76 C0 43 87 0E 29 C9 19 12 12 42 B3 55 AC 58 51 93 77 
04 BA C6 FE 41 FB F4 E9 53 E2 83 E0 C2 03 7D B2 57 AA 5C B9 72 B5 6B D7 0E 0B 0B 7B F9 F2 A5 A1 
4B 2A ED ED DB B7 7C 4A BE 73 E7 4E 43 97 54 6B 7E FF FD 77 FA EE 5A B4 68 C1 27 7F DF BE 7D 69 
FE 15 2B 56 C8 CD F0 EE DD BB 75 EB D6 C9 3D 81 8D 1A 35 5A BA 74 A9 92 83 EB F4 FC 9F 3C 79 B2 
49 93 26 F1 F1 F1 25 D8 17 4A C6 E2 82 45 AD E8 DF BF 7F 40 40 C0 2F BF FC F2 E0 C1 03 D9 67 A3 
A3 A3 07 0E 1C 58 B3 66 4D B9 FB 06 07 07 D3 C4 C5 8B 17 95 BC C4 C9 93 27 59 3A 26 26 46 49 CE 
4B 97 2E D1 44 AB 56 AD 94 17 1B 4C 5D 46 46 06 9F 0B EF E0 C1 83 B2 CF E2 C2 03 AD CB CD CD 4D 
4F 4F 8F 8E 8E AE 54 A9 D2 C4 89 13 73 72 72 0C 5D 22 BE 58 C9 07 0F 1E 6C 5A 25 D7 9B D8 D8 D8 
80 80 80 71 E3 C6 C9 7D 36 39 39 79 EA D4 A9 72 BF 6A F8 D0 F0 FC EF DF BF FF C6 8D 1B AF 5F BF 
2E D9 AB 43 09 20 58 54 5B 54 54 D4 F6 ED DB C5 62 B1 F2 6C E9 E9 E9 A1 A1 A1 F9 F9 F9 52 DB D9 
6F 76 76 76 76 6A 6A AA DC 7D C5 62 F1 A9 53 A7 D8 43 25 BF D9 F7 EE DD 7B F1 E2 05 4D E3 37 DB 
BC 45 45 45 D5 A8 51 83 CF 85 17 16 16 56 B2 0B 8F 10 82 0B 0F 4A A0 B8 B8 78 D5 AA 55 75 EB D6 
35 74 41 4A 82 96 3C 21 21 C1 D0 05 31 22 DB B7 6F 0F 09 09 C9 C8 C8 E0 6E AC 58 B1 A2 B5 B5 35 
77 4B 9F 3E 7D 46 8E 1C A9 E1 6B A9 7B FE 73 73 73 8F 1C 39 A2 E1 8B 82 BA 10 2C AA 61 C7 8E 1D 
02 81 A0 6B D7 AE 84 10 2B 2B AB B1 63 C7 BE 7D FB 56 22 E3 E8 D1 A3 D5 AA 55 23 84 44 46 46 3A 
38 38 34 68 D0 80 7B 90 BE 7D FB 7E FE F9 E7 34 1D 11 11 21 F7 85 E6 CF 9F FF EA D5 2B F6 30 23 
23 63 C9 92 25 72 73 B2 ED 3E 3E 3E DF 7F FF BD A6 EF 10 8C 15 BD F0 DE BF 7F CF E7 C2 23 84 D0 
0B EF E3 C7 8F EC 08 7C 2E 3C 42 08 2E 3C 73 21 F8 F4 A7 1D D9 D9 D9 F9 F2 E4 E6 E6 C6 C6 C6 D2 
3C 99 99 99 AE AE AE 77 EE DC D1 D6 8B 6A 8B 92 92 D3 16 DB CC CC CC B6 6D DB 1A 61 C9 0D A2 B0 
B0 70 E8 D0 A1 34 ED E1 E1 C1 CE 58 6A 6A 6A 4E 4E 0E 4D DF BD 7B 97 DE 7F 6E DE BC D9 CD CD 4D 
F9 01 B5 7B FE 2B 54 A8 90 9B 9B AB D9 5B 04 B5 21 58 54 C3 F0 E1 C3 69 A2 4C 99 32 17 2E 5C 58 
B6 6C 59 A9 52 A5 64 B3 75 E9 D2 25 25 25 A5 7B F7 EE F4 E1 8D 1B 37 A4 32 A8 6C 10 64 4D 81 76 
76 76 34 A1 A8 8E 87 1D 01 B5 3B 66 8C FB 1D AA D6 85 17 1E 1E CE CD C0 B3 25 9A E0 C2 03 DE 44 
22 51 F3 E6 CD D7 AF 5F 2F 14 0A 09 21 05 05 05 43 86 0C 51 59 FF 6D 0C 68 C9 63 62 62 68 C9 09 
21 A6 52 72 5D E3 FE 00 29 6A 68 AE 54 A9 D2 EE DD BB 69 3A 2F 2F AF 04 AF A2 EE F9 17 8B C5 49 
49 49 C3 87 0F FF F0 E1 43 09 5E 0E 34 84 60 91 2F B1 58 FC FE FD 7B 9A 3E 7F FE 7C 50 50 90 92 
CC B6 B6 B6 FB F6 ED 63 0F B9 4D 7B 84 F3 9B 7D EF DE BD AC AC 2C D9 DD 13 13 13 69 A2 75 EB D6 
34 21 B7 8A FE CD 9B 37 B7 6F DF A6 69 FC 66 9B 2B B1 58 DC A3 47 0F 9A 2E 5B B6 2C 9F 0B 8F 0D 
A0 59 BE 7C 39 F7 59 95 17 DE BB 77 EF 68 42 F9 85 47 08 C1 85 07 5C FD FA F5 DB B2 65 0B 4D 27 
25 25 6D DE BC D9 B0 E5 51 8B E9 96 5C 47 58 23 EF 90 21 43 1A 36 6C A8 28 9B 8B 8B 0B 4B B3 1F 
C7 12 50 79 FE 13 12 12 DA B6 6D EB E1 E1 D1 A2 45 8B AD 5B B7 96 F8 85 40 13 08 16 F9 0A 0C 0C 
A4 89 5E BD 7A D5 AA 55 4B 65 7E 91 48 74 E5 CA 15 9A 6E D3 A6 0D 4B 13 42 BE F9 E6 9B DA B5 6B 
D3 F4 A2 45 8B 64 F7 2D 2A 2A A2 09 D6 D8 C7 6D 4F 64 96 2D 5B 26 91 48 08 21 BE BE BE DF 7D F7 
1D CF 37 02 A6 25 30 30 F0 AF BF FE 22 84 F4 EA D5 8B 75 13 54 42 24 12 FD FA EB AF EC A1 5A 17 
1E AB 89 54 7E E1 11 42 E8 85 47 08 C1 85 07 54 8F 1E 3D D8 B8 AB D1 A3 47 1B B6 30 6A A1 25 A7 
BD F1 46 8F 1E 8D CE 8B E7 CE 9D A3 89 0E 1D 3A 28 CF F9 CD 37 DF D0 84 26 27 4D E5 F9 3F 77 EE 
5C 42 42 02 9A 9E 0D 0B C1 22 2F 89 89 89 D7 AF 5F A7 E9 C9 93 27 F3 DC 2B 30 30 F0 AB AF BE A2 
E9 95 2B 57 72 9F 62 75 3C 17 2E 5C 50 B4 7B 85 0A 15 7C 7D 7D 1D 1D 1D 15 65 40 53 A0 D9 2B D9 
85 47 08 29 D9 85 47 9B 9F 54 5E 78 00 72 79 7A 7A 1A BA 08 25 E4 E9 E9 C9 02 23 6E A3 90 65 72 
75 75 A5 09 95 9D 08 47 8E 1C B9 75 EB D6 AD 5B B7 FA FB FB 6B F2 8A CA CF 7F 48 48 C8 56 0E D6 
EE 01 FA 84 60 91 17 D6 87 E3 AB AF BE 52 EB 53 31 6A D4 28 9A 50 D4 12 FD C7 1F 7F 48 ED C2 EE 
CE DB B5 6B 47 FE DB 74 28 95 33 29 29 89 26 10 2C 9A 2B 3D 5F 78 E9 E9 E9 84 C7 85 57 5C 5C CC 
BF 24 00 26 81 55 92 5D BD 7A D5 B0 25 31 38 36 4E 6E C5 8A 15 AC 6B 8A 5C 0D 1B 36 EC D9 B3 67 
CF 9E 3D BD BD BD 35 7C 51 25 E7 DF DF DF BF 27 47 8D 1A 35 34 7C 2D 28 01 04 8B BC 9C 39 73 86 
26 E8 50 68 FE DA B5 6B 67 6B 6B 4B 08 79 FE FC 39 F7 2E AD 79 F3 E6 34 21 3B 85 32 1B 5A D8 B6 
6D 5B 42 48 FB F6 ED E9 C3 13 27 4E 48 E5 64 D5 F2 2D 5B B6 54 AB 54 60 2A 8C F3 C2 A3 CD E2 84 
10 81 40 6B 83 6D C1 CC A8 1C F4 30 65 CA 94 BA 75 EB EE DA B5 4B 3F E5 51 89 75 34 4A 49 49 31 
6C 49 0C AE 7E FD FA 34 F1 CF 3F FF 74 EE DC 59 3F 2F 6A 61 E7 5F F2 DF 3F 13 80 60 51 B5 C7 8F 
1F 9F 3F 7F 9E 10 62 6D 6D CD 06 44 F3 64 6B 6B 3B 6C D8 30 9A DE B1 63 07 DB CE EA F9 A5 14 17 
17 D3 7E 63 81 81 81 61 61 61 84 90 61 C3 86 D1 19 4F C2 C3 C3 15 8D 02 73 77 77 57 AB 54 60 12 
D8 85 47 38 23 F1 79 D2 E9 85 C7 7A 34 8E 18 31 42 AD 52 81 D9 63 71 06 BB 74 15 C9 CC CC 4C 4B 
4B 7B F3 E6 8D EE 0B C5 4B 85 0A 15 68 C2 0C 06 44 E7 E6 E6 DE E0 81 3B 4F 16 D7 4F 3F FD C4 D2 
49 49 49 74 CD 15 57 57 D7 A5 4B 97 FE F1 C7 1F AC BF B2 76 99 D3 F9 37 4B 56 86 2E 80 09 C8 CE 
CE A6 09 37 37 37 91 48 A4 EE EE 1E 1E 1E 52 C7 91 22 16 8B D9 DC 01 57 AE 5C 79 FB F6 2D F9 54 
BB 43 B5 6F DF FE DE BD 7B F9 F9 F9 E7 CF 9F E7 6E 07 F3 C6 BD 60 8C EA C2 43 67 59 50 84 4D EA 
84 D5 35 0C E8 F6 ED DB 4D 9A 34 D1 E4 08 7B F7 EE 1D 38 70 20 77 8C 73 41 41 C1 D4 A9 53 09 21 
65 CA 94 99 33 67 4E 70 70 70 E5 CA 95 35 2C 27 98 10 D4 2C AA C6 0D 16 4B B0 3B DB 4B 6A F9 54 
36 15 FE CD 9B 37 D9 46 D6 47 4D EA 37 9B 26 B8 0D 82 4F 9F 3E A5 09 F6 7B 0F 66 46 51 90 C7 93 
EE 2E BC 87 0F 1F 12 42 84 42 21 CF 25 68 C1 72 B0 60 D1 78 AA 0C A1 04 BA 75 EB 76 F9 F2 E5 61 
C3 86 95 2E 5D 5A EA A9 57 AF 5E 0D 1F 3E DC CF CF AF 76 ED DA 46 B8 26 38 E8 08 6A 16 55 63 C3 
42 4B 36 95 14 9B 7C C4 C6 C6 86 BB 7D CA 94 29 B3 66 CD 22 84 2C 5C B8 90 CE 6E FA E6 CD 9B B9 
73 E7 12 42 BA 76 ED DA AC 59 33 96 B3 63 C7 8E 6D DB B6 3D 79 F2 E4 8A 15 2B 46 8F 1E 4D EF E7 
58 53 E0 98 31 63 4A 50 2A 30 7E 1A 8E 47 E6 7F E1 11 42 E8 85 47 08 51 EB C2 2B 53 A6 8C 26 25 
04 F3 C3 16 F9 C5 B5 A1 84 BD BD BD 5A F9 65 57 EF 54 AE 72 E5 CA 93 26 4D 52 99 6D F3 E6 CD 6C 
B2 05 59 D5 AA 55 5B BA 74 E9 D2 A5 4B E9 C3 87 0F 1F CE 98 31 23 3E 3E 9E 4D D1 9A 9E 9E 4E C7 
B5 34 6A D4 E8 EC D9 B3 6A 95 10 4C 0E 82 45 D5 CA 96 2D 4B 13 8A 7A 78 28 C7 EE BD 3E FB EC 33 
EE F6 E0 E0 60 FA 9B CD 26 31 39 7D FA 34 1D 67 2A DB D6 DC BE 7D 7B 5A F7 13 1B 1B FB E3 8F 3F 
12 34 05 5A 00 76 E1 95 0C FF 0B 8F 28 1E E0 8C 0B 0F D4 C2 82 45 45 BD 63 41 0F DC DD DD F9 2C 
C2 79 E6 CC 19 25 C1 A2 94 4A 95 2A 6D DF BE 9D 10 72 FB F6 ED A1 43 87 B2 B9 38 08 21 97 2F 5F 
2E 2E 2E 2E 41 57 19 0B 66 7A 43 03 11 2C AA C6 7E B3 73 72 72 32 33 33 D5 9D 4B EC EF BF FF A6 
09 2F 2F 2F EE F6 46 8D 1A D9 DB DB E7 E7 E7 3F 7E FC F8 F1 E3 C7 15 2A 54 90 DB 14 48 B5 6F DF 
7E DC B8 71 84 90 98 98 98 1F 7F FC 31 3F 3F 9F 4E 7D 42 57 4C 52 FF 3D 81 09 E0 06 8B 3A BD F0 
94 1C 04 17 1E A8 85 CD FC A5 E1 AD 8E 31 78 F9 F2 E5 F1 E3 C7 D5 DA A5 61 C3 86 7E 7E 7E 2A B3 
99 74 73 50 CD 9A 35 CF 9D 3B F7 F0 E1 C3 A5 4B 97 6E DA B4 89 6E DC B4 69 D3 90 21 43 0C 5B 30 
D0 29 04 8B AA 95 29 53 A6 7F FF FE DB B6 6D 23 84 CC 99 33 67 CD 9A 35 FC F7 7D F8 F0 21 1D 8B 
6A 63 63 C3 96 66 A7 6C 6C 6C A6 4F 9F 4E 67 5A 5E B8 70 E1 EA D5 AB 37 6E DC 48 9F A2 A3 50 B9 
D8 17 50 64 64 24 21 64 E5 CA 95 74 EA 93 9F 7E FA 49 EE 32 C1 60 06 F4 76 E1 A5 A5 A5 D1 A7 06 
0F 1E 2C 75 1C 5C 78 A0 16 D6 55 B1 41 83 06 6C 63 8B 16 2D B8 15 51 5C 13 26 4C 98 30 61 82 D4 
C6 1F 7E F8 61 D5 AA 55 3A 2A A1 22 07 0E 1C A0 89 80 80 00 9A 78 F9 F2 E5 CE 9D 3B D5 3A 88 A3 
A3 23 9F 60 71 C1 82 05 EA 16 4F 6F 6E DE BC 49 3F E3 EC 3C C8 55 A9 52 A5 95 2B 57 B6 6A D5 AA 
57 AF 5E 84 90 B1 63 C7 B6 6D DB D6 C7 C7 A7 C4 AF 2B 7B FE C1 A8 20 58 E4 25 38 38 98 FE 66 EF 
DE BD 7B D1 A2 45 FC 3B 93 6D D8 B0 81 1D C1 D9 D9 59 F6 B0 34 A1 64 1D 17 B9 D0 14 68 21 F4 73 
E1 29 A9 D2 96 82 0B 0F CC 15 5B 38 84 2D BF 5E BD 7A 75 F6 D1 B0 1C BD 7B F7 A6 77 8F 0F 1E 3C 
50 D9 9A 11 1A 1A EA EE EE FE FC F9 73 42 C8 9D 3B 77 34 09 16 65 CF 3F 18 15 04 8B BC 74 EA D4 
C9 C9 C9 29 37 37 F7 CD 9B 37 DB B7 6F E7 39 E9 DD FB F7 EF D7 AF 5F 4F D3 72 27 55 6E D0 A0 41 
A9 52 A5 72 72 72 6E DE BC 49 27 2E 21 8A 47 37 5B 5B 5B B3 89 94 13 13 13 E9 96 A6 4D 9B AA FB 
5E C0 84 94 EC C2 23 84 A8 75 E1 D1 5F 44 A1 50 C8 82 48 2E D9 0B 8F 10 82 0B 0F 64 65 64 64 C8 
DD 3E 7B F6 6C D9 0E DF 6B D6 AC B9 78 F1 62 EF DE BD 3B 76 EC 28 F5 54 95 2A 55 74 52 3E C5 32 
32 32 D8 A4 F4 B4 AA CC 62 B1 59 14 FE FE FB 6F 3E 5D 5F 6A D6 AC 49 83 45 4D 46 46 6B FD FC 1F 
38 70 20 2B 2B CB D6 D6 76 D0 A0 41 CF 9F 3F DF B1 63 C7 F1 E3 C7 1F 3F 7E 5C B5 6A D5 7A F5 EA 
2D 5C B8 50 F3 97 B0 34 08 16 79 29 5D BA F4 DD BB 77 E9 C8 AF 11 23 46 0C 1D 3A 94 CF 84 35 4E 
4E 4E 34 B1 61 C3 06 D9 06 3E 42 88 48 24 9A 35 6B D6 D8 B1 63 C5 62 71 97 2E 5D E8 46 3A 97 95 
AC D9 B3 67 D3 A6 C3 E6 CD 9B D3 49 55 26 4D 9A 84 05 7C CD 1B BD F0 7C 7C 7C 3E 7E FC 38 62 C4 
88 E8 E8 68 D9 F5 54 64 45 47 47 B3 59 EE A4 DA A0 29 A9 0B 2F 21 21 81 10 32 75 EA 54 D9 69 32 
88 BC 0B 8F 68 3C 52 1B CC CF 96 2D 5B D8 24 ED 9B 37 6F E6 3E 25 77 8A A5 A8 A8 A8 8B 17 2F D6 
AD 5B 37 34 34 54 1F E5 53 4C AA E4 0D 1B 36 D4 F5 2B EA 7A 34 B4 26 FA F7 EF 4F EF 09 7B F4 E8 
91 92 92 E2 E2 E2 A2 24 F3 D3 A7 4F E9 EC EB 02 81 80 2E 13 5A 02 BA 38 FF AB 57 AF 4E 4A 4A 72 
71 71 09 08 08 68 DA B4 A9 BD BD 7D FD FA F5 4B 95 2A 75 FE FC F9 F3 E7 CF AF 5F BF 3E 3E 3E 9E 
4D 20 AF 75 82 4F 64 57 67 91 9A D1 DC 84 16 C1 C2 14 7D 7C 95 2F 5F 9E A5 7B F4 E8 C1 E6 25 51 
24 3A 3A 9A A5 07 0E 1C A8 28 1B AB CB A1 3F D8 44 71 53 20 9B F4 8E E5 44 53 A0 25 28 5F BE FC 
9C 39 73 68 3A 26 26 86 CF 85 C7 56 59 AD 59 B3 A6 A2 6C 9A 5C 78 00 52 56 AD 5A C5 7E EF 5B B5 
6A F5 DD 77 DF 19 B6 3C FC 49 24 12 13 2D B9 8E 84 85 85 D1 0A C5 EC EC EC 19 33 66 28 CF 3C 69 
D2 24 BA E0 4A 8B 16 2D D8 2A 00 6A D1 E9 F9 2F 28 28 E8 D5 AB D7 C8 91 23 B3 B2 B2 4E 9F 3E 7D 
E3 C6 8D C3 87 0F 3B 39 39 7D FC F8 71 F5 EA D5 5A 7C 21 4B 80 60 51 0D AC B9 E4 C0 81 03 6D DB 
B6 4D 4D 4D 95 9B AD A0 A0 60 FE FC F9 EC 76 D9 D9 D9 59 C9 9C 02 B5 6B D7 E6 3E 2C 55 AA 94 A2 
1E 1B 75 EB D6 95 6A 14 68 DC B8 31 FF C2 83 E9 E2 8E 00 E0 73 E1 D1 7A 08 67 67 67 25 0B EF 6A 
72 E1 D1 55 A7 01 08 21 F9 F9 F9 C7 8E 1D 9B 38 71 22 7D 58 AA 54 A9 B5 6B D7 6A F7 25 C6 7E 12 
17 17 A7 C5 C3 D2 92 73 27 16 D5 7A C9 15 49 57 93 7E 4A 45 D9 D9 D9 8D 1D 3B 96 A6 37 6C D8 A0 
A8 A5 8B 3A 78 F0 20 4D B0 C5 45 F9 D3 C3 F9 FF F0 E1 C3 A3 47 8F 16 2D 5A C4 56 22 E8 D0 A1 C3 
BC 79 F3 08 21 FC E7 0C 02 CA 72 9B A1 F7 EC D9 B3 67 CF 1E E5 79 26 4C 98 10 11 11 C1 1E 1E 3B 
76 EC DD BB 77 DD BB 77 8F 8B 8B 3B 77 EE 5C 8D 1A 35 08 21 1E 1E 1E BE BE BE 9E 9E 9E 39 39 39 
19 19 19 B7 6E DD 62 4B 67 3A 38 38 EC DA B5 4B 79 23 8B 54 2D 74 44 44 84 95 95 FC 7F 14 81 40 
B0 7C F9 F2 9E 3D 7B B2 2D 76 76 76 CA CB 0F C6 69 D7 AE 5D 4A C2 38 2A 3C 3C 9C 0D 99 14 08 04 
39 39 39 FC 2F 3C 42 C8 E1 C3 87 75 77 E1 4D 99 32 45 79 E1 C1 FC F0 99 0A C7 C7 C7 E7 D6 AD 5B 
5A 7F 69 D6 01 D7 C3 C3 A3 4D 9B 36 25 38 82 CA 66 5F 1F 1F 9F DD BB 77 EB 6D FD 3A 6E 3B 95 11 
1A 35 6A D4 86 0D 1B EE DF BF 4F 08 A1 F3 72 0B 85 C2 DA B5 6B FB FB FB 13 42 32 33 33 AF 5D BB 
C6 3A D9 13 42 7C 7D 7D 59 37 2A B9 0C 78 FE D9 6D 0C 33 78 F0 E0 D1 A3 47 2B EA 5F 0B 8A 58 6E 
B0 58 32 CE CE CE C7 8F 1F 2F 55 AA 14 EB 44 92 95 95 C5 66 B4 97 72 E3 C6 0D 5F 5F 5F B5 8E AF 
7C 38 6A 9B 36 6D 84 42 21 D6 59 B7 40 F4 C2 9B 39 73 26 BD 2D 26 4A 2F BC 2F BE F8 42 DD 7E 60 
6A 5D 78 E8 FF 00 52 1C 1D 1D C7 8F 1F 4F A7 E4 34 39 D3 A7 4F 1F 37 6E 1C EA CB B9 62 62 62 06 
0C 18 C0 A6 E9 10 8B C5 C9 C9 C9 C9 C9 C9 B2 39 83 82 82 F6 EE DD AB C9 6B E9 F4 FC CB CE 43 07 
25 83 66 68 B5 59 59 59 DD BB 77 6F E0 C0 81 4A EE 96 1A 34 68 F0 DB 6F BF F1 8C 14 D9 5D 66 E5 
CA 95 AB 56 AD AA 24 A7 9B 9B DB 17 5F 7C 41 D3 EA 76 91 06 53 67 65 65 35 77 EE 5C 3E 17 DE A5 
4B 97 F8 1C 90 5B BD A1 D6 85 87 B9 2D 80 10 62 65 65 55 BE 7C F9 80 80 80 5E BD 7A 3D 7E FC 78 
F2 E4 C9 26 14 6F B1 92 EF DD BB D7 B4 4A AE 1F 15 2A 54 88 8B 8B DB B5 6B 97 F2 91 E9 1B 36 6C 
38 7B F6 AC BA EB 05 10 3D 9E 7F FD 8F AC 37 57 02 E5 C3 AC E8 CF 92 3E 87 62 19 0F 81 40 20 14 
0A 45 22 91 A2 81 CF F9 F9 F9 A7 4F 9F 8E 88 88 C8 CC CC CC CA CA B2 B3 B3 2B 5B B6 6C F5 EA D5 
67 CE 9C A9 BB 61 56 96 43 20 10 48 24 D2 43 C9 80 E0 C2 D3 31 F3 B8 F0 D8 5B 10 8B C5 62 B1 58 
D1 72 8E 06 14 17 17 97 9A 9A DA AC 59 B3 BA 75 EB F2 C9 3F 77 EE 5C 6B 6B 6B 3E 4B 1E 83 76 2D 
5E BC F8 FC F9 F3 CF 9E 3D BB 7B F7 AE 40 20 70 71 71 69 D6 AC 59 BD 7A F5 DA B4 69 63 B4 13 68 
B3 79 E0 AF 5C B9 52 A7 4E 1D A9 67 ED ED ED 1D 1D 1D D9 DC 0E 5A 24 10 08 84 42 81 48 24 62 43 
A2 B5 FE 12 5A 47 0B A9 F2 4B 0F C1 A2 42 2A 83 45 D0 29 F3 F8 CD 06 93 63 1E 17 9E F1 07 8B EA 
1A 34 68 50 9F 3E 7D B0 C8 24 F0 81 60 91 3F 9E C1 22 C2 20 00 00 30 6A 45 45 45 71 71 71 B2 BF 
FA 00 A0 1F 08 16 01 00 4C 8C 44 86 F2 3C 84 B0 3F D3 13 19 19 D9 B5 6B D7 AC AC 2C 57 57 57 43 
97 05 40 35 D3 6F 99 90 03 C1 22 00 00 18 AF FC FC FC C5 8B 17 5B 66 6F 28 00 23 81 A9 73 00 00 
C0 78 71 E7 F8 04 30 66 02 81 80 10 13 E8 A7 58 02 A8 59 04 00 00 00 00 85 30 1A 5A 21 8C 86 36 
2C F3 18 94 0A 26 C7 24 2E 3C D9 12 4A 8D BB 64 1D 19 C5 FF 62 A3 A1 CD B3 DA 03 C0 18 08 85 42 
1A 39 08 04 E6 36 1A 1A CD D0 00 00 26 46 FD 1F 21 13 F8 D1 02 30 75 12 89 C4 24 02 C4 12 40 9D 
19 00 00 00 00 28 84 60 11 00 00 00 00 14 42 B0 08 00 60 CE CC B5 5D 0C C0 38 99 E5 27 0E C1 22 
00 00 00 00 28 84 01 2E 00 00 66 88 0E 6F 54 B4 BE 0B 00 00 7F A8 59 04 00 00 00 00 85 10 2C 02 
00 00 00 80 42 08 16 01 00 00 00 40 21 5E 7D 16 E9 3A 2E 00 7A 66 96 63 CA C0 F8 E1 C2 03 00 E0 
42 CD 22 00 00 00 00 28 84 60 11 00 00 00 00 14 E2 D5 0C 9D 9F 9F AF EB 72 18 21 BA 1C B8 48 24 
12 0A 11 52 1B 80 40 20 C0 94 1F A0 7F 26 72 E1 29 2A E1 BF 0D E8 12 89 44 2C 2E 96 48 24 62 B1 
04 B3 E7 00 E8 D8 BF 9F 2F 81 40 28 14 0A AD AC AC 3E 3D 94 EE D0 22 F5 49 34 86 1E 2F 3C CB 80 
30 08 00 00 00 00 14 C2 A4 DC 00 00 26 87 55 06 A0 CA 10 C0 E0 FE FD 3C 0A 3E 51 98 CF 08 AA 12 
4B 06 35 8B 00 00 00 00 A0 10 6A 16 01 00 CC 06 AB 68 94 48 24 04 3D 15 01 40 2B 50 B3 08 00 00 
00 00 0A 21 58 04 00 00 00 00 85 D0 0C 0D 00 60 BA A4 FA CB FF AF E1 59 22 61 93 E6 A0 35 1A 00 
34 82 9A 45 00 00 00 00 50 08 C1 22 00 00 00 00 28 64 29 CD D0 85 85 85 79 79 79 84 10 91 48 E4 
E4 E4 A4 32 7F 5E 5E 5E 51 51 91 50 28 74 74 74 B4 B7 B7 E7 3E 95 9F 9F FF F1 E3 47 42 88 AD AD 
AD 9D 9D 9D CA 43 A5 A5 A5 45 46 46 BE 7E FD 3A 37 37 D7 C5 C5 25 20 20 20 28 28 A8 7C F9 F2 5A 
2F 70 61 61 21 21 C4 CE CE CE D6 D6 56 65 7E D0 BF B7 6F DF D2 84 B5 B5 B5 83 83 83 86 47 DB BF 
7F 7F 66 66 66 66 66 A6 8B 8B 8B 87 87 87 B7 B7 77 EB D6 AD 79 16 C0 C6 C6 46 EA AA E6 2A 2E 2E 
CE CD CD A5 69 67 67 67 25 2B 18 B1 CF 02 21 C4 C5 C5 45 BD 37 00 3A 21 67 16 37 4D C6 44 B3 6B 
46 96 56 2E 63 9D 52 52 78 B3 BC 5C 75 F4 AB F1 EC D9 B3 AB 57 AF A6 A7 A7 67 64 64 94 29 53 C6 
CB CB AB 45 8B 16 D5 AA 55 53 79 7C 4B 3B FF E6 4D A0 7C 29 3F FA 8B 62 06 CB FD FD FE FB EF BD 
7A F5 22 84 04 06 06 9E 3B 77 4E 65 FE BE 7D FB 1E 38 70 80 10 B2 68 D1 A2 09 13 26 70 9F 1A 39 
72 E4 EA D5 AB 09 21 63 C6 8C 59 BE 7C B9 92 83 0C 1D 3A F4 C0 81 03 2F 5F BE 94 7D AA 4A 95 2A 
E7 CF 9F F7 F6 F6 56 B4 EF A1 43 87 BE FE FA 6B 42 48 A3 46 8D 12 13 13 55 16 B8 67 CF 9E 7B F7 
EE 25 84 2C 59 B2 64 FC F8 F1 2A F3 1B 3F 13 59 75 4D 0D 6C 3A D6 DE BD 7B EF DC B9 B3 64 07 49 
4E 4E DE B6 6D DB D1 A3 47 1F 3C 78 20 F5 54 E7 CE 9D 43 43 43 FB F4 E9 63 6D 6D 2D 77 DF 8A 15 
2B 3E 7E FC 98 10 D2 AD 5B B7 C8 C8 48 45 2F B1 65 CB 96 1F 7E F8 81 A6 0F 1E 3C D8 BD 7B 77 45 
39 43 42 42 8E 1C 39 42 08 A9 50 A1 C2 A3 47 8F D4 7D 2F C6 C9 3C 2E 3C 89 44 52 54 54 C4 E9 B6 
58 42 4A 6E 2A 08 21 4E 4E 4E 9E 9E 9E 35 6A D4 58 BF 7E BD 9B 9B 5B 89 5F 45 17 DE BE 7D EB E9 
E9 A9 E8 59 56 F2 AE 5D BB F6 E9 D3 47 9F 05 D3 9D 12 FF CC 2D 58 B0 60 CC 98 31 B2 19 DE BD 7B 
B7 6B D7 AE 71 E3 C6 C9 3E 55 B7 6E DD B0 B0 30 25 BF 35 BA 38 FF 0F 1F 3E 3C 7A F4 E8 B9 73 E7 
B2 B3 B3 9D 9C 9C 3A 74 E8 10 1C 1C EC E7 E7 C7 73 77 3D 10 0A FF B3 DC 9F 49 A0 3F 4C 2A BF 25 
4C E9 2D 99 90 17 2F 5E 0C 1F 3E 9C 7E 0E E5 7A F0 E0 41 B5 6A D5 C2 C3 C3 27 4F 9E 8C 8A 40 E0 
29 23 23 23 20 20 40 2C 16 CB 7D 36 3A 3A 3A 3A 3A 7A C1 82 05 0B 16 2C A0 77 1A 52 82 83 83 77 
EC D8 41 08 B9 78 F1 A2 92 57 39 79 F2 24 4B C7 C4 C4 28 09 16 2F 5D BA 44 13 AD 5A B5 E2 53 7E 
30 33 B9 B9 B9 E9 E9 E9 E9 E9 E9 95 2A 55 1A 36 6C D8 D4 A9 53 4B 95 2A 65 E8 42 F1 C2 4A 1E 1D 
1D 7D F3 E6 4D 13 2A B9 DE C4 C6 C6 8E 18 31 22 23 23 43 EE B3 C9 C9 C9 C9 C9 C9 95 2A 55 92 FB 
55 A3 92 BA E7 FF CF 3F FF 1C 3B 76 EC E5 CB 97 B9 1B 4F 9F 3E 4D 08 09 0E 0E 3E 76 EC 58 09 CA 
00 6A 41 B0 A8 7D 4E 4E 4E EF DF BF A7 69 5B 5B DB D6 AD 5B CF 9A 35 CB CB CB CB D9 D9 F9 E1 C3 
87 B1 B1 B1 DB B7 6F 4F 49 49 29 28 28 98 35 6B D6 AC 59 B3 B2 B2 B2 DC DD DD 0D 5B 66 30 72 6B 
D7 AE 1D 35 6A 54 71 71 31 7D 58 AA 54 A9 8D 1B 37 D6 A8 51 E3 B3 CF 3E 7B F3 E6 4D 46 46 C6 E9 
D3 A7 E7 CD 9B 47 08 49 4F 4F 0F 0B 0B 0B 0A 0A 8A 8A 8A 2A 57 AE 1C F7 20 73 E6 CC A1 C1 62 76 
76 F6 96 2D 5B 06 0E 1C 28 FB 42 49 49 49 FB F7 EF 67 0F 37 6F DE BC 69 D3 26 B9 45 DA B1 63 C7 
8B 17 2F 68 7A F6 EC D9 DA 78 97 A0 35 12 0E AD 1C 70 D8 B0 61 36 36 36 DC 2D D9 D9 D9 59 59 59 
D7 AE 5D 7B FD FA 75 71 71 F1 AA 55 AB 56 AD 5A 75 FC F8 71 23 BC 73 90 AA 36 13 8B C5 77 EE DC 
A1 25 27 84 D0 92 DB DB DB BF 7A F5 CA 40 05 34 3A 0E 0E 0E EC CA E9 DC B9 88 1E BD 9F 00 00 12 
93 49 44 41 54 F3 B0 61 C3 FC FC FC 3C 3D 3D C5 62 F1 B3 67 CF 66 CF 9E FD DB 6F BF 15 17 17 F7 
E9 D3 A7 4F 9F 3E 2B 57 AE 1C 34 68 90 92 A3 69 78 FE B7 6E DD 3A 7C F8 70 F6 B0 6D DB B6 6E 6E 
6E A9 A9 A9 37 6E DC 20 84 9C 39 73 C6 DE DE 7E E3 C6 8D 06 AF 21 56 B9 D6 9F 49 43 B0 A8 65 C9 
C9 C9 2C 52 FC E6 9B 6F 16 2F 5E 5C B1 62 45 F6 AC BF BF BF BF BF FF B8 71 E3 A2 A2 A2 BA 75 EB 
46 37 F6 EB D7 EF F8 F1 E3 E6 7A 85 81 56 B0 EF 4A 2B 2B AB 91 23 47 CE 9C 39 93 DD 88 97 2B 57 
EE F3 CF 3F 6F D5 AA 55 50 50 D0 B8 71 E3 D2 D3 D3 09 21 57 AE 5C 69 DF BE 7D 62 62 22 F7 07 BE 
42 85 0A 9F 7F FE F9 BD 7B F7 08 21 17 2E 5C 90 1B 2C 72 AB 15 95 63 D5 8A 3E 3E 3E 95 2A 55 2A 
E9 3B 03 D3 30 7B F6 6C 47 47 47 D9 ED C5 C5 C5 17 2F 5E 6C D7 AE 1D 7D 18 1A 1A 9A 98 98 68 54 
2D 83 84 90 05 0B 16 C8 6E A4 25 9F 3F 7F 3E 6D B1 CD CF CF BF 73 E7 8E B1 95 DC 20 0A 0B 0B 59 
A4 E8 E1 E1 C1 6D 22 13 0A 85 E5 CB 97 DF B0 61 C3 94 29 53 86 0D 1B 76 E6 CC 19 42 48 78 78 B8 
F2 60 51 93 F3 7F EB D6 AD 51 A3 46 D1 B4 A7 A7 E7 F2 E5 CB 43 42 42 E8 C3 15 2B 56 CC 9E 3D 9B 
76 93 1B 3E 7C 78 D3 A6 4D AB 54 A9 52 B2 B7 0C 2A 61 34 B4 36 E5 E7 E7 77 E9 D2 85 A6 AD AC AC 
F6 ED DB C7 8D 14 19 81 40 D0 B5 6B D7 E6 CD 9B D3 87 31 31 31 DB B6 6D D3 5F 29 C1 D4 DC B9 73 
87 A5 2F 5C B8 B0 6C D9 32 B9 4D 36 5D BA 74 49 49 49 61 AD C6 37 6E DC 08 0F 0F 97 CA 13 1C 1C 
4C 13 8A 5A A2 F9 07 8B EC 08 46 58 93 64 C1 24 9F FE F4 44 24 12 35 6F DE 7C FD FA F5 74 20 54 
41 41 C1 90 21 43 14 F5 94 30 2A B4 E4 31 31 31 6C 08 97 A9 94 5C D7 D8 97 80 9D 9D DD C1 83 07 
E5 E6 A9 54 A9 D2 EE DD BB 69 9A 8E AA 51 17 CF F3 BF 7A F5 6A DA A2 E2 E3 E3 93 98 98 C8 22 45 
42 C8 98 31 63 AE 5E BD EA EA EA 4A 08 29 2C 2C 9C 36 6D 5A 09 8A 01 3C 21 58 D4 9A CC CC 4C 77 
77 77 3A 80 E0 E7 9F 7F A6 A3 CC 94 38 77 EE DC 95 2B 57 68 7A E0 C0 81 B1 B1 B1 3A 2F 22 98 A0 
83 07 0F D6 AC 59 93 A6 0F 1F 3E 1C 14 14 A4 24 B3 AD AD ED C1 83 07 D9 77 B7 EC 00 2C D6 5E 4C 
EB 17 65 25 24 24 D0 C4 4F 3F FD 44 13 51 51 51 B2 D9 62 62 62 6E DD BA 25 75 4C B0 58 FD FA F5 
7B FF FE 7D 8F 1E 3D 08 21 49 49 49 F5 EB D7 37 74 89 D4 60 BA 25 D7 91 45 8B 16 D1 C4 DE BD 7B 
1B 36 6C A8 28 9B 8B 8B 0B FB 6A 92 EA 4D A8 16 25 E7 FF D7 5F 7F DD BE 7D 3B 21 A4 71 E3 C6 B7 
6E DD 92 1D 31 53 B5 6A D5 67 CF 9E D1 F4 A1 43 87 4A 5C 06 50 09 C1 A2 D6 44 44 44 D0 09 47 FC 
FC FC 66 CC 98 C1 67 97 C0 C0 C0 80 80 00 9A E6 5F A3 03 16 25 22 22 82 26 7A F5 EA 15 1A 1A CA 
67 17 EE 08 56 76 43 42 F1 EF 1D DB A1 43 07 9A 88 89 89 91 7D 96 B5 41 FB FA FA 7E F6 D9 67 3C 
8F 09 E6 8D B5 36 A6 A5 A5 19 B6 24 EA 5A B0 60 01 9D 43 20 2D 2D 8D DD 2F 59 AC CC CC 4C 9A 50 
3E 16 9E 10 E2 EF EF 4F 13 6F DE BC D1 E4 15 15 9D FF 94 94 14 9A 60 BD B6 C0 50 10 2C 6A CD E1 
C3 87 69 62 FC F8 F1 8A E6 2E 91 35 73 E6 CC 1E 3D 7A F4 E8 D1 83 CF B4 58 60 69 12 13 13 AF 5F 
BF 4E D3 93 27 4F E6 BF E3 57 5F 7D 45 13 2B 57 AE 2C C1 EB 56 A8 50 A1 69 D3 A6 B4 8F DA 89 13 
27 64 33 A0 0D DA 24 E8 79 0E 20 25 53 A5 18 39 4F 4F 4F 76 77 B4 6F DF 3E C3 16 C6 E0 68 C3 2E 
F9 6F 07 18 B9 46 8E 1C B9 75 EB D6 AD 5B B7 B2 A8 B1 64 14 9D 7F DA 52 47 08 A9 5B B7 AE 26 C7 
D7 B3 FF AE B4 29 F5 67 AA 10 2C 6A 0D BB AC E5 8E 1B 50 A4 4B 97 2E 7B F6 EC D9 B3 67 CF AC 59 
B3 74 53 2E 30 61 AC D3 E1 2F BF FC A2 D6 D7 F1 B1 63 C7 E8 94 4C BB 77 EF 96 FA C6 17 89 44 34 
11 1F 1F 2F B5 D7 FA F5 EB 69 62 E9 D2 A5 36 36 36 B4 35 EA C1 83 07 B2 11 27 ED D8 4E 08 C1 75 
0B 72 A9 EC C7 36 65 CA 94 BA 75 EB EE DA B5 4B 3F E5 51 69 C9 92 25 34 81 1E E4 61 61 61 34 31 
66 CC 98 16 2D 5A 28 C9 D9 B0 61 C3 9E 3D 7B F6 EC D9 53 C9 9C C1 3C C9 3D FF 33 67 CE BC 78 F1 
E2 C5 8B 17 1B 37 6E AC E1 F1 41 43 08 16 01 8C D4 C7 8F 1F 59 4F A0 66 CD 9A A9 B5 AF AD AD 2D 
EB 6C 74 FE FC 79 EE 53 AC E7 C3 85 0B 17 A4 F6 A2 7D 21 84 42 21 1D 07 D3 BE 7D 7B BA 5D 6E 4B 
34 85 59 9F 80 8B 55 4A B1 2E AD 8A 64 66 66 A6 A5 A5 69 D8 7C A9 45 15 2A 54 A0 09 8C 71 F9 F1 
C7 1F 59 3A 29 29 A9 67 CF 9E 87 0E 1D 2A D9 28 16 FE E4 9E 7F 5F 5F DF 80 80 80 80 80 00 25 8D 
75 7F FC F1 07 4D A8 6C 34 07 4D 58 DC D4 39 B9 B9 B9 74 72 26 E5 8C 67 C2 AD DC DC 5C D6 10 A9 
84 F1 14 18 B4 25 2B 2B 8B 2D A6 57 A7 4E 1D 75 77 0F 0C 0C A4 8D C5 52 6B BD 04 07 07 5F BD 7A 
95 C8 0C 88 2E 2E 2E A6 F5 85 0D 1B 36 A4 AB 71 F8 F8 F8 D0 A9 76 E2 E3 E3 3F 7C F8 C0 67 71 4B 
30 2C D6 EC AC C5 19 16 D5 52 A5 4A 15 FA E3 2D 77 E5 2A D0 0F 0D 7F E6 9C 9D 9D B9 0F 23 23 23 
23 23 23 6D 6D 6D A7 4D 9B 16 1C 1C 5C AF 5E 3D E3 99 E8 2D 2F 2F 6F E4 C8 91 34 3D 78 F0 60 03 
96 C4 BC 27 59 24 16 18 2C DE BE 7D BB 49 93 26 5A 3F 2C 9F EF E5 C7 8F 1F B3 4A 1D B9 D8 14 C7 
5C 29 29 29 4A C6 A3 81 19 BB 7B F7 2E 4B B3 B6 63 FE D8 40 C5 D4 D4 54 EE F6 E9 D3 A7 2F 5B B6 
AC B0 B0 30 26 26 26 39 39 99 75 06 9A 33 67 0E 5D CB 95 B5 07 11 42 56 AC 58 D1 A9 53 A7 FC FC 
FC C9 93 27 B3 B1 D5 4F 9F 3E A5 09 25 CB 46 83 E1 18 B2 5F 94 B7 B7 37 0D 16 65 97 A3 04 BD D1 
FC 67 2E 3F 3F 3F 3D 3D 7D DD BA 75 7B F6 EC A1 53 67 17 14 14 4C 9D 3A 95 9B A7 5A B5 6A F1 F1 
F1 06 5C E6 B1 56 AD 5A F7 EF DF 27 84 08 85 C2 7D FB F6 75 EE DC D9 50 25 B1 04 16 17 2C EA 08 
9F E5 B3 C5 62 71 76 76 B6 1E 0A 03 E6 E1 C3 87 0F 9A EC CE A6 50 CE C9 C9 E1 6E 77 70 70 68 D4 
A8 11 1D 72 78 F1 E2 45 16 2C D2 C9 9B 9C 9C 9C 1A 35 6A C4 32 B7 6C D9 92 26 62 62 62 58 B0 C8 
86 42 9B 56 AF 73 B3 A0 3A 10 94 48 08 AD 58 D4 7D 61 94 C1 8D 84 12 EA F6 F4 E5 39 BD 86 76 55 
AB 56 6D E9 D2 A5 F3 E7 CF 1F 37 6E DC D9 B3 67 65 A3 FF F4 F4 74 1F 1F 9F FE FD FB 2F 5C B8 50 
CF 8B D6 BE 78 F1 62 E6 CC 99 34 52 24 84 AC 5B B7 CE 18 22 45 01 87 A1 CB A2 7D 16 17 2C 56 AE 
5C 79 D2 A4 49 2A B3 6D DE BC 99 4F E3 2F E3 E0 E0 A0 41 A1 94 F1 F1 F1 99 32 65 8A CA 6C 1B 36 
6C A0 6D 8B 60 36 34 BC 65 A7 F5 01 84 90 B2 65 CB 4A 3D 15 1C 1C 4C 83 C5 0B 17 2E 0C 1B 36 8C 
10 F2 E6 CD 1B 7A FD 04 07 07 73 BB 07 B1 0B 9B 5B CD 89 25 A1 41 11 76 67 C2 3A 2F 82 2C 36 1F 
16 4F EA 06 8B 5A FC 99 B3 B5 B5 5D B3 66 0D 21 E4 E1 C3 87 33 66 CC 88 8F 8F CF CA CA 62 CF 7E 
FC F8 71 C3 86 0D C9 C9 C9 67 CF 9E 55 AB 84 9A 58 B5 6A D5 DC B9 73 D9 95 E6 E6 E6 D6 B7 6F 5F 
BD BD BA C5 B2 B8 60 D1 DD DD FD FB EF BF 57 99 ED CC 99 33 6A 05 8B 7C 38 38 38 C8 5D 73 5D D1 
14 F9 94 BB BB 3B 9F E1 D5 A7 4E 9D 42 B0 68 66 64 83 3C B5 B0 4E 63 B2 F3 20 06 07 07 D3 BA 0D 
36 C6 E5 F4 E9 D3 74 99 84 B6 6D DB AA 3C 32 E6 CD 31 72 06 AC 55 44 B0 68 0C 74 F1 33 57 A9 52 
25 3A 3F F6 ED DB B7 87 0E 1D 9A 94 94 C4 9E BA 7C F9 72 71 71 71 09 BA CA 94 C0 B9 73 E7 26 4E 
9C C8 1E 76 EE DC 79 F5 EA D5 7A 78 5D B0 B8 60 D1 80 CA 95 2B C7 5D 64 93 31 CB 2A 6B D0 5C F5 
EA D5 2B 55 AA F4 F0 E1 43 42 C8 C1 83 07 E5 DE 69 28 C1 66 A0 60 0B 4B 32 CD 9B 37 6F D3 A6 4D 
5C 5C DC E3 C7 8F F7 EC D9 D3 B3 67 4F B6 5E 0B 5B 84 9A A9 58 B1 E2 A3 47 8F 08 21 85 85 85 D6 
D6 D6 09 09 09 F4 77 22 30 30 D0 18 9A 7E C0 A8 B0 A1 A9 DC 29 57 46 8F 1E 2D 3B 63 1F ED 4A BB 
6E DD BA A3 47 8F 4A 3D D5 B9 73 67 B6 1C B0 DE D0 8B 9C 10 62 65 F5 EF CF E2 F5 EB D7 9B 36 6D 
AA D6 41 16 2D 5A C4 C6 5B 28 C1 A7 DB 92 D1 AA 59 B3 26 5D CD 99 10 E2 E1 E1 41 6F 0F 2A 56 AC 
F8 F8 F1 63 4D FA 1E C8 9E 7F AE C4 C4 C4 7E FD FA B1 F9 E9 4A 97 2E 3D 65 CA 94 11 23 46 94 F8 
E5 40 5D 08 16 B5 4F 22 91 20 FE 03 AD 08 0E 0E A6 31 DF D9 B3 67 D5 0A 16 1F 3E 7C 48 FB 18 D9 
D8 D8 B4 6E DD 5A EE 91 E3 E2 E2 08 21 17 2F 5E EC D9 B3 E7 3F FF FC A3 E8 50 ED DB B7 DF B8 71 
23 CD D9 B2 65 4B B4 41 03 1F DC B1 F3 7F FE F9 27 B7 22 8A EB FE FD FB AC E7 19 E3 EB EB AB C3 
92 29 C0 D6 3A 62 33 0F 38 3B 3B AB 3B 65 55 F9 F2 E5 B5 5C 2C BD BB 79 F3 26 5D AB 56 F9 70 4C 
6A FD FA F5 BD 7A F5 22 84 BC 7A F5 EA 9F 7F FE F1 F1 F1 29 F1 EB CA 9E 7F AE B6 6D DB 16 15 15 
D1 F4 F0 E1 C3 A7 4E 9D 8A AA 6B 3D 43 B0 A8 7D 31 31 31 6C 32 7A 00 4D B0 60 71 F7 EE DD 8B 16 
2D 62 63 56 54 DA B0 61 03 3B 82 D4 44 18 6C 3B 4D C8 CE B6 28 85 05 8B 31 31 31 2D 5B B6 44 1B 
34 98 25 B6 70 08 5B 7E BD 7A F5 EA 16 B8 0A 6B EF DE BD E9 6A 8D 0F 1E 3C 50 B9 24 4F 68 68 A8 
BB BB FB F3 E7 CF 09 21 77 EE DC D1 24 58 94 3D FF CC A1 43 87 58 A4 E8 E3 E3 C3 9D AE 01 F4 06 
03 D6 B4 66 FF FE FD 34 D1 B1 63 47 5A 67 C3 87 61 A7 86 02 23 D7 BB 77 EF F1 E3 C7 13 42 DE BC 
79 53 B9 72 65 B6 66 AB 4A 6C 95 5E B9 3D 1F 08 21 81 81 81 34 91 9C 9C 1C 15 15 45 D3 DC 71 D0 
4C 68 68 28 6D 52 5C B8 70 E1 D9 B3 67 69 E6 26 4D 9A B4 6B D7 4E 8D 77 02 DA 21 50 F5 C7 5D 6A 
4C DF 7A F6 EC 49 13 52 95 43 E7 CE 9D CB 97 41 33 2F 5E BC 58 F6 A9 55 AB 56 E9 BF E4 C7 8E 1D 
A3 25 5F B6 6C 99 AE 5F CE 55 4D BA 2E 0F 17 5B 2B 85 FD A2 29 E7 E5 E5 45 13 9A 8C F2 54 72 FE 
DB B7 6F DF BB 77 6F 42 48 58 58 D8 BB 77 EF 54 4E F6 4E 1D 38 70 60 F5 EA D5 9B 36 6D 22 84 3C 
7F FE 7C F1 E2 C5 AD 5A B5 AA 56 AD 5A BB 76 ED F8 0C FD 29 01 73 1D 04 CD 20 58 D4 9A FF FB BF 
FF 63 F7 55 7D FB F6 95 3B 69 A2 94 F8 F8 F8 AD 5B B7 EA B8 5C 60 DA C6 8E 1D 6B 63 63 43 08 C9 
CE CE EE DF BF 3F 9F 5D A2 A3 A3 59 9A CF 9A E3 8B 17 2F A6 09 45 A3 5B D8 52 2E 6C 54 26 AA 15 
41 CA 96 2D 5B 22 23 23 69 5A FF 3D 0E 35 A1 FF 92 17 A8 49 0F 45 62 58 B0 B8 78 F1 62 3A F1 AA 
12 4F 9F 3E BD 79 F3 26 21 44 20 10 B0 89 5D D5 A5 E4 FC 9F 3F 7F 9E F6 8F AC 58 B1 E2 BA 75 EB 
E4 76 67 94 6B F5 EA D5 13 26 4C 98 36 6D 1A 21 24 20 20 60 FA F4 E9 97 2F 5F 7E F2 E4 C9 F9 F3 
E7 57 AE 5C B9 73 E7 CE 92 15 D5 92 21 58 D4 1A 91 48 B4 76 ED 5A 7A 6F 91 99 99 A9 B2 EF 7F 4A 
4A 4A F7 EE DD E9 10 54 00 45 CA 97 2F 3F 67 CE 1C 9A 8E 89 89 61 6B BA 28 12 1D 1D FD CD 37 DF 
D0 34 CF AF 6F 3A 8D 0E E1 11 2C B2 9C 08 16 81 6B D5 AA 55 6C B4 41 AB 56 AD BE FB EE 3B C3 96 
87 3F 89 44 62 A2 25 D7 91 B0 B0 30 DA FA 9C 9D 9D AD 72 CA 9E 49 93 26 D1 D5 F9 5A B4 68 E1 E1 
E1 51 82 97 53 7E FE F7 EE DD 4B 13 33 66 CC E0 DF 09 87 EB FA F5 EB 2F 5F BE B4 B7 B7 6F DC B8 
B1 9F 9F 1F DD 38 62 C4 08 36 12 0B 78 42 9F 45 6D 6A D7 AE 5D 7E 7E 3E ED D9 9D 94 94 24 10 08 
3A 75 EA 34 64 C8 10 6E E0 98 97 97 77 EA D4 A9 85 0B 17 D2 81 02 DE DE DE 19 19 19 06 2B 31 18 
42 62 62 E2 A0 41 83 94 E7 E9 D0 A1 C3 FF FD DF FF D1 F4 C4 89 13 77 EF DE 9D 9C 9C 4C 08 B1 B5 
B5 B5 B6 B6 1E 34 68 D0 EA D5 AB B9 AD 1E 4F 9F 3E 6D D6 AC 19 1B 2B 60 6B 6B 7B E2 C4 09 E5 21 
5D 58 58 18 B7 91 3A 24 24 44 D1 AA 0F F5 EA D5 EB D7 AF DF 8E 1D 3B D8 16 D6 E5 11 8C 8D 84 43 
8B 87 1D 33 66 8C 54 BD CE AB 57 AF 9E 3F 7F 9E 9C 9C CC 1D DB 9B 90 90 A0 F5 15 A7 D8 9A BF 33 
66 CC 08 0F 0F 2F C1 11 86 0E 1D CA 7D 28 16 8B D3 D2 D2 A4 4A EE EA EA 7A FC F8 71 4D CA C9 9F 
31 8F 86 B6 B3 B3 BB 75 EB 16 9D E4 75 C3 86 0D 1B 36 6C D8 B9 73 67 BB 76 ED B8 5D 9F 25 12 49 
52 52 D2 CA 95 2B 0F 1F 3E 4C B7 9C 38 71 42 C9 31 4B 7C FE D9 94 0E 4B 97 2E 5D BA 74 A9 CA C2 
4B CD 04 F4 F6 ED DB A6 4D 9B 4A 9D ED 8D 1B 37 8E 1E 3D BA 7F FF FE 7F FE F9 A7 CA 03 AA 45 20 
F8 F7 CF 2C 21 58 D4 32 5B 5B DB EE DD BB 1F 3A 74 88 3E 3C 76 EC D8 B1 63 C7 82 82 82 3C 3D 3D 
DD DC DC DE BE 7D 1B 1D 1D CD 9A 15 AA 57 AF 1E 17 17 57 BF 7E 7D AC EC 6C 51 FE FE FB EF BF FF 
FE 5B 79 9E B2 65 CB B2 60 91 10 92 90 90 D0 BD 7B 77 DA 17 B6 B0 B0 70 ED DA B5 87 0E 1D F2 F5 
F5 F5 F4 F4 CC C9 C9 C9 C8 C8 B8 75 EB 16 37 38 D8 B3 67 8F CA CA BF E0 E0 60 6E B0 A8 7C 86 C5 
F6 ED DB 73 83 45 30 66 BA E8 B3 B8 6B D7 2E 95 79 7C 7C 7C 8C 73 6D 52 3A 41 A0 12 3E 3E 3E BB 
77 EF D6 4B 59 4C 80 83 83 83 8F 8F 0F BB F3 EC D3 A7 8F 50 28 AC 5D BB B6 BF BF 3F 21 24 33 33 
F3 DA B5 6B DC 16 6A 95 A3 D7 35 3F FF B7 6F DF E6 53 72 59 B2 63 74 BA 74 E9 32 7A F4 68 D4 D1 
A8 0B C1 A2 F6 ED DF BF 7F EE DC B9 11 11 11 EC 86 86 4D 0A C0 D5 B7 6F DF 65 CB 96 B9 B9 B9 35 
69 D2 84 8D 30 00 90 CB D9 D9 F9 F8 F1 E3 33 67 CE 9C 37 6F 1E DD 92 95 95 C5 5D 4A 81 EB 8B 2F 
BE 08 0D 0D 55 79 4C A9 DA 41 E5 C1 62 9B 36 6D 78 17 16 0C C9 20 03 5C 1C 1D 1D C7 8F 1F 3F 6E 
DC 38 7D BE A8 B6 4C 9F 3E 7D DC B8 71 7A 5E B0 CE C8 C5 C4 C4 0C 18 30 80 4D 95 20 16 8B 93 93 
93 69 E3 86 94 A0 A0 20 D6 58 5C 32 3A 3D FF B2 8B BB B0 11 39 3A F0 BF 71 66 E6 47 A0 BC 3E 9C 
D6 FF 1B 73 9D B9 EE 08 85 02 A1 50 28 14 8A 4A 3C D1 E8 9B 37 6F A2 A2 A2 A2 A2 A2 2E 5E BC 98 
95 95 E5 E4 E4 E4 E5 E5 D5 BB 77 EF B0 B0 B0 EA D5 AB B3 6C 39 39 39 74 AE D1 5A B5 6A 69 A7 E8 
66 41 20 10 18 7C 7D 5B E3 94 9F 9F 7F FA F4 E9 88 88 88 CC CC CC AC AC 2C 3B 3B BB B2 65 CB 56 
AF 5E 7D E6 CC 99 F5 EB D7 37 74 E9 4C 9E 49 5F 78 12 89 A4 A8 A8 48 2C 16 1B FF 5B 88 8B 8B 4B 
4D 4D 6D D6 AC 19 CF 15 C6 E7 CE 9D 6B 6D 6D AD A3 A1 AC A0 C4 E2 C5 8B CF 9F 3F FF EC D9 B3 BB 
77 EF 0A 04 02 17 17 97 66 CD 9A D5 AB 57 AF 4D 9B 36 7C E6 62 34 88 16 2D 5A D0 A9 3D 4F 9D 3A 
25 DB BB C6 DE DE DE D1 D1 31 3B 3B 5B 8B AF 28 14 0A 45 22 91 29 AE 0D 4D 4B AB F2 1B 03 C1 A2 
42 9A 07 8B A0 09 93 FE CD 06 D3 65 D2 17 9E 09 05 8B EA 0A 0F 0F AF 59 B3 26 56 01 06 3E 58 B0 
78 E5 CA 15 D9 59 BE 11 2C 72 F1 0C 16 D1 0C AD 84 D9 D6 27 03 80 19 33 BF 48 91 10 F2 F2 E5 CB 
CA 95 2B 1B BA 14 00 72 08 38 14 64 91 FA 48 9A 5E 68 81 3A 33 00 00 30 5E 91 91 91 1D 3B 76 DC 
B5 6B 97 EC 2A E7 00 A0 1F A8 59 94 CF E4 6A 92 01 00 08 21 9F EA 30 58 4D 86 C9 7F 8F D1 B5 5E 
78 CE 48 0F 00 BA 80 60 11 00 00 8C D7 D6 AD 5B EB D4 A9 83 F1 7F 00 06 84 60 11 00 00 8C 17 5B 
72 1A 00 0C 05 C1 22 00 80 C9 A3 83 5A E4 0D 6D A1 5B 4C BE 31 1A C0 C8 71 3A AF C9 76 02 31 F9 
0F 20 06 B8 00 00 00 00 80 42 98 67 51 3E 81 40 20 14 0A E9 7F 31 CF A2 41 98 F4 74 77 60 BA 4C 
F4 C2 63 0B B7 88 C5 C5 C5 C5 62 33 98 AA 03 C0 54 D0 50 C1 CA CA 4A 66 58 AC 09 7C EE 78 CE B3 
88 30 48 0E C1 7F 19 BA 38 00 00 2A 48 24 52 EB FC E1 8B 0B 40 4F 2C 21 54 40 B0 08 00 00 00 00 
0A 21 58 04 00 00 00 00 85 30 1A FA 7F FE D7 7E 23 10 08 04 84 FE 01 00 98 04 A9 76 68 B4 44 03 
E8 81 85 C4 09 A8 59 54 C2 32 2E 01 00 00 00 00 C5 10 2C 02 00 00 00 80 42 68 86 96 8F CE 99 63 
E8 52 00 00 F0 A2 78 52 6E 00 D0 29 81 82 B4 59 41 3C 04 00 00 00 00 0A A1 66 F1 7F D8 3C 49 98 
61 11 00 4C 04 AB 4A 94 9E 68 51 26 03 85 AF 35 00 6D B2 90 80 81 57 B0 48 D7 71 01 D0 33 B3 FF 
F8 81 71 C2 85 07 00 C0 A5 62 B9 3F CB 24 14 0A 45 22 91 48 24 32 74 41 00 00 94 FB B7 E2 B0 B8 
B8 58 2C 96 88 C5 62 D4 2C 02 E8 93 48 24 A2 35 8B 74 89 60 43 17 47 57 D0 0C FD 1F F4 5F DA 8C 
FF BD 01 C0 94 49 8F 5F 61 91 A1 44 42 E4 B5 41 03 80 0E 59 CE CA C0 18 E0 02 00 00 00 00 0A A1 
66 51 1A AD 49 36 FB BB 04 00 30 17 FF 4E 9A A3 A0 5A 51 C0 F2 FC 37 81 AF 38 00 2D 50 1A 30 C8 
7E 24 4D F5 73 87 9A 45 00 00 00 00 50 08 C1 A2 34 54 2B 02 00 00 00 30 68 86 FE 1F CB E9 A9 0A 
00 A6 49 F6 AB 49 4C 97 6E 91 D7 E0 05 00 A0 1D A8 59 04 00 00 00 00 85 10 2C 02 00 00 00 80 42 
96 D9 0C AD 70 96 5A D6 06 8D 96 68 00 30 7E 74 7A 45 42 24 9F 12 8A E0 0B 0D 40 FB 54 75 5D 33 
9F CF 9D 65 06 8B CA 20 4C 04 00 D3 82 A9 B8 01 40 A7 FE 1F C5 FC C3 9A 6D 53 E5 DB 00 00 00 00 
49 45 4E 44 AE 42 60 82 
EndData
$EndBitmap
Wire Wire Line
	6500 2800 6600 2800
Text Label 4300 2700 0    50   ~ 0
MUX_VCC
$Sheet
S 850  3850 600  900 
U 61D9E2BC
F0 "USB-B_Connector_1" 50
F1 "usb-B-connector.sch" 50
F2 "VBUS" I R 1450 4000 50 
F3 "D+" I R 1450 4250 50 
F4 "D-" I R 1450 4350 50 
F5 "GND" I R 1450 4600 50 
$EndSheet
Wire Wire Line
	2300 3850 3600 3850
Wire Wire Line
	3600 3950 2400 3950
Wire Wire Line
	2400 3550 2400 3150
Wire Wire Line
	2400 3150 1450 3150
Wire Wire Line
	1450 3250 2300 3250
Wire Wire Line
	2300 3250 2300 3650
Wire Wire Line
	1450 2900 1700 2900
Wire Wire Line
	1800 2200 2700 2200
Wire Wire Line
	3250 2200 3750 2200
Wire Wire Line
	3750 2200 3750 1400
Connection ~ 3750 1400
Wire Wire Line
	2600 1600 2700 1600
Text HLabel 1800 950  1    50   Input ~ 0
VBUS_IN1
Wire Wire Line
	1800 2200 1800 950 
Connection ~ 1800 2200
Text Label 4250 1400 0    50   ~ 0
VBUS_OUT
$Comp
L Power_Protection:USBLC6-4SC6 U5
U 1 1 61D8C466
P 6100 2900
AR Path="/61AE8AE6/61D8C466" Ref="U5"  Part="1" 
AR Path="/61B04C8D/61D8C466" Ref="U7"  Part="1" 
F 0 "U7" H 5900 3400 50  0000 C CNN
F 1 "IP4220CZ6F" H 5750 3300 50  0000 C CNN
F 2 "parts:SOT-23-6_USB_ESD" H 6100 2400 50  0001 C CNN
F 3 "https://www.st.com/resource/en/datasheet/usblc6-4.pdf" H 6300 3250 50  0001 C CNN
	1    6100 2900
	1    0    0    -1  
$EndComp
Text Label 2950 3550 0    50   ~ 0
IN2_D+
Text Label 2950 3850 0    50   ~ 0
IN1_D+
Text Label 2950 3650 0    50   ~ 0
IN2_D-
Text Label 2950 3950 0    50   ~ 0
IN1_D-
$Comp
L Device:C C?
U 1 1 6205109A
P 6350 1650
AR Path="/6205109A" Ref="C?"  Part="1" 
AR Path="/61AE8AE6/6205109A" Ref="C?"  Part="1" 
AR Path="/61B04C8D/6205109A" Ref="C15"  Part="1" 
AR Path="/61B04C8D/61D9E2BC/6205109A" Ref="C?"  Part="1" 
AR Path="/61B04C8D/61DC40E2/6205109A" Ref="C?"  Part="1" 
F 0 "C15" H 6465 1696 50  0000 L CNN
F 1 "1u" H 6465 1605 50  0000 L CNN
F 2 "Capacitor_SMD:C_0805_2012Metric_Pad1.18x1.45mm_HandSolder" H 6388 1500 50  0001 C CNN
F 3 "~" H 6350 1650 50  0001 C CNN
	1    6350 1650
	1    0    0    -1  
$EndComp
$Comp
L power:GNDD #PWR?
U 1 1 620510A0
P 6350 1900
AR Path="/61AE8AE6/620510A0" Ref="#PWR?"  Part="1" 
AR Path="/61B04C8D/620510A0" Ref="#PWR040"  Part="1" 
AR Path="/61B04C8D/61D9E2BC/620510A0" Ref="#PWR?"  Part="1" 
AR Path="/61B04C8D/61DC40E2/620510A0" Ref="#PWR?"  Part="1" 
F 0 "#PWR040" H 6350 1650 50  0001 C CNN
F 1 "GNDD" H 6354 1745 50  0000 C CNN
F 2 "" H 6350 1900 50  0001 C CNN
F 3 "" H 6350 1900 50  0001 C CNN
	1    6350 1900
	1    0    0    -1  
$EndComp
Wire Wire Line
	6350 1900 6350 1800
Wire Wire Line
	6350 1500 6350 1400
Connection ~ 6350 1400
Wire Wire Line
	6350 1400 7000 1400
Wire Wire Line
	1800 4000 1450 4000
Wire Wire Line
	1800 2200 1800 4000
Wire Wire Line
	1450 4250 2300 4250
Wire Wire Line
	2300 3850 2300 4250
Wire Wire Line
	2400 4350 1450 4350
Wire Wire Line
	2400 3950 2400 4350
Wire Wire Line
	1450 3500 2000 3500
Wire Wire Line
	2000 3500 2000 4600
Wire Wire Line
	2000 4600 1450 4600
$Comp
L power:GNDD #PWR?
U 1 1 622E5B4F
P 2000 4750
AR Path="/61AE8AE6/622E5B4F" Ref="#PWR?"  Part="1" 
AR Path="/61B04C8D/622E5B4F" Ref="#PWR0116"  Part="1" 
F 0 "#PWR0116" H 2000 4500 50  0001 C CNN
F 1 "GNDD" H 2004 4595 50  0000 C CNN
F 2 "" H 2000 4750 50  0001 C CNN
F 3 "" H 2000 4750 50  0001 C CNN
	1    2000 4750
	-1   0    0    -1  
$EndComp
Wire Wire Line
	2000 4750 2000 4600
Connection ~ 2000 4600
$Sheet
S 7250 2100 1000 550 
U 622FC46F
F0 "USB-A_Connector_Power" 50
F1 "usb-connector-power.sch" 50
F2 "Connector_VBUS" I R 8250 2550 50 
F3 "ESD_VBUS" I L 7250 2350 50 
F4 "VBUS" I L 7250 2200 50 
F5 "GND" I L 7250 2550 50 
$EndSheet
$Sheet
S 7350 4050 1200 450 
U 622FE5DC
F0 "USB-A_Connector_GND" 50
F1 "usb-connector-ground.sch" 50
F2 "Connector_GND" I R 8550 4200 50 
F3 "Connector_Shield" I R 8550 4350 50 
F4 "ESD_GND" I L 7350 4200 50 
F5 "GND" I L 7350 4350 50 
$EndSheet
Wire Wire Line
	8450 3350 8550 3350
Wire Wire Line
	8550 4200 8850 4200
Wire Wire Line
	8850 4200 8850 3950
Wire Wire Line
	8550 4350 8950 4350
Wire Wire Line
	8950 4350 8950 3950
$Comp
L power:GNDD #PWR?
U 1 1 6230BCE6
P 7150 4550
AR Path="/61AE8AE6/6230BCE6" Ref="#PWR?"  Part="1" 
AR Path="/61B04C8D/6230BCE6" Ref="#PWR0117"  Part="1" 
F 0 "#PWR0117" H 7150 4300 50  0001 C CNN
F 1 "GNDD" H 7154 4395 50  0000 C CNN
F 2 "" H 7150 4550 50  0001 C CNN
F 3 "" H 7150 4550 50  0001 C CNN
	1    7150 4550
	1    0    0    -1  
$EndComp
Wire Wire Line
	7150 4550 7150 4350
Wire Wire Line
	7150 4350 7350 4350
Connection ~ 7150 4350
Wire Wire Line
	7350 4200 6100 4200
Wire Wire Line
	6100 4200 6100 3300
Wire Wire Line
	6100 2500 6100 2350
Wire Wire Line
	7150 2550 7250 2550
Wire Wire Line
	8250 2550 8450 2550
Wire Wire Line
	8450 2550 8450 3350
Wire Wire Line
	7150 2550 7150 4350
Wire Wire Line
	6100 2350 7250 2350
Wire Wire Line
	7000 1400 7000 2200
Wire Wire Line
	7000 2200 7250 2200
Wire Wire Line
	3250 1400 3750 1400
Wire Wire Line
	2400 3550 3600 3550
Wire Wire Line
	1700 950  1700 1400
Wire Wire Line
	2700 1400 1700 1400
Connection ~ 1700 1400
Wire Wire Line
	1700 1400 1700 2900
Wire Wire Line
	2300 3650 3600 3650
$Sheet
S 850  2750 600  900 
U 61DC40E2
F0 "USB-B_Connector_2" 50
F1 "usb-B-connector.sch" 50
F2 "VBUS" I R 1450 2900 50 
F3 "D+" I R 1450 3150 50 
F4 "D-" I R 1450 3250 50 
F5 "GND" I R 1450 3500 50 
$EndSheet
$Sheet
S 2700 2050 550  500 
U 62432B25
F0 "VBUS_Switch_BB_1" 50
F1 "bidirectional-high-side-switch.sch" 50
F2 "Enable" I L 2700 2400 50 
F3 "In" I L 2700 2200 50 
F4 "Out" I R 3250 2200 50 
$EndSheet
$Sheet
S 2700 1250 550  500 
U 6243BA80
F0 "VBUS_Switch_BB_2" 50
F1 "bidirectional-high-side-switch.sch" 50
F2 "Enable" I L 2700 1600 50 
F3 "In" I L 2700 1400 50 
F4 "Out" I R 3250 1400 50 
$EndSheet
Connection ~ 6600 3650
Wire Wire Line
	6600 3650 8550 3650
Wire Wire Line
	4400 3550 5500 3550
Wire Wire Line
	6600 2800 6600 3650
Wire Wire Line
	5700 3000 5500 3000
Wire Wire Line
	5500 3000 5500 3550
Connection ~ 5500 3550
Wire Wire Line
	5500 3550 8550 3550
Wire Wire Line
	4400 3650 6600 3650
Wire Wire Line
	3750 1400 6350 1400
$EndSCHEMATC
