EESchema Schematic File Version 4
EELAYER 30 0
EELAYER END
$Descr A4 11693 8268
encoding utf-8
Sheet 3 21
Title ""
Date ""
Rev ""
Comp ""
Comment1 ""
Comment2 ""
Comment3 ""
Comment4 ""
$EndDescr
$Comp
L Transistor_FET:IRLML6401 Q1
U 1 1 61B130AD
P 3650 2100
AR Path="/61AE8AE6/61B1299A/61B130AD" Ref="Q1"  Part="1" 
AR Path="/61AE8AE6/61B1F28D/61B130AD" Ref="Q3"  Part="1" 
AR Path="/61B04C8D/61B1299A/61B130AD" Ref="Q5"  Part="1" 
AR Path="/61B04C8D/61B1F28D/61B130AD" Ref="Q?"  Part="1" 
AR Path="/61B04C8D/61D8C465/61B130AD" Ref="Q7"  Part="1" 
AR Path="/61AE8AE6/61D8C45F/61B130AD" Ref="Q1"  Part="1" 
F 0 "Q1" V 3992 2100 50  0000 C CNN
F 1 "IRLML2244" V 3901 2100 50  0000 C CNN
F 2 "Package_TO_SOT_SMD:SOT-23_Handsoldering" H 3850 2025 50  0001 L CIN
F 3 "https://www.infineon.com/dgdl/irlml6401pbf.pdf?fileId=5546d462533600a401535668b96d2634" H 3650 2100 50  0001 L CNN
	1    3650 2100
	0    1    -1   0   
$EndComp
$Comp
L Transistor_FET:IRLML0030 Q2
U 1 1 61B15E21
P 3150 3000
AR Path="/61AE8AE6/61B1299A/61B15E21" Ref="Q2"  Part="1" 
AR Path="/61AE8AE6/61B1F28D/61B15E21" Ref="Q4"  Part="1" 
AR Path="/61B04C8D/61B1299A/61B15E21" Ref="Q6"  Part="1" 
AR Path="/61B04C8D/61B1F28D/61B15E21" Ref="Q?"  Part="1" 
AR Path="/61B04C8D/61D8C465/61B15E21" Ref="Q8"  Part="1" 
AR Path="/61AE8AE6/61D8C45F/61B15E21" Ref="Q2"  Part="1" 
F 0 "Q2" H 3355 3046 50  0000 L CNN
F 1 "FDV 303N" H 3355 2955 50  0000 L CNN
F 2 "Package_TO_SOT_SMD:SOT-23_Handsoldering" H 3350 2925 50  0001 L CIN
F 3 "https://www.infineon.com/dgdl/irlml0030pbf.pdf?fileId=5546d462533600a401535664773825df" H 3150 3000 50  0001 L CNN
	1    3150 3000
	1    0    0    -1  
$EndComp
$Comp
L Device:R R2
U 1 1 61B16F7C
P 3250 2350
AR Path="/61AE8AE6/61B1299A/61B16F7C" Ref="R2"  Part="1" 
AR Path="/61AE8AE6/61B1F28D/61B16F7C" Ref="R4"  Part="1" 
AR Path="/61B04C8D/61B1299A/61B16F7C" Ref="R14"  Part="1" 
AR Path="/61B04C8D/61B1F28D/61B16F7C" Ref="R?"  Part="1" 
AR Path="/61B04C8D/61D8C465/61B16F7C" Ref="R9"  Part="1" 
AR Path="/61AE8AE6/61D8C45F/61B16F7C" Ref="R2"  Part="1" 
F 0 "R2" H 3320 2396 50  0000 L CNN
F 1 "330k" H 3320 2305 50  0000 L CNN
F 2 "Resistor_SMD:R_0603_1608Metric_Pad0.98x0.95mm_HandSolder" V 3180 2350 50  0001 C CNN
F 3 "~" H 3250 2350 50  0001 C CNN
	1    3250 2350
	1    0    0    -1  
$EndComp
$Comp
L Device:R R3
U 1 1 61B173B8
P 2600 3000
AR Path="/61AE8AE6/61B1299A/61B173B8" Ref="R3"  Part="1" 
AR Path="/61AE8AE6/61B1F28D/61B173B8" Ref="R5"  Part="1" 
AR Path="/61B04C8D/61B1299A/61B173B8" Ref="R15"  Part="1" 
AR Path="/61B04C8D/61B1F28D/61B173B8" Ref="R?"  Part="1" 
AR Path="/61B04C8D/61D8C465/61B173B8" Ref="R10"  Part="1" 
AR Path="/61AE8AE6/61D8C45F/61B173B8" Ref="R3"  Part="1" 
F 0 "R3" V 2393 3000 50  0000 C CNN
F 1 "330R" V 2484 3000 50  0000 C CNN
F 2 "Resistor_SMD:R_0603_1608Metric_Pad0.98x0.95mm_HandSolder" V 2530 3000 50  0001 C CNN
F 3 "~" H 2600 3000 50  0001 C CNN
	1    2600 3000
	0    1    1    0   
$EndComp
Wire Wire Line
	3250 2800 3250 2650
Wire Wire Line
	3250 2500 3250 2650
Connection ~ 3250 2650
Wire Wire Line
	3650 2650 3650 2300
Wire Wire Line
	3250 2200 3250 2000
Wire Wire Line
	3250 2000 3450 2000
Wire Wire Line
	2250 3000 2450 3000
Connection ~ 3250 2000
Wire Wire Line
	2750 3000 2950 3000
Wire Wire Line
	3250 3200 3250 3350
Wire Wire Line
	4200 2000 3850 2000
$Comp
L power:GNDD #PWR017
U 1 1 61B18C61
P 3250 3350
AR Path="/61AE8AE6/61B1299A/61B18C61" Ref="#PWR017"  Part="1" 
AR Path="/61AE8AE6/61B1F28D/61B18C61" Ref="#PWR018"  Part="1" 
AR Path="/61B04C8D/61B1299A/61B18C61" Ref="#PWR0118"  Part="1" 
AR Path="/61B04C8D/61B1F28D/61B18C61" Ref="#PWR?"  Part="1" 
AR Path="/61B04C8D/61D8C465/61B18C61" Ref="#PWR017"  Part="1" 
AR Path="/61AE8AE6/61D8C45F/61B18C61" Ref="#PWR01"  Part="1" 
F 0 "#PWR018" H 3250 3100 50  0001 C CNN
F 1 "GNDD" H 3254 3195 50  0000 C CNN
F 2 "" H 3250 3350 50  0001 C CNN
F 3 "" H 3250 3350 50  0001 C CNN
	1    3250 3350
	1    0    0    -1  
$EndComp
Text HLabel 2250 3000 0    50   Input ~ 0
Enable
Text HLabel 2050 2000 0    50   Input ~ 0
In
Text HLabel 4200 2000 2    50   Input ~ 0
Out
Wire Wire Line
	3250 2650 3650 2650
Wire Wire Line
	2050 2000 3250 2000
$EndSCHEMATC
