EESchema Schematic File Version 4
EELAYER 30 0
EELAYER END
$Descr A4 11693 8268
encoding utf-8
Sheet 9 21
Title ""
Date ""
Rev ""
Comp ""
Comment1 ""
Comment2 ""
Comment3 ""
Comment4 ""
$EndDescr
Text HLabel 2250 2000 0    50   Input ~ 0
Connector_GND
Text HLabel 2250 2850 0    50   Input ~ 0
Connector_Shield
Text HLabel 3200 2850 2    50   Input ~ 0
ESD_GND
Text HLabel 3200 2000 2    50   Input ~ 0
GND
$Comp
L Device:R R?
U 1 1 622AD92B
P 2800 2400
AR Path="/61B04C8D/61D9E2BC/622A5C9C/622AD92B" Ref="R?"  Part="1" 
AR Path="/61B04C8D/61D9E2BC/622ACD64/622AD92B" Ref="R11"  Part="1" 
AR Path="/61B04C8D/61DC40E2/622ACD64/622AD92B" Ref="R13"  Part="1" 
AR Path="/61B04C8D/622FE5DC/622AD92B" Ref="R12"  Part="1" 
AR Path="/61AE8AE6/62349367/622ACD64/622AD92B" Ref="R7"  Part="1" 
AR Path="/61AE8AE6/623944B9/622AD92B" Ref="R8"  Part="1" 
F 0 "R13" H 2870 2446 50  0000 L CNN
F 1 "1M" H 2870 2355 50  0000 L CNN
F 2 "Resistor_SMD:R_0805_2012Metric_Pad1.20x1.40mm_HandSolder" V 2730 2400 50  0001 C CNN
F 3 "~" H 2800 2400 50  0001 C CNN
	1    2800 2400
	1    0    0    -1  
$EndComp
$Comp
L Device:C C?
U 1 1 622AD931
P 2400 2400
AR Path="/61B04C8D/61D9E2BC/622A5C9C/622AD931" Ref="C?"  Part="1" 
AR Path="/61B04C8D/61D9E2BC/622ACD64/622AD931" Ref="C19"  Part="1" 
AR Path="/61B04C8D/61DC40E2/622ACD64/622AD931" Ref="C23"  Part="1" 
AR Path="/61B04C8D/622FE5DC/622AD931" Ref="C21"  Part="1" 
AR Path="/61AE8AE6/62349367/622ACD64/622AD931" Ref="C10"  Part="1" 
AR Path="/61AE8AE6/623944B9/622AD931" Ref="C16"  Part="1" 
F 0 "C23" H 2515 2446 50  0000 L CNN
F 1 "4n7" H 2515 2355 50  0000 L CNN
F 2 "Capacitor_SMD:C_0603_1608Metric_Pad1.08x0.95mm_HandSolder" H 2438 2250 50  0001 C CNN
F 3 "~" H 2400 2400 50  0001 C CNN
	1    2400 2400
	1    0    0    -1  
$EndComp
Wire Wire Line
	2250 2850 2400 2850
Wire Wire Line
	3200 2000 3050 2000
Wire Wire Line
	2400 2250 2400 2000
Connection ~ 2400 2000
Wire Wire Line
	2400 2000 2250 2000
Wire Wire Line
	2800 2250 2800 2000
Connection ~ 2800 2000
Wire Wire Line
	2800 2000 2400 2000
Wire Wire Line
	2800 2550 2800 2850
Wire Wire Line
	2400 2550 2400 2850
Connection ~ 2400 2850
Wire Wire Line
	2400 2850 2800 2850
Wire Wire Line
	2400 3150 2400 2850
$Comp
L power:Earth #PWR0119
U 1 1 622EAD10
P 2400 3150
AR Path="/61B04C8D/61D9E2BC/622ACD64/622EAD10" Ref="#PWR0119"  Part="1" 
AR Path="/61B04C8D/61DC40E2/622ACD64/622EAD10" Ref="#PWR0121"  Part="1" 
AR Path="/61B04C8D/622FE5DC/622EAD10" Ref="#PWR0120"  Part="1" 
AR Path="/61AE8AE6/62349367/622ACD64/622EAD10" Ref="#PWR0114"  Part="1" 
AR Path="/61AE8AE6/623944B9/622EAD10" Ref="#PWR0115"  Part="1" 
F 0 "#PWR0121" H 2400 2900 50  0001 C CNN
F 1 "Earth" H 2400 3000 50  0001 C CNN
F 2 "" H 2400 3150 50  0001 C CNN
F 3 "~" H 2400 3150 50  0001 C CNN
	1    2400 3150
	1    0    0    -1  
$EndComp
Wire Wire Line
	3200 2850 3050 2850
Wire Wire Line
	3050 2850 3050 2000
Connection ~ 3050 2000
Wire Wire Line
	3050 2000 2800 2000
$EndSCHEMATC
