EESchema Schematic File Version 4
EELAYER 30 0
EELAYER END
$Descr A4 11693 8268
encoding utf-8
Sheet 15 21
Title ""
Date ""
Rev ""
Comp ""
Comment1 ""
Comment2 ""
Comment3 ""
Comment4 ""
$EndDescr
Text HLabel 2150 1550 0    50   Input ~ 0
Connector_VBUS
Text HLabel 3100 1550 2    50   Input ~ 0
ESD_VBUS
Text HLabel 3100 1200 2    50   Input ~ 0
VBUS
$Comp
L Device:Ferrite_Bead FB7
U 1 1 622AAD0F
P 2750 1200
AR Path="/61B04C8D/61D9E2BC/622A5C9C/622AAD0F" Ref="FB7"  Part="1" 
AR Path="/61B04C8D/61DC40E2/622A5C9C/622AAD0F" Ref="FB9"  Part="1" 
AR Path="/61B04C8D/622FC46F/622AAD0F" Ref="FB8"  Part="1" 
AR Path="/61AE8AE6/62349367/622A5C9C/622AAD0F" Ref="FB4"  Part="1" 
AR Path="/61AE8AE6/6239145A/622AAD0F" Ref="FB5"  Part="1" 
AR Path="/61AE8AE6/623CD89E/622AAD0F" Ref="FB6"  Part="1" 
F 0 "FB8" V 2476 1200 50  0000 C CNN
F 1 "330R" V 2567 1200 50  0000 C CNN
F 2 "Inductor_SMD:L_0603_1608Metric_Pad1.05x0.95mm_HandSolder" V 2680 1200 50  0001 C CNN
F 3 "~" H 2750 1200 50  0001 C CNN
	1    2750 1200
	0    1    1    0   
$EndComp
Wire Wire Line
	3100 1200 2950 1200
Wire Wire Line
	2600 1200 2450 1200
Wire Wire Line
	2450 1200 2450 1550
Wire Wire Line
	2450 1550 2150 1550
Text HLabel 3100 2200 2    50   Input ~ 0
GND
$Comp
L Device:C C18
U 1 1 622B3222
P 2950 1850
AR Path="/61B04C8D/61D9E2BC/622A5C9C/622B3222" Ref="C18"  Part="1" 
AR Path="/61B04C8D/61DC40E2/622A5C9C/622B3222" Ref="C22"  Part="1" 
AR Path="/61B04C8D/622FC46F/622B3222" Ref="C20"  Part="1" 
AR Path="/61AE8AE6/62349367/622A5C9C/622B3222" Ref="C7"  Part="1" 
AR Path="/61AE8AE6/6239145A/622B3222" Ref="C12"  Part="1" 
AR Path="/61AE8AE6/623CD89E/622B3222" Ref="C17"  Part="1" 
F 0 "C20" H 3065 1896 50  0000 L CNN
F 1 "100n" H 3065 1805 50  0000 L CNN
F 2 "Capacitor_SMD:C_0603_1608Metric_Pad1.08x0.95mm_HandSolder" H 2988 1700 50  0001 C CNN
F 3 "~" H 2950 1850 50  0001 C CNN
	1    2950 1850
	1    0    0    -1  
$EndComp
Connection ~ 2950 1200
Wire Wire Line
	2950 1200 2900 1200
Wire Wire Line
	2950 2000 2950 2200
Wire Wire Line
	2950 2200 3100 2200
Wire Wire Line
	2950 1200 2950 1700
Wire Wire Line
	3100 1550 2450 1550
Connection ~ 2450 1550
$EndSCHEMATC
