EESchema Schematic File Version 4
EELAYER 30 0
EELAYER END
$Descr A4 11693 8268
encoding utf-8
Sheet 1 21
Title ""
Date ""
Rev ""
Comp ""
Comment1 ""
Comment2 ""
Comment3 ""
Comment4 ""
$EndDescr
$Comp
L Connector_Generic:Conn_02x05_Odd_Even J1
U 1 1 61AB6C56
P 5500 2900
F 0 "J1" H 5550 3317 50  0000 C CNN
F 1 "Conn_02x05_Odd_Even" H 5550 3226 50  0000 C CNN
F 2 "Connector_IDC:IDC-Header_2x05_P2.54mm_Vertical" H 5500 2900 50  0001 C CNN
F 3 "~" H 5500 2900 50  0001 C CNN
	1    5500 2900
	1    0    0    -1  
$EndComp
$Comp
L Regulator_Linear:MIC5365-3.3YD5 U1
U 1 1 61AE6B65
P 2500 1300
F 0 "U1" H 2500 1667 50  0000 C CNN
F 1 "MIC5365-3.3YD5" H 2500 1576 50  0000 C CNN
F 2 "Package_TO_SOT_SMD:SOT-23-5_HandSoldering" H 2500 1650 50  0001 C CNN
F 3 "http://ww1.microchip.com/downloads/en/DeviceDoc/mic5365.pdf" H 2250 1550 50  0001 C CNN
	1    2500 1300
	1    0    0    -1  
$EndComp
$Comp
L Device:C C2
U 1 1 61AFA83F
P 2000 1650
F 0 "C2" H 2115 1696 50  0000 L CNN
F 1 "1u" H 2115 1605 50  0000 L CNN
F 2 "Capacitor_SMD:C_0805_2012Metric_Pad1.18x1.45mm_HandSolder" H 2038 1500 50  0001 C CNN
F 3 "~" H 2000 1650 50  0001 C CNN
	1    2000 1650
	1    0    0    -1  
$EndComp
$Comp
L Device:C C1
U 1 1 61AFAE1D
P 3000 1450
F 0 "C1" H 3115 1496 50  0000 L CNN
F 1 "1u" H 3115 1405 50  0000 L CNN
F 2 "Capacitor_SMD:C_0805_2012Metric_Pad1.18x1.45mm_HandSolder" H 3038 1300 50  0001 C CNN
F 3 "~" H 3000 1450 50  0001 C CNN
	1    3000 1450
	1    0    0    -1  
$EndComp
Wire Wire Line
	2000 1500 2000 1400
Wire Wire Line
	2000 1400 2100 1400
Wire Wire Line
	2100 1200 2000 1200
Wire Wire Line
	2000 1200 2000 1400
Connection ~ 2000 1400
Wire Wire Line
	2000 1100 2000 1200
Connection ~ 2000 1200
Wire Wire Line
	3000 1100 3000 1200
Wire Wire Line
	3000 1200 2900 1200
Connection ~ 3000 1200
Wire Wire Line
	3000 1200 3000 1300
Wire Wire Line
	3000 1700 3000 1600
Wire Wire Line
	2500 1700 2500 1600
Wire Wire Line
	2000 1900 2000 1800
$Comp
L power:+5V #PWR02
U 1 1 61AFC719
P 2000 1100
F 0 "#PWR02" H 2000 950 50  0001 C CNN
F 1 "+5V" H 2015 1273 50  0000 C CNN
F 2 "" H 2000 1100 50  0001 C CNN
F 3 "" H 2000 1100 50  0001 C CNN
	1    2000 1100
	1    0    0    -1  
$EndComp
$Comp
L power:+3V3 #PWR03
U 1 1 61AFCB9C
P 3000 1100
F 0 "#PWR03" H 3000 950 50  0001 C CNN
F 1 "+3V3" H 3015 1273 50  0000 C CNN
F 2 "" H 3000 1100 50  0001 C CNN
F 3 "" H 3000 1100 50  0001 C CNN
	1    3000 1100
	1    0    0    -1  
$EndComp
$Comp
L power:GNDD #PWR05
U 1 1 61AFCF60
P 2500 1700
F 0 "#PWR05" H 2500 1450 50  0001 C CNN
F 1 "GNDD" H 2504 1545 50  0000 C CNN
F 2 "" H 2500 1700 50  0001 C CNN
F 3 "" H 2500 1700 50  0001 C CNN
	1    2500 1700
	1    0    0    -1  
$EndComp
$Comp
L power:GNDD #PWR06
U 1 1 61AFD0C6
P 3000 1700
F 0 "#PWR06" H 3000 1450 50  0001 C CNN
F 1 "GNDD" H 3004 1545 50  0000 C CNN
F 2 "" H 3000 1700 50  0001 C CNN
F 3 "" H 3000 1700 50  0001 C CNN
	1    3000 1700
	1    0    0    -1  
$EndComp
$Comp
L power:GNDD #PWR07
U 1 1 61AFD3BC
P 2000 1900
F 0 "#PWR07" H 2000 1650 50  0001 C CNN
F 1 "GNDD" H 2004 1745 50  0000 C CNN
F 2 "" H 2000 1900 50  0001 C CNN
F 3 "" H 2000 1900 50  0001 C CNN
	1    2000 1900
	1    0    0    -1  
$EndComp
$Comp
L power:GNDD #PWR04
U 1 1 61B011EB
P 5900 3200
F 0 "#PWR04" H 5900 2950 50  0001 C CNN
F 1 "GNDD" H 5904 3045 50  0000 C CNN
F 2 "" H 5900 3200 50  0001 C CNN
F 3 "" H 5900 3200 50  0001 C CNN
	1    5900 3200
	1    0    0    -1  
$EndComp
Wire Wire Line
	5900 3200 5900 2700
Wire Wire Line
	5900 2700 5800 2700
$Comp
L Device:Ferrite_Bead FB1
U 1 1 61B01F82
P 4800 2500
F 0 "FB1" V 4526 2500 50  0000 C CNN
F 1 "330R" V 4617 2500 50  0000 C CNN
F 2 "Inductor_SMD:L_0603_1608Metric_Pad1.05x0.95mm_HandSolder" V 4730 2500 50  0001 C CNN
F 3 "~" H 4800 2500 50  0001 C CNN
	1    4800 2500
	0    1    1    0   
$EndComp
Wire Wire Line
	7050 2450 8100 2450
Wire Wire Line
	7050 2250 8100 2250
Wire Wire Line
	7050 2650 8100 2650
Wire Wire Line
	7050 2850 8100 2850
Wire Wire Line
	7050 4100 8100 4100
Wire Wire Line
	8100 3900 7050 3900
Wire Wire Line
	7050 4300 8100 4300
$Comp
L Diode:BAV70 D2
U 1 1 61B41504
P 3750 3400
F 0 "D2" V 3704 3488 50  0000 L CNN
F 1 "BAV70" V 3795 3488 50  0000 L CNN
F 2 "Package_TO_SOT_SMD:SOT-23_Handsoldering" H 3825 3525 50  0001 L CNN
F 3 "https://assets.nexperia.com/documents/data-sheet/BAV70_SER.pdf" H 3670 3400 50  0001 C CNN
	1    3750 3400
	-1   0    0    1   
$EndComp
Wire Wire Line
	8100 3400 4700 3400
$Comp
L Device:Ferrite_Bead FB2
U 1 1 61B4E7A1
P 4550 1950
F 0 "FB2" H 4413 1904 50  0000 R CNN
F 1 "330R" H 4413 1995 50  0000 R CNN
F 2 "Inductor_SMD:L_0603_1608Metric_Pad1.05x0.95mm_HandSolder" V 4480 1950 50  0001 C CNN
F 3 "~" H 4550 1950 50  0001 C CNN
	1    4550 1950
	0    -1   -1   0   
$EndComp
$Comp
L Device:Ferrite_Bead FB3
U 1 1 61B4ED24
P 4550 3400
F 0 "FB3" H 4413 3354 50  0000 R CNN
F 1 "330R" H 4413 3445 50  0000 R CNN
F 2 "Inductor_SMD:L_0603_1608Metric_Pad1.05x0.95mm_HandSolder" V 4480 3400 50  0001 C CNN
F 3 "~" H 4550 3400 50  0001 C CNN
	1    4550 3400
	0    -1   -1   0   
$EndComp
$Comp
L power:+5V #PWR08
U 1 1 61B4F6B2
P 3750 1650
F 0 "#PWR08" H 3750 1500 50  0001 C CNN
F 1 "+5V" H 3765 1823 50  0000 C CNN
F 2 "" H 3750 1650 50  0001 C CNN
F 3 "" H 3750 1650 50  0001 C CNN
	1    3750 1650
	1    0    0    -1  
$EndComp
$Comp
L Diode:BAV70 D1
U 1 1 61B5092D
P 3750 1950
F 0 "D1" H 3750 2083 50  0000 C CNN
F 1 "BAV70" H 3750 2174 50  0000 C CNN
F 2 "Package_TO_SOT_SMD:SOT-23_Handsoldering" H 3825 2075 50  0001 L CNN
F 3 "https://assets.nexperia.com/documents/data-sheet/BAV70_SER.pdf" H 3670 1950 50  0001 C CNN
	1    3750 1950
	-1   0    0    1   
$EndComp
$Comp
L Diode:2BZX84Cxx D3
U 1 1 61B08FBC
P 1100 1600
F 0 "D3" H 1288 1646 50  0000 L CNN
F 1 "CPDT_5V0U_HF" H 1288 1555 50  0000 L CNN
F 2 "Package_TO_SOT_SMD:SOT-23_Handsoldering" H 1250 1500 50  0001 L CNN
F 3 "https://diotec.com/tl_files/diotec/files/pdf/datasheets/bzx84c2v4.pdf" V 1000 1600 50  0001 C CNN
	1    1100 1600
	1    0    0    -1  
$EndComp
$Comp
L power:GNDD #PWR041
U 1 1 61B097AB
P 1100 1900
F 0 "#PWR041" H 1100 1650 50  0001 C CNN
F 1 "GNDD" H 1104 1745 50  0000 C CNN
F 2 "" H 1100 1900 50  0001 C CNN
F 3 "" H 1100 1900 50  0001 C CNN
	1    1100 1900
	1    0    0    -1  
$EndComp
Wire Wire Line
	1100 1900 1100 1800
Wire Wire Line
	1200 1400 1200 1200
Wire Wire Line
	1000 1400 1000 1200
Wire Wire Line
	1000 1200 1200 1200
Wire Wire Line
	2000 1200 1200 1200
Connection ~ 1200 1200
Wire Wire Line
	3750 1750 3750 1650
Wire Wire Line
	3750 3100 3750 3200
$Comp
L power:+5V #PWR0101
U 1 1 61CFF420
P 3050 2200
F 0 "#PWR0101" H 3050 2050 50  0001 C CNN
F 1 "+5V" H 3065 2373 50  0000 C CNN
F 2 "" H 3050 2200 50  0001 C CNN
F 3 "" H 3050 2200 50  0001 C CNN
	1    3050 2200
	1    0    0    -1  
$EndComp
Wire Wire Line
	4400 3400 4050 3400
Wire Wire Line
	3350 3400 3450 3400
Wire Wire Line
	2750 2500 2650 2500
Wire Wire Line
	4950 2500 5100 2500
Wire Wire Line
	5100 2500 5100 2700
Wire Wire Line
	5100 2700 5300 2700
Wire Wire Line
	5300 2800 4300 2800
Wire Wire Line
	4300 2900 5300 2900
Wire Wire Line
	5300 3000 4300 3000
Wire Wire Line
	4300 3100 5300 3100
Wire Wire Line
	5800 2800 6850 2800
Wire Wire Line
	6850 2900 5800 2900
Wire Wire Line
	5800 3000 6850 3000
Wire Wire Line
	6850 3100 5800 3100
Entry Wire Line
	4200 2700 4300 2800
Entry Wire Line
	4200 2800 4300 2900
Entry Wire Line
	4200 2900 4300 3000
Entry Wire Line
	4200 3000 4300 3100
Entry Wire Line
	6850 2800 6950 2900
Entry Wire Line
	6850 2900 6950 3000
Entry Wire Line
	6850 3000 6950 3100
Entry Wire Line
	6850 3100 6950 3200
Entry Wire Line
	6950 2150 7050 2250
Entry Wire Line
	6950 2350 7050 2450
Entry Wire Line
	6950 2550 7050 2650
Entry Wire Line
	6950 2750 7050 2850
Entry Wire Line
	6950 3800 7050 3900
Entry Wire Line
	6950 4000 7050 4100
Entry Wire Line
	6950 4200 7050 4300
Entry Wire Line
	6950 4400 7050 4500
Wire Wire Line
	8100 4500 7050 4500
Text Label 7150 2250 0    50   ~ 0
~OE~_A
Text Label 7150 2450 0    50   ~ 0
SEL_A
Text Label 7150 2650 0    50   ~ 0
VBUS_Enable_1_A
Text Label 7150 2850 0    50   ~ 0
VBUS_Enable_2_A
Text Label 7150 3900 0    50   ~ 0
~OE~_B
Text Label 7150 4100 0    50   ~ 0
SEL_B
Text Label 7150 4300 0    50   ~ 0
VBUS_Enable_1_B
Text Label 7150 4500 0    50   ~ 0
VBUS_Enable_2_B
Text Label 4450 2800 0    50   ~ 0
~OE~_A
Text Label 4450 2900 0    50   ~ 0
SEL_A
Text Label 4450 3000 0    50   ~ 0
VBUS_Enable_1_A
Text Label 4450 3100 0    50   ~ 0
VBUS_Enable_2_A
Text Label 6050 2800 0    50   ~ 0
~OE~_B
Text Label 6050 2900 0    50   ~ 0
SEL_B
Text Label 6050 3000 0    50   ~ 0
VBUS_Enable_1_B
Text Label 6050 3100 0    50   ~ 0
VBUS_Enable_2_B
$Comp
L power:+3V3 #PWR0102
U 1 1 61B2087C
P 2650 2400
F 0 "#PWR0102" H 2650 2250 50  0001 C CNN
F 1 "+3V3" H 2665 2573 50  0000 C CNN
F 2 "" H 2650 2400 50  0001 C CNN
F 3 "" H 2650 2400 50  0001 C CNN
	1    2650 2400
	1    0    0    -1  
$EndComp
$Comp
L Power_Protection:USBLC6-4SC6 U?
U 1 1 61B2A7D7
P 5600 4600
AR Path="/61AE8AE6/61B2A7D7" Ref="U?"  Part="1" 
AR Path="/61B04C8D/61B2A7D7" Ref="U?"  Part="1" 
AR Path="/61B2A7D7" Ref="U8"  Part="1" 
F 0 "U8" H 5700 5150 50  0000 C CNN
F 1 "IP4220CZ6F" H 5900 5050 50  0000 C CNN
F 2 "Package_TO_SOT_SMD:SOT-23-6_Handsoldering" H 5600 4100 50  0001 C CNN
F 3 "https://www.st.com/resource/en/datasheet/usblc6-4.pdf" H 5800 4950 50  0001 C CNN
	1    5600 4600
	-1   0    0    -1  
$EndComp
$Comp
L power:+3V3 #PWR0103
U 1 1 61B2E059
P 5600 4100
F 0 "#PWR0103" H 5600 3950 50  0001 C CNN
F 1 "+3V3" H 5615 4273 50  0000 C CNN
F 2 "" H 5600 4100 50  0001 C CNN
F 3 "" H 5600 4100 50  0001 C CNN
	1    5600 4100
	1    0    0    -1  
$EndComp
Wire Wire Line
	5600 4100 5600 4200
Wire Wire Line
	5600 5000 5600 5100
$Comp
L power:GNDD #PWR0104
U 1 1 61B31D2D
P 5600 5100
F 0 "#PWR0104" H 5600 4850 50  0001 C CNN
F 1 "GNDD" H 5604 4945 50  0000 C CNN
F 2 "" H 5600 5100 50  0001 C CNN
F 3 "" H 5600 5100 50  0001 C CNN
	1    5600 5100
	1    0    0    -1  
$EndComp
Wire Bus Line
	6950 7200 4200 7200
$Comp
L Power_Protection:USBLC6-4SC6 U?
U 1 1 61B42F17
P 5600 6200
AR Path="/61AE8AE6/61B42F17" Ref="U?"  Part="1" 
AR Path="/61B04C8D/61B42F17" Ref="U?"  Part="1" 
AR Path="/61B42F17" Ref="U9"  Part="1" 
F 0 "U9" H 5700 6750 50  0000 C CNN
F 1 "IP4220CZ6F" H 5900 6650 50  0000 C CNN
F 2 "Package_TO_SOT_SMD:SOT-23-6_Handsoldering" H 5600 5700 50  0001 C CNN
F 3 "https://www.st.com/resource/en/datasheet/usblc6-4.pdf" H 5800 6550 50  0001 C CNN
	1    5600 6200
	-1   0    0    -1  
$EndComp
$Comp
L power:+3V3 #PWR0105
U 1 1 61B43107
P 5600 5700
F 0 "#PWR0105" H 5600 5550 50  0001 C CNN
F 1 "+3V3" H 5615 5873 50  0000 C CNN
F 2 "" H 5600 5700 50  0001 C CNN
F 3 "" H 5600 5700 50  0001 C CNN
	1    5600 5700
	1    0    0    -1  
$EndComp
Wire Wire Line
	5600 5700 5600 5800
Wire Wire Line
	5600 6600 5600 6700
$Comp
L power:GNDD #PWR0106
U 1 1 61B43113
P 5600 6700
F 0 "#PWR0106" H 5600 6450 50  0001 C CNN
F 1 "GNDD" H 5604 6545 50  0000 C CNN
F 2 "" H 5600 6700 50  0001 C CNN
F 3 "" H 5600 6700 50  0001 C CNN
	1    5600 6700
	1    0    0    -1  
$EndComp
Entry Wire Line
	4200 6000 4300 6100
Text Label 6750 6300 2    50   ~ 0
~OE~_B
Wire Wire Line
	5200 6100 4300 6100
Wire Wire Line
	4300 6300 5200 6300
Entry Wire Line
	4200 6200 4300 6300
Text Label 6750 6100 2    50   ~ 0
SEL_B
Wire Wire Line
	6850 6100 6000 6100
Entry Wire Line
	6950 6200 6850 6100
Text Label 4500 6300 0    50   ~ 0
VBUS_Enable_1_B
Entry Wire Line
	6950 6400 6850 6300
Text Label 4500 6100 0    50   ~ 0
VBUS_Enable_2_B
Wire Wire Line
	6000 6300 6850 6300
Entry Wire Line
	6950 4800 6850 4700
Text Label 4500 4700 0    50   ~ 0
VBUS_Enable_2_A
Wire Wire Line
	6000 4700 6850 4700
Wire Wire Line
	6850 4500 6000 4500
Entry Wire Line
	6950 4600 6850 4500
Text Label 4500 4500 0    50   ~ 0
VBUS_Enable_1_A
Wire Wire Line
	4300 4700 5200 4700
Entry Wire Line
	4200 4600 4300 4700
Text Label 6750 4700 2    50   ~ 0
SEL_A
Wire Wire Line
	4300 4500 5200 4500
Entry Wire Line
	4200 4400 4300 4500
Text Label 6750 4500 2    50   ~ 0
~OE~_A
Wire Wire Line
	4050 1950 4400 1950
Wire Wire Line
	4700 1950 8100 1950
Wire Wire Line
	2650 2400 2650 2500
$Comp
L Mechanical:MountingHole_Pad H1
U 1 1 61C19D8B
P 1450 3650
F 0 "H1" H 1550 3699 50  0000 L CNN
F 1 "MountingHole_Pad" H 1550 3608 50  0000 L CNN
F 2 "MountingHole:MountingHole_3.2mm_M3_Pad" H 1450 3650 50  0001 C CNN
F 3 "~" H 1450 3650 50  0001 C CNN
	1    1450 3650
	1    0    0    -1  
$EndComp
Wire Wire Line
	1450 3850 1450 3750
$Comp
L Mechanical:MountingHole_Pad H2
U 1 1 61C1FAF8
P 1450 4250
F 0 "H2" H 1550 4299 50  0000 L CNN
F 1 "MountingHole_Pad" H 1550 4208 50  0000 L CNN
F 2 "MountingHole:MountingHole_3.2mm_M3_Pad" H 1450 4250 50  0001 C CNN
F 3 "~" H 1450 4250 50  0001 C CNN
	1    1450 4250
	1    0    0    -1  
$EndComp
Wire Wire Line
	1450 4450 1450 4350
$Comp
L Mechanical:MountingHole_Pad H3
U 1 1 61C23F74
P 1450 4850
F 0 "H3" H 1550 4899 50  0000 L CNN
F 1 "MountingHole_Pad" H 1550 4808 50  0000 L CNN
F 2 "MountingHole:MountingHole_3.2mm_M3_Pad" H 1450 4850 50  0001 C CNN
F 3 "~" H 1450 4850 50  0001 C CNN
	1    1450 4850
	1    0    0    -1  
$EndComp
Wire Wire Line
	1450 5050 1450 4950
$Comp
L Mechanical:MountingHole_Pad H4
U 1 1 61C25B4E
P 1450 5450
F 0 "H4" H 1550 5499 50  0000 L CNN
F 1 "MountingHole_Pad" H 1550 5408 50  0000 L CNN
F 2 "MountingHole:MountingHole_3.2mm_M3_Pad" H 1450 5450 50  0001 C CNN
F 3 "~" H 1450 5450 50  0001 C CNN
	1    1450 5450
	1    0    0    -1  
$EndComp
Wire Wire Line
	1450 5650 1450 5550
$Sheet
S 8100 1800 800  1200
U 61AE8AE6
F0 "Switch_A" 50
F1 "dual-A-usb-switch.sch" 50
F2 "VBUS" I L 8100 1950 50 
F3 "~OE~" I L 8100 2250 50 
F4 "SEL" I L 8100 2450 50 
F5 "VBUS_Enable_1" I L 8100 2650 50 
F6 "VBUS_Enable_2" I L 8100 2850 50 
$EndSheet
$Sheet
S 8100 3250 800  1400
U 61B04C8D
F0 "Switch_B" 50
F1 "dual-B-usb-switch.sch" 50
F2 "~OE~" I L 8100 3900 50 
F3 "SEL" I L 8100 4100 50 
F4 "VBUS_Enable_1" I L 8100 4300 50 
F5 "VBUS_Enable_2" I L 8100 4500 50 
F6 "VBUS_IN2" I L 8100 3600 50 
F7 "VBUS_IN1" I L 8100 3400 50 
$EndSheet
Wire Wire Line
	8100 3600 5050 3600
Wire Wire Line
	3350 3600 3350 3400
$Comp
L Diode:BAT54C D4
U 1 1 61EB07FA
P 3050 2500
F 0 "D4" V 3004 2588 50  0000 L CNN
F 1 "BAT54C" V 3095 2588 50  0000 L CNN
F 2 "Package_TO_SOT_SMD:SOT-23_Handsoldering" H 3125 2625 50  0001 L CNN
F 3 "http://www.diodes.com/_files/datasheets/ds11005.pdf" H 2970 2500 50  0001 C CNN
	1    3050 2500
	-1   0    0    1   
$EndComp
Wire Wire Line
	3050 2200 3050 2300
$Comp
L Device:Ferrite_Bead FB11
U 1 1 61EBAA5C
P 4900 3600
F 0 "FB11" H 4763 3554 50  0000 R CNN
F 1 "330R" H 4763 3645 50  0000 R CNN
F 2 "Inductor_SMD:L_0603_1608Metric_Pad1.05x0.95mm_HandSolder" V 4830 3600 50  0001 C CNN
F 3 "~" H 4900 3600 50  0001 C CNN
	1    4900 3600
	0    -1   -1   0   
$EndComp
Wire Wire Line
	3350 2500 4650 2500
$Comp
L power:+5V #PWR023
U 1 1 61EDAB2C
P 3750 3100
F 0 "#PWR023" H 3750 2950 50  0001 C CNN
F 1 "+5V" H 3765 3273 50  0000 C CNN
F 2 "" H 3750 3100 50  0001 C CNN
F 3 "" H 3750 3100 50  0001 C CNN
	1    3750 3100
	1    0    0    -1  
$EndComp
Text Notes 3400 2400 0    50   ~ 0
Extra voltage drop\nfor 5V from VBUS
$Comp
L power:Earth #PWR0107
U 1 1 623FB61E
P 1450 3850
F 0 "#PWR0107" H 1450 3600 50  0001 C CNN
F 1 "Earth" H 1450 3700 50  0001 C CNN
F 2 "" H 1450 3850 50  0001 C CNN
F 3 "~" H 1450 3850 50  0001 C CNN
	1    1450 3850
	1    0    0    -1  
$EndComp
$Comp
L power:Earth #PWR0108
U 1 1 623FBEDE
P 1450 4450
F 0 "#PWR0108" H 1450 4200 50  0001 C CNN
F 1 "Earth" H 1450 4300 50  0001 C CNN
F 2 "" H 1450 4450 50  0001 C CNN
F 3 "~" H 1450 4450 50  0001 C CNN
	1    1450 4450
	1    0    0    -1  
$EndComp
$Comp
L power:Earth #PWR0109
U 1 1 623FC679
P 1450 5050
F 0 "#PWR0109" H 1450 4800 50  0001 C CNN
F 1 "Earth" H 1450 4900 50  0001 C CNN
F 2 "" H 1450 5050 50  0001 C CNN
F 3 "~" H 1450 5050 50  0001 C CNN
	1    1450 5050
	1    0    0    -1  
$EndComp
$Comp
L power:Earth #PWR0110
U 1 1 623FCDA1
P 1450 5650
F 0 "#PWR0110" H 1450 5400 50  0001 C CNN
F 1 "Earth" H 1450 5500 50  0001 C CNN
F 2 "" H 1450 5650 50  0001 C CNN
F 3 "~" H 1450 5650 50  0001 C CNN
	1    1450 5650
	1    0    0    -1  
$EndComp
Wire Wire Line
	3350 3600 4750 3600
Wire Bus Line
	4200 2600 4200 7200
Wire Bus Line
	6950 700  6950 7200
$EndSCHEMATC
