EESchema Schematic File Version 4
EELAYER 30 0
EELAYER END
$Descr A4 11693 8268
encoding utf-8
Sheet 1 3
Title ""
Date ""
Rev ""
Comp ""
Comment1 ""
Comment2 ""
Comment3 ""
Comment4 ""
$EndDescr
$Comp
L MCU_NXP_Kinetis:MKL25Z64VLH4 U2
U 1 1 61A404E4
P 5350 4150
F 0 "U2" H 4500 1600 50  0000 C CNN
F 1 "MKL25Z64VLH4" H 4700 1700 50  0000 C CNN
F 2 "Package_QFP:LQFP-64_10x10mm_P0.5mm" H 5600 1725 50  0001 L TNN
F 3 "http://www.nxp.com/docs/en/data-sheet/KL25P80M48SF0.pdf" H 5650 1450 50  0001 L BNN
	1    5350 4150
	1    0    0    -1  
$EndComp
$Comp
L Regulator_Linear:MIC5365-3.3YC5 U1
U 1 1 61A42032
P 2350 1350
F 0 "U1" H 2350 1717 50  0000 C CNN
F 1 "MIC5317-3.3YM5" H 2350 1626 50  0000 C CNN
F 2 "Package_TO_SOT_SMD:SOT-23-5_HandSoldering" H 2350 1700 50  0001 C CNN
F 3 "http://ww1.microchip.com/downloads/en/DeviceDoc/mic5365.pdf" H 2050 2150 50  0001 C CNN
	1    2350 1350
	1    0    0    -1  
$EndComp
$Comp
L power:GNDD #PWR0101
U 1 1 61A42EA0
P 2350 1750
F 0 "#PWR0101" H 2350 1500 50  0001 C CNN
F 1 "GNDD" H 2354 1595 50  0000 C CNN
F 2 "" H 2350 1750 50  0001 C CNN
F 3 "" H 2350 1750 50  0001 C CNN
	1    2350 1750
	1    0    0    -1  
$EndComp
$Comp
L power:+5V #PWR0102
U 1 1 61A43554
P 1850 700
F 0 "#PWR0102" H 1850 550 50  0001 C CNN
F 1 "+5V" H 1865 873 50  0000 C CNN
F 2 "" H 1850 700 50  0001 C CNN
F 3 "" H 1850 700 50  0001 C CNN
	1    1850 700 
	1    0    0    -1  
$EndComp
Wire Wire Line
	1850 1250 1950 1250
Wire Wire Line
	1850 1250 1850 1450
Wire Wire Line
	1850 1450 1950 1450
Connection ~ 1850 1250
$Comp
L Device:Ferrite_Bead FB1
U 1 1 61A44CC0
P 1600 1250
F 0 "FB1" V 1326 1250 50  0000 C CNN
F 1 "330R" V 1417 1250 50  0000 C CNN
F 2 "Inductor_SMD:L_0603_1608Metric_Pad1.05x0.95mm_HandSolder" V 1530 1250 50  0001 C CNN
F 3 "~" H 1600 1250 50  0001 C CNN
	1    1600 1250
	0    1    1    0   
$EndComp
Wire Wire Line
	1750 1250 1850 1250
$Comp
L Device:C C8
U 1 1 61A459E8
P 1850 1700
F 0 "C8" H 1965 1746 50  0000 L CNN
F 1 "1u" H 1965 1655 50  0000 L CNN
F 2 "Capacitor_SMD:C_0805_2012Metric_Pad1.18x1.45mm_HandSolder" H 1888 1550 50  0001 C CNN
F 3 "~" H 1850 1700 50  0001 C CNN
	1    1850 1700
	1    0    0    -1  
$EndComp
$Comp
L power:GNDD #PWR0103
U 1 1 61A45D2F
P 1850 1950
F 0 "#PWR0103" H 1850 1700 50  0001 C CNN
F 1 "GNDD" H 1854 1795 50  0000 C CNN
F 2 "" H 1850 1950 50  0001 C CNN
F 3 "" H 1850 1950 50  0001 C CNN
	1    1850 1950
	1    0    0    -1  
$EndComp
Wire Wire Line
	1850 1550 1850 1450
Connection ~ 1850 1450
$Comp
L power:+5VP #PWR0104
U 1 1 61A46690
P 1350 1150
F 0 "#PWR0104" H 1350 1000 50  0001 C CNN
F 1 "+5VP" H 1365 1323 50  0000 C CNN
F 2 "" H 1350 1150 50  0001 C CNN
F 3 "" H 1350 1150 50  0001 C CNN
	1    1350 1150
	1    0    0    -1  
$EndComp
$Comp
L Device:C C6
U 1 1 61A46B6C
P 1350 1500
F 0 "C6" H 1465 1546 50  0000 L CNN
F 1 "1u" H 1465 1455 50  0000 L CNN
F 2 "Capacitor_SMD:C_0805_2012Metric_Pad1.18x1.45mm_HandSolder" H 1388 1350 50  0001 C CNN
F 3 "~" H 1350 1500 50  0001 C CNN
	1    1350 1500
	1    0    0    -1  
$EndComp
Wire Wire Line
	1450 1250 1350 1250
Wire Wire Line
	1350 1250 1350 1150
Wire Wire Line
	1350 1350 1350 1250
Connection ~ 1350 1250
$Comp
L power:GNDD #PWR0105
U 1 1 61A477FB
P 1350 1750
F 0 "#PWR0105" H 1350 1500 50  0001 C CNN
F 1 "GNDD" H 1354 1595 50  0000 C CNN
F 2 "" H 1350 1750 50  0001 C CNN
F 3 "" H 1350 1750 50  0001 C CNN
	1    1350 1750
	1    0    0    -1  
$EndComp
Wire Wire Line
	700  1250 700  1350
$Comp
L power:GNDD #PWR0106
U 1 1 61A4DC06
P 700 1750
F 0 "#PWR0106" H 700 1500 50  0001 C CNN
F 1 "GNDD" H 704 1595 50  0000 C CNN
F 2 "" H 700 1750 50  0001 C CNN
F 3 "" H 700 1750 50  0001 C CNN
	1    700  1750
	1    0    0    -1  
$EndComp
$Comp
L Device:C C7
U 1 1 61A4EE9C
P 2850 1500
F 0 "C7" H 2965 1546 50  0000 L CNN
F 1 "1u" H 2965 1455 50  0000 L CNN
F 2 "Capacitor_SMD:C_0805_2012Metric_Pad1.18x1.45mm_HandSolder" H 2888 1350 50  0001 C CNN
F 3 "~" H 2850 1500 50  0001 C CNN
	1    2850 1500
	1    0    0    -1  
$EndComp
$Comp
L power:GNDD #PWR0107
U 1 1 61A4F50F
P 2850 1750
F 0 "#PWR0107" H 2850 1500 50  0001 C CNN
F 1 "GNDD" H 2854 1595 50  0000 C CNN
F 2 "" H 2850 1750 50  0001 C CNN
F 3 "" H 2850 1750 50  0001 C CNN
	1    2850 1750
	1    0    0    -1  
$EndComp
Wire Wire Line
	2850 1350 2850 1250
Wire Wire Line
	2850 1250 2750 1250
Connection ~ 2850 1250
$Comp
L power:+3V3 #PWR0108
U 1 1 61A50549
P 2850 700
F 0 "#PWR0108" H 2850 550 50  0001 C CNN
F 1 "+3V3" H 2865 873 50  0000 C CNN
F 2 "" H 2850 700 50  0001 C CNN
F 3 "" H 2850 700 50  0001 C CNN
	1    2850 700 
	1    0    0    -1  
$EndComp
$Comp
L Connector:USB_B J6
U 1 1 61A5369C
P 1800 5050
F 0 "J6" H 1857 5517 50  0000 C CNN
F 1 "USB_B" H 1857 5426 50  0000 C CNN
F 2 "Connector_USB:USB_B_OST_USB-B1HSxx_Horizontal" H 1950 5000 50  0001 C CNN
F 3 " ~" H 1950 5000 50  0001 C CNN
	1    1800 5050
	1    0    0    -1  
$EndComp
$Comp
L power:+5VP #PWR0109
U 1 1 61A57261
P 2600 4750
F 0 "#PWR0109" H 2600 4600 50  0001 C CNN
F 1 "+5VP" H 2615 4923 50  0000 C CNN
F 2 "" H 2600 4750 50  0001 C CNN
F 3 "" H 2600 4750 50  0001 C CNN
	1    2600 4750
	1    0    0    -1  
$EndComp
Wire Wire Line
	2200 4850 2100 4850
$Comp
L Power_Protection:SP0502BAHT D4
U 1 1 61A58BA1
P 2450 5450
F 0 "D4" H 2655 5496 50  0000 L CNN
F 1 "PESD2USB3UV" H 2655 5405 50  0000 L CNN
F 2 "Package_TO_SOT_SMD:SOT-23" H 2675 5400 50  0001 L CNN
F 3 "http://www.littelfuse.com/~/media/files/littelfuse/technical%20resources/documents/data%20sheets/sp05xxba.pdf" H 2575 5575 50  0001 C CNN
	1    2450 5450
	1    0    0    -1  
$EndComp
Wire Wire Line
	2100 5150 2350 5150
Wire Wire Line
	2350 5150 2350 5250
Wire Wire Line
	2100 5050 2550 5050
Wire Wire Line
	2550 5050 2550 5250
Wire Wire Line
	4150 5050 3150 5050
Connection ~ 2550 5050
Wire Wire Line
	2350 5150 2850 5150
Connection ~ 2350 5150
$Comp
L Device:R R8
U 1 1 61A5D7C9
P 3000 5050
F 0 "R8" V 2793 5050 50  0000 C CNN
F 1 "33R" V 2884 5050 50  0000 C CNN
F 2 "Resistor_SMD:R_0603_1608Metric_Pad0.98x0.95mm_HandSolder" V 2930 5050 50  0001 C CNN
F 3 "~" H 3000 5050 50  0001 C CNN
	1    3000 5050
	0    1    1    0   
$EndComp
Wire Wire Line
	2850 5050 2550 5050
$Comp
L Device:R R9
U 1 1 61A5DB16
P 3000 5150
F 0 "R9" V 2800 5150 50  0000 C CNN
F 1 "33R" V 2900 5150 50  0000 C CNN
F 2 "Resistor_SMD:R_0603_1608Metric_Pad0.98x0.95mm_HandSolder" V 2930 5150 50  0001 C CNN
F 3 "~" H 3000 5150 50  0001 C CNN
	1    3000 5150
	0    -1   -1   0   
$EndComp
Wire Wire Line
	3150 5150 4150 5150
$Comp
L Device:C C1
U 1 1 61A60541
P 6700 1050
F 0 "C1" H 6815 1096 50  0000 L CNN
F 1 "100n" H 6815 1005 50  0000 L CNN
F 2 "Capacitor_SMD:C_0603_1608Metric_Pad1.08x0.95mm_HandSolder" H 6738 900 50  0001 C CNN
F 3 "~" H 6700 1050 50  0001 C CNN
	1    6700 1050
	1    0    0    -1  
$EndComp
$Comp
L Device:C C2
U 1 1 61A6464D
P 7100 1050
F 0 "C2" H 7215 1096 50  0000 L CNN
F 1 "100n" H 7215 1005 50  0000 L CNN
F 2 "Capacitor_SMD:C_0603_1608Metric_Pad1.08x0.95mm_HandSolder" H 7138 900 50  0001 C CNN
F 3 "~" H 7100 1050 50  0001 C CNN
	1    7100 1050
	1    0    0    -1  
$EndComp
$Comp
L Device:C C3
U 1 1 61A64B7E
P 7500 1050
F 0 "C3" H 7615 1096 50  0000 L CNN
F 1 "100n" H 7615 1005 50  0000 L CNN
F 2 "Capacitor_SMD:C_0603_1608Metric_Pad1.08x0.95mm_HandSolder" H 7538 900 50  0001 C CNN
F 3 "~" H 7500 1050 50  0001 C CNN
	1    7500 1050
	1    0    0    -1  
$EndComp
$Comp
L Device:C C4
U 1 1 61A6501B
P 7900 1050
F 0 "C4" H 8015 1096 50  0000 L CNN
F 1 "100n" H 8015 1005 50  0000 L CNN
F 2 "Capacitor_SMD:C_0603_1608Metric_Pad1.08x0.95mm_HandSolder" H 7938 900 50  0001 C CNN
F 3 "~" H 7900 1050 50  0001 C CNN
	1    7900 1050
	1    0    0    -1  
$EndComp
$Comp
L power:GNDD #PWR0111
U 1 1 61A66613
P 7900 1300
F 0 "#PWR0111" H 7900 1050 50  0001 C CNN
F 1 "GNDD" H 7904 1145 50  0000 C CNN
F 2 "" H 7900 1300 50  0001 C CNN
F 3 "" H 7900 1300 50  0001 C CNN
	1    7900 1300
	1    0    0    -1  
$EndComp
$Comp
L power:GNDD #PWR0112
U 1 1 61A66917
P 7500 1300
F 0 "#PWR0112" H 7500 1050 50  0001 C CNN
F 1 "GNDD" H 7504 1145 50  0000 C CNN
F 2 "" H 7500 1300 50  0001 C CNN
F 3 "" H 7500 1300 50  0001 C CNN
	1    7500 1300
	1    0    0    -1  
$EndComp
$Comp
L power:GNDD #PWR0113
U 1 1 61A66BEC
P 7100 1300
F 0 "#PWR0113" H 7100 1050 50  0001 C CNN
F 1 "GNDD" H 7104 1145 50  0000 C CNN
F 2 "" H 7100 1300 50  0001 C CNN
F 3 "" H 7100 1300 50  0001 C CNN
	1    7100 1300
	1    0    0    -1  
$EndComp
$Comp
L power:GNDD #PWR0114
U 1 1 61A66EC6
P 6700 1300
F 0 "#PWR0114" H 6700 1050 50  0001 C CNN
F 1 "GNDD" H 6704 1145 50  0000 C CNN
F 2 "" H 6700 1300 50  0001 C CNN
F 3 "" H 6700 1300 50  0001 C CNN
	1    6700 1300
	1    0    0    -1  
$EndComp
Wire Wire Line
	7100 800  7500 800 
Wire Wire Line
	7900 900  7900 800 
Wire Wire Line
	7500 900  7500 800 
Connection ~ 7500 800 
Wire Wire Line
	7500 800  7900 800 
Wire Wire Line
	7100 900  7100 800 
Connection ~ 7100 800 
Wire Wire Line
	6700 900  6700 800 
Connection ~ 6700 800 
Wire Wire Line
	6700 800  7100 800 
$Comp
L power:GNDD #PWR0115
U 1 1 61A7E2C6
P 5250 6850
F 0 "#PWR0115" H 5250 6600 50  0001 C CNN
F 1 "GNDD" H 5254 6695 50  0000 C CNN
F 2 "" H 5250 6850 50  0001 C CNN
F 3 "" H 5250 6850 50  0001 C CNN
	1    5250 6850
	1    0    0    -1  
$EndComp
$Comp
L power:GNDD #PWR0116
U 1 1 61A7E428
P 5450 6850
F 0 "#PWR0116" H 5450 6600 50  0001 C CNN
F 1 "GNDD" H 5454 6695 50  0000 C CNN
F 2 "" H 5450 6850 50  0001 C CNN
F 3 "" H 5450 6850 50  0001 C CNN
	1    5450 6850
	1    0    0    -1  
$EndComp
$Comp
L power:GNDD #PWR0117
U 1 1 61A7E647
P 5550 6850
F 0 "#PWR0117" H 5550 6600 50  0001 C CNN
F 1 "GNDD" H 5554 6695 50  0000 C CNN
F 2 "" H 5550 6850 50  0001 C CNN
F 3 "" H 5550 6850 50  0001 C CNN
	1    5550 6850
	1    0    0    -1  
$EndComp
$Comp
L Device:Crystal Y1
U 1 1 61A803E1
P 3750 4250
F 0 "Y1" H 3750 3982 50  0000 C CNN
F 1 "8MHz" H 3750 4073 50  0000 C CNN
F 2 "Crystal:Crystal_HC49-U_Vertical" H 3750 4250 50  0001 C CNN
F 3 "~" H 3750 4250 50  0001 C CNN
	1    3750 4250
	-1   0    0    1   
$EndComp
$Comp
L Device:C C13
U 1 1 61A81098
P 4000 4500
F 0 "C13" H 4115 4546 50  0000 L CNN
F 1 "22p" H 4115 4455 50  0000 L CNN
F 2 "Capacitor_SMD:C_0603_1608Metric_Pad1.08x0.95mm_HandSolder" H 4038 4350 50  0001 C CNN
F 3 "~" H 4000 4500 50  0001 C CNN
	1    4000 4500
	1    0    0    -1  
$EndComp
$Comp
L Device:C C12
U 1 1 61A8148E
P 3500 4500
F 0 "C12" H 3615 4546 50  0000 L CNN
F 1 "22p" H 3615 4455 50  0000 L CNN
F 2 "Capacitor_SMD:C_0603_1608Metric_Pad1.08x0.95mm_HandSolder" H 3538 4350 50  0001 C CNN
F 3 "~" H 3500 4500 50  0001 C CNN
	1    3500 4500
	1    0    0    -1  
$EndComp
$Comp
L power:GNDD #PWR0118
U 1 1 61A81C71
P 4000 4750
F 0 "#PWR0118" H 4000 4500 50  0001 C CNN
F 1 "GNDD" H 4004 4595 50  0000 C CNN
F 2 "" H 4000 4750 50  0001 C CNN
F 3 "" H 4000 4750 50  0001 C CNN
	1    4000 4750
	1    0    0    -1  
$EndComp
$Comp
L power:GNDD #PWR0119
U 1 1 61A81F78
P 3500 4750
F 0 "#PWR0119" H 3500 4500 50  0001 C CNN
F 1 "GNDD" H 3504 4595 50  0000 C CNN
F 2 "" H 3500 4750 50  0001 C CNN
F 3 "" H 3500 4750 50  0001 C CNN
	1    3500 4750
	1    0    0    -1  
$EndComp
$Comp
L Device:R R7
U 1 1 61A86030
P 3750 3850
F 0 "R7" V 3543 3850 50  0000 C CNN
F 1 "1M" V 3634 3850 50  0000 C CNN
F 2 "Resistor_SMD:R_0603_1608Metric_Pad0.98x0.95mm_HandSolder" V 3680 3850 50  0001 C CNN
F 3 "~" H 3750 3850 50  0001 C CNN
	1    3750 3850
	0    1    1    0   
$EndComp
Wire Wire Line
	3900 4250 4000 4250
Connection ~ 4000 4250
Wire Wire Line
	4000 4250 4000 4350
Wire Wire Line
	4000 3850 3900 3850
Connection ~ 4000 3850
Wire Wire Line
	4000 3850 4000 4250
Wire Wire Line
	3500 4350 3500 4250
Wire Wire Line
	3500 4250 3600 4250
Wire Wire Line
	3500 4250 3500 3850
Wire Wire Line
	3500 3850 3600 3850
Connection ~ 3500 4250
Connection ~ 3500 3850
$Comp
L Device:C C9
U 1 1 61A8E486
P 2950 3850
F 0 "C9" H 3065 3896 50  0000 L CNN
F 1 "100n" H 3065 3805 50  0000 L CNN
F 2 "Capacitor_SMD:C_0603_1608Metric_Pad1.08x0.95mm_HandSolder" H 2988 3700 50  0001 C CNN
F 3 "~" H 2950 3850 50  0001 C CNN
	1    2950 3850
	1    0    0    -1  
$EndComp
$Comp
L power:GNDD #PWR0120
U 1 1 61A8F07B
P 2950 4100
F 0 "#PWR0120" H 2950 3850 50  0001 C CNN
F 1 "GNDD" H 2954 3945 50  0000 C CNN
F 2 "" H 2950 4100 50  0001 C CNN
F 3 "" H 2950 4100 50  0001 C CNN
	1    2950 4100
	1    0    0    -1  
$EndComp
Wire Wire Line
	2950 3550 2950 3700
Connection ~ 2950 3550
Wire Wire Line
	2950 2650 2950 2750
$Comp
L Device:R R4
U 1 1 61A927DF
P 2950 2500
F 0 "R4" H 2880 2454 50  0000 R CNN
F 1 "10k" H 2880 2545 50  0000 R CNN
F 2 "Resistor_SMD:R_0603_1608Metric_Pad0.98x0.95mm_HandSolder" V 2880 2500 50  0001 C CNN
F 3 "~" H 2950 2500 50  0001 C CNN
	1    2950 2500
	-1   0    0    1   
$EndComp
$Comp
L power:+3V3 #PWR0121
U 1 1 61A92D98
P 2950 2250
F 0 "#PWR0121" H 2950 2100 50  0001 C CNN
F 1 "+3V3" H 2965 2423 50  0000 C CNN
F 2 "" H 2950 2250 50  0001 C CNN
F 3 "" H 2950 2250 50  0001 C CNN
	1    2950 2250
	1    0    0    -1  
$EndComp
$Comp
L Device:R R2
U 1 1 61A94769
P 4050 1900
F 0 "R2" H 3980 1854 50  0000 R CNN
F 1 "10k" H 3980 1945 50  0000 R CNN
F 2 "Resistor_SMD:R_0603_1608Metric_Pad0.98x0.95mm_HandSolder" V 3980 1900 50  0001 C CNN
F 3 "~" H 4050 1900 50  0001 C CNN
	1    4050 1900
	-1   0    0    1   
$EndComp
$Comp
L Device:R R1
U 1 1 61A94E4D
P 3750 1900
F 0 "R1" H 3680 1854 50  0000 R CNN
F 1 "10k" H 3680 1945 50  0000 R CNN
F 2 "Resistor_SMD:R_0603_1608Metric_Pad0.98x0.95mm_HandSolder" V 3680 1900 50  0001 C CNN
F 3 "~" H 3750 1900 50  0001 C CNN
	1    3750 1900
	-1   0    0    1   
$EndComp
$Comp
L power:+3V3 #PWR0122
U 1 1 61A9539C
P 3750 1650
F 0 "#PWR0122" H 3750 1500 50  0001 C CNN
F 1 "+3V3" H 3765 1823 50  0000 C CNN
F 2 "" H 3750 1650 50  0001 C CNN
F 3 "" H 3750 1650 50  0001 C CNN
	1    3750 1650
	1    0    0    -1  
$EndComp
$Comp
L power:+3V3 #PWR0123
U 1 1 61A95987
P 4050 1650
F 0 "#PWR0123" H 4050 1500 50  0001 C CNN
F 1 "+3V3" H 4065 1823 50  0000 C CNN
F 2 "" H 4050 1650 50  0001 C CNN
F 3 "" H 4050 1650 50  0001 C CNN
	1    4050 1650
	1    0    0    -1  
$EndComp
Wire Wire Line
	4050 2050 4050 2650
Wire Wire Line
	4050 2650 4150 2650
Wire Wire Line
	4150 2450 3750 2450
Wire Wire Line
	3750 2450 3750 2050
$Comp
L Device:R R5
U 1 1 61A98844
P 3450 2800
F 0 "R5" H 3380 2754 50  0000 R CNN
F 1 "10k" H 3380 2845 50  0000 R CNN
F 2 "Resistor_SMD:R_0603_1608Metric_Pad0.98x0.95mm_HandSolder" V 3380 2800 50  0001 C CNN
F 3 "~" H 3450 2800 50  0001 C CNN
	1    3450 2800
	-1   0    0    1   
$EndComp
$Comp
L power:GNDD #PWR0124
U 1 1 61A9906D
P 3450 3050
F 0 "#PWR0124" H 3450 2800 50  0001 C CNN
F 1 "GNDD" H 3454 2895 50  0000 C CNN
F 2 "" H 3450 3050 50  0001 C CNN
F 3 "" H 3450 3050 50  0001 C CNN
	1    3450 3050
	1    0    0    -1  
$EndComp
Wire Wire Line
	3450 2650 3450 2150
Wire Wire Line
	3450 2150 4150 2150
$Comp
L parts:SWD_via_PCIe J3
U 1 1 61A9B024
P 1400 2850
F 0 "J3" H 1071 2896 50  0000 R CNN
F 1 "SWD_via_PCIe" H 1071 2805 50  0000 R CNN
F 2 "parts:SWD_PCIe" H 1400 2850 50  0001 C CNN
F 3 "" V 1050 1600 50  0001 C CNN
	1    1400 2850
	1    0    0    -1  
$EndComp
$Comp
L power:+3V3 #PWR0125
U 1 1 61A9B9C3
P 1400 2300
F 0 "#PWR0125" H 1400 2150 50  0001 C CNN
F 1 "+3V3" H 1415 2473 50  0000 C CNN
F 2 "" H 1400 2300 50  0001 C CNN
F 3 "" H 1400 2300 50  0001 C CNN
	1    1400 2300
	1    0    0    -1  
$EndComp
$Comp
L power:GNDD #PWR0126
U 1 1 61A9C00A
P 1400 3400
F 0 "#PWR0126" H 1400 3150 50  0001 C CNN
F 1 "GNDD" H 1404 3245 50  0000 C CNN
F 2 "" H 1400 3400 50  0001 C CNN
F 3 "" H 1400 3400 50  0001 C CNN
	1    1400 3400
	1    0    0    -1  
$EndComp
Wire Wire Line
	3300 2950 3300 2450
Wire Wire Line
	3300 2450 3750 2450
Connection ~ 3750 2450
Wire Wire Line
	3200 2850 3200 2150
Wire Wire Line
	3200 2150 3450 2150
Connection ~ 3450 2150
Text Label 2350 2750 0    50   ~ 0
~RESET~
Text Label 2350 2850 0    50   ~ 0
SWD_CLK
Text Label 2350 2950 0    50   ~ 0
SWD_DIO
Wire Wire Line
	1800 2750 1950 2750
Wire Wire Line
	1800 2850 2050 2850
Wire Wire Line
	1800 2950 2150 2950
$Comp
L Connector:Conn_ARM_JTAG_SWD_10 J4
U 1 1 61ABF102
P 1150 4200
F 0 "J4" H 707 4246 50  0000 R CNN
F 1 "Conn_ARM_JTAG_SWD_10" H 707 4155 50  0000 R CNN
F 2 "parts:1.27mm_1x05_Header_Shrouded" H 1150 4200 50  0001 C CNN
F 3 "http://infocenter.arm.com/help/topic/com.arm.doc.ddi0314h/DDI0314H_coresight_components_trm.pdf" V 800 2950 50  0001 C CNN
	1    1150 4200
	1    0    0    -1  
$EndComp
$Comp
L power:+3V3 #PWR0127
U 1 1 61AC0F2D
P 1150 3500
F 0 "#PWR0127" H 1150 3350 50  0001 C CNN
F 1 "+3V3" H 1165 3673 50  0000 C CNN
F 2 "" H 1150 3500 50  0001 C CNN
F 3 "" H 1150 3500 50  0001 C CNN
	1    1150 3500
	1    0    0    -1  
$EndComp
$Comp
L power:GNDD #PWR0128
U 1 1 61AC3625
P 1050 4900
F 0 "#PWR0128" H 1050 4650 50  0001 C CNN
F 1 "GNDD" H 1054 4745 50  0000 C CNN
F 2 "" H 1050 4900 50  0001 C CNN
F 3 "" H 1050 4900 50  0001 C CNN
	1    1050 4900
	1    0    0    -1  
$EndComp
$Comp
L power:GNDD #PWR0129
U 1 1 61AC3EF5
P 1150 4900
F 0 "#PWR0129" H 1150 4650 50  0001 C CNN
F 1 "GNDD" H 1154 4745 50  0000 C CNN
F 2 "" H 1150 4900 50  0001 C CNN
F 3 "" H 1150 4900 50  0001 C CNN
	1    1150 4900
	1    0    0    -1  
$EndComp
Wire Wire Line
	1650 3900 1950 3900
Connection ~ 1950 2750
Wire Wire Line
	1950 2750 2950 2750
Wire Wire Line
	2050 4100 1650 4100
Connection ~ 2050 2850
Wire Wire Line
	2050 2850 3200 2850
Wire Wire Line
	1650 4200 2150 4200
Connection ~ 2150 2950
Wire Wire Line
	2150 2950 3300 2950
$Comp
L power:GNDD #PWR0130
U 1 1 61ACD084
P 2450 5750
F 0 "#PWR0130" H 2450 5500 50  0001 C CNN
F 1 "GNDD" H 2454 5595 50  0000 C CNN
F 2 "" H 2450 5750 50  0001 C CNN
F 3 "" H 2450 5750 50  0001 C CNN
	1    2450 5750
	1    0    0    -1  
$EndComp
$Comp
L power:GNDD #PWR0131
U 1 1 61ACD578
P 1800 5550
F 0 "#PWR0131" H 1800 5300 50  0001 C CNN
F 1 "GNDD" H 1804 5395 50  0000 C CNN
F 2 "" H 1800 5550 50  0001 C CNN
F 3 "" H 1800 5550 50  0001 C CNN
	1    1800 5550
	1    0    0    -1  
$EndComp
$Comp
L Device:Ferrite_Bead FB2
U 1 1 61ACF127
P 1700 5850
F 0 "FB2" H 1563 5804 50  0000 R CNN
F 1 "330R" H 1563 5895 50  0000 R CNN
F 2 "Inductor_SMD:L_0603_1608Metric_Pad1.05x0.95mm_HandSolder" V 1630 5850 50  0001 C CNN
F 3 "~" H 1700 5850 50  0001 C CNN
	1    1700 5850
	-1   0    0    1   
$EndComp
$Comp
L power:GNDD #PWR0132
U 1 1 61AD0979
P 1700 6100
F 0 "#PWR0132" H 1700 5850 50  0001 C CNN
F 1 "GNDD" H 1704 5945 50  0000 C CNN
F 2 "" H 1700 6100 50  0001 C CNN
F 3 "" H 1700 6100 50  0001 C CNN
	1    1700 6100
	1    0    0    -1  
$EndComp
Wire Wire Line
	1700 5700 1700 5450
$Comp
L Device:C C14
U 1 1 61AD5A32
P 4050 6400
F 0 "C14" H 4165 6446 50  0000 L CNN
F 1 "2u2" H 4165 6355 50  0000 L CNN
F 2 "Capacitor_SMD:C_0805_2012Metric_Pad1.18x1.45mm_HandSolder" H 4088 6250 50  0001 C CNN
F 3 "~" H 4050 6400 50  0001 C CNN
	1    4050 6400
	1    0    0    -1  
$EndComp
$Comp
L power:GNDD #PWR0133
U 1 1 61AD7BBB
P 4050 6650
F 0 "#PWR0133" H 4050 6400 50  0001 C CNN
F 1 "GNDD" H 4054 6495 50  0000 C CNN
F 2 "" H 4050 6650 50  0001 C CNN
F 3 "" H 4050 6650 50  0001 C CNN
	1    4050 6650
	1    0    0    -1  
$EndComp
Wire Wire Line
	4050 6250 4050 6150
Wire Wire Line
	4050 6150 4150 6150
$Comp
L power:+5V #PWR0134
U 1 1 61AE05A2
P 5050 1050
F 0 "#PWR0134" H 5050 900 50  0001 C CNN
F 1 "+5V" H 5065 1223 50  0000 C CNN
F 2 "" H 5050 1050 50  0001 C CNN
F 3 "" H 5050 1050 50  0001 C CNN
	1    5050 1050
	1    0    0    -1  
$EndComp
$Comp
L parts:ADuM241D U3
U 1 1 61AEFA7A
P 8750 4450
F 0 "U3" H 8750 5217 50  0000 C CNN
F 1 "ADuM241D" H 8750 5126 50  0000 C CNN
F 2 "Package_SO:SOIC-16W_7.5x12.8mm_P1.27mm" H 8750 3850 50  0001 C CNN
F 3 "http://www.analog.com/media/en/technical-documentation/data-sheets/ADuM260N-261N-262N-263N.pdf" H 8750 5200 50  0001 C CNN
	1    8750 4450
	1    0    0    -1  
$EndComp
$Comp
L Connector_Generic:Conn_02x05_Odd_Even J5
U 1 1 61AF85D1
P 10600 4550
F 0 "J5" H 10650 4967 50  0000 C CNN
F 1 "SPI (isolated)" H 10650 4876 50  0000 C CNN
F 2 "Connector_IDC:IDC-Header_2x05_P2.54mm_Vertical" H 10600 4550 50  0001 C CNN
F 3 "~" H 10600 4550 50  0001 C CNN
	1    10600 4550
	1    0    0    -1  
$EndComp
Text Label 10050 4450 0    50   ~ 0
ISO_MOSI
Text Label 10050 4550 0    50   ~ 0
ISO_MISO
Text Label 10050 4650 0    50   ~ 0
ISO_SCK
Text Label 10050 4750 0    50   ~ 0
ISO_~SS~
Wire Wire Line
	10400 4650 9900 4650
Wire Wire Line
	9900 4650 9900 4350
Wire Wire Line
	10000 4750 10400 4750
$Comp
L parts:ISO_GNDD #PWR0135
U 1 1 61A53BDF
P 9450 4950
F 0 "#PWR0135" H 9450 4700 50  0001 C CNN
F 1 "ISO_GNDD" H 9454 4795 50  0000 C CNN
F 2 "" H 9450 4950 50  0001 C CNN
F 3 "" H 9450 4950 50  0001 C CNN
	1    9450 4950
	1    0    0    -1  
$EndComp
Wire Wire Line
	9450 4950 9450 4850
Wire Wire Line
	9450 4700 9350 4700
Wire Wire Line
	9450 4850 9350 4850
Connection ~ 9450 4850
Wire Wire Line
	9450 4850 9450 4700
Wire Wire Line
	9450 4050 9350 4050
Connection ~ 9450 4700
$Comp
L parts:ISO_+3V3 #PWR0136
U 1 1 61A5E37C
P 9650 3550
F 0 "#PWR0136" H 9650 3400 50  0001 C CNN
F 1 "ISO_+3V3" H 9665 3723 50  0000 C CNN
F 2 "" H 9650 3550 50  0001 C CNN
F 3 "" H 9650 3550 50  0001 C CNN
	1    9650 3550
	1    0    0    -1  
$EndComp
Wire Wire Line
	9450 3950 9350 3950
$Comp
L parts:ISO_GNDD #PWR0137
U 1 1 61A621E6
P 11000 4850
F 0 "#PWR0137" H 11000 4600 50  0001 C CNN
F 1 "ISO_GNDD" H 11004 4695 50  0000 C CNN
F 2 "" H 11000 4850 50  0001 C CNN
F 3 "" H 11000 4850 50  0001 C CNN
	1    11000 4850
	1    0    0    -1  
$EndComp
Wire Wire Line
	11000 4850 11000 4750
Wire Wire Line
	11000 4750 10900 4750
Wire Wire Line
	11000 4750 11000 4650
Wire Wire Line
	11000 4650 10900 4650
Connection ~ 11000 4750
Wire Wire Line
	11000 4650 11000 4550
Wire Wire Line
	11000 4550 10900 4550
Connection ~ 11000 4650
Wire Wire Line
	11000 4550 11000 4450
Wire Wire Line
	11000 4450 10900 4450
Connection ~ 11000 4550
Wire Wire Line
	11000 4450 11000 4350
Wire Wire Line
	11000 4350 10900 4350
Connection ~ 11000 4450
$Comp
L parts:ISO_+5V #PWR0138
U 1 1 61A758D3
P 10200 4250
F 0 "#PWR0138" H 10200 4100 50  0001 C CNN
F 1 "ISO_+5V" H 10215 4423 50  0000 C CNN
F 2 "" H 10200 4250 50  0001 C CNN
F 3 "" H 10200 4250 50  0001 C CNN
	1    10200 4250
	1    0    0    -1  
$EndComp
Wire Wire Line
	10200 4250 10200 4350
Wire Wire Line
	10200 4350 10400 4350
Wire Wire Line
	6700 1300 6700 1200
Wire Wire Line
	7100 1300 7100 1200
Wire Wire Line
	7500 1300 7500 1200
Wire Wire Line
	7900 1300 7900 1200
Wire Wire Line
	2850 1750 2850 1650
Wire Wire Line
	2350 1750 2350 1650
Wire Wire Line
	1850 1950 1850 1850
Wire Wire Line
	1350 1750 1350 1650
Wire Wire Line
	700  1750 700  1650
Wire Wire Line
	1400 3400 1400 3300
Wire Wire Line
	1400 2300 1400 2400
Wire Wire Line
	1150 3500 1150 3600
Wire Wire Line
	1950 2750 1950 3900
Wire Wire Line
	2050 2850 2050 4100
Wire Wire Line
	2150 2950 2150 4200
Wire Wire Line
	1050 4900 1050 4800
Wire Wire Line
	1150 4900 1150 4800
Wire Wire Line
	1800 5550 1800 5450
Wire Wire Line
	1700 6100 1700 6000
Wire Wire Line
	2450 5750 2450 5650
Wire Wire Line
	4000 4750 4000 4650
Wire Wire Line
	3500 4750 3500 4650
Wire Wire Line
	4050 6650 4050 6550
Wire Wire Line
	5250 6850 5250 6750
Wire Wire Line
	5450 6850 5450 6750
Wire Wire Line
	5550 6850 5550 6750
Wire Wire Line
	2950 4100 2950 4000
Wire Wire Line
	3450 3050 3450 2950
Wire Wire Line
	2950 2250 2950 2350
Wire Wire Line
	4050 1650 4050 1750
Wire Wire Line
	3750 1650 3750 1750
Wire Wire Line
	5050 1050 5050 1200
$Comp
L power:+3V3 #PWR0139
U 1 1 61B79FC1
P 7700 3550
F 0 "#PWR0139" H 7700 3400 50  0001 C CNN
F 1 "+3V3" H 7715 3723 50  0000 C CNN
F 2 "" H 7700 3550 50  0001 C CNN
F 3 "" H 7700 3550 50  0001 C CNN
	1    7700 3550
	1    0    0    -1  
$EndComp
Wire Wire Line
	8050 3950 8150 3950
Wire Wire Line
	8050 4050 8050 4150
Wire Wire Line
	8050 4850 8150 4850
Connection ~ 8050 4850
Wire Wire Line
	8050 4850 8050 4950
Wire Wire Line
	8050 4700 8150 4700
Connection ~ 8050 4700
Wire Wire Line
	8050 4700 8050 4850
Wire Wire Line
	8050 4050 8150 4050
$Comp
L power:GNDD #PWR0140
U 1 1 61BA3543
P 8050 4950
F 0 "#PWR0140" H 8050 4700 50  0001 C CNN
F 1 "GNDD" H 8054 4795 50  0000 C CNN
F 2 "" H 8050 4950 50  0001 C CNN
F 3 "" H 8050 4950 50  0001 C CNN
	1    8050 4950
	1    0    0    -1  
$EndComp
Text Label 6700 4450 0    50   ~ 0
MOSI
Text Label 6700 4550 0    50   ~ 0
MISO
Text Label 6700 4350 0    50   ~ 0
SCK
Text Label 6700 4250 0    50   ~ 0
~SS~
Wire Wire Line
	10000 4750 10000 4250
Wire Wire Line
	6550 4350 8150 4350
Wire Wire Line
	6550 4550 8150 4550
Wire Wire Line
	6550 4450 8150 4450
Wire Wire Line
	6550 4250 8150 4250
$Comp
L Connector_Generic:Conn_02x05_Odd_Even J2
U 1 1 61CFD341
P 8050 2750
F 0 "J2" H 8100 3167 50  0000 C CNN
F 1 "GPIO (not isolated)" H 8100 3076 50  0000 C CNN
F 2 "Connector_IDC:IDC-Header_2x05_P2.54mm_Vertical" H 8050 2750 50  0001 C CNN
F 3 "~" H 8050 2750 50  0001 C CNN
	1    8050 2750
	1    0    0    -1  
$EndComp
Wire Wire Line
	7250 4150 7250 4050
Wire Wire Line
	7250 4050 7350 4050
Wire Wire Line
	7350 3950 7150 3950
Wire Wire Line
	7150 3950 7150 4050
Wire Wire Line
	7050 3950 7050 3850
Wire Wire Line
	7050 3850 7350 3850
Wire Wire Line
	7350 3750 6950 3750
Wire Wire Line
	6950 3750 6950 3850
Wire Wire Line
	6550 3850 6950 3850
Wire Wire Line
	6550 3950 7050 3950
Wire Wire Line
	6550 4050 7150 4050
Wire Wire Line
	6550 4150 7250 4150
Entry Wire Line
	7350 4050 7450 4150
Entry Wire Line
	7350 3950 7450 4050
Entry Wire Line
	7350 3850 7450 3950
Entry Wire Line
	7350 3750 7450 3850
Text Label 6650 3850 0    50   ~ 0
GPIO8
Text Label 6650 3950 0    50   ~ 0
GPIO7
Text Label 6650 4050 0    50   ~ 0
GPIO6
Text Label 6650 4150 0    50   ~ 0
GPIO5
Text Label 6650 4750 0    50   ~ 0
GPIO4
Text Label 6650 4850 0    50   ~ 0
GPIO3
Text Label 6650 5350 0    50   ~ 0
GPIO2
Text Label 6650 5450 0    50   ~ 0
GPIO1
Wire Wire Line
	6550 5350 7350 5350
Wire Wire Line
	7350 5450 6550 5450
Wire Wire Line
	6550 3150 7350 3150
Wire Wire Line
	7350 3250 6550 3250
Entry Wire Line
	7350 5350 7450 5450
Entry Wire Line
	7350 5450 7450 5550
Entry Wire Line
	7350 3150 7450 3250
Entry Wire Line
	7350 3250 7450 3350
Entry Wire Line
	7450 2850 7550 2950
Entry Wire Line
	7450 2750 7550 2850
Entry Wire Line
	7450 2650 7550 2750
Entry Wire Line
	7450 2550 7550 2650
Wire Wire Line
	7550 2650 7850 2650
Wire Wire Line
	7850 2750 7550 2750
Wire Wire Line
	7550 2850 7850 2850
Wire Wire Line
	7850 2950 7550 2950
Text Label 7600 2650 0    50   ~ 0
GPIO1
Text Label 7600 2750 0    50   ~ 0
GPIO3
Text Label 7600 2850 0    50   ~ 0
GPIO5
Text Label 7600 2950 0    50   ~ 0
GPIO7
Text Label 8500 2650 0    50   ~ 0
GPIO2
Text Label 8500 2750 0    50   ~ 0
GPIO4
Text Label 8500 2850 0    50   ~ 0
GPIO6
Text Label 8500 2950 0    50   ~ 0
GPIO8
Entry Wire Line
	8750 2650 8850 2750
Entry Wire Line
	8750 2750 8850 2850
Entry Wire Line
	8750 2850 8850 2950
Entry Wire Line
	8750 2950 8850 3050
Wire Wire Line
	8750 2950 8350 2950
Wire Wire Line
	8350 2850 8750 2850
Wire Wire Line
	8750 2750 8350 2750
Wire Wire Line
	8350 2650 8750 2650
Wire Bus Line
	8850 2200 7450 2200
$Comp
L power:+5V #PWR0141
U 1 1 61E07F26
P 7650 2450
F 0 "#PWR0141" H 7650 2300 50  0001 C CNN
F 1 "+5V" H 7665 2623 50  0000 C CNN
F 2 "" H 7650 2450 50  0001 C CNN
F 3 "" H 7650 2450 50  0001 C CNN
	1    7650 2450
	1    0    0    -1  
$EndComp
$Comp
L power:GNDD #PWR0142
U 1 1 61E087AD
P 8450 3050
F 0 "#PWR0142" H 8450 2800 50  0001 C CNN
F 1 "GNDD" H 8454 2895 50  0000 C CNN
F 2 "" H 8450 3050 50  0001 C CNN
F 3 "" H 8450 3050 50  0001 C CNN
	1    8450 3050
	1    0    0    -1  
$EndComp
Wire Wire Line
	8350 2550 8450 2550
Wire Wire Line
	8450 2550 8450 3050
Wire Wire Line
	7850 2550 7650 2550
Wire Wire Line
	7650 2550 7650 2450
Wire Notes Line
	8750 3600 8750 3300
Wire Notes Line
	8750 3300 11100 3300
Wire Notes Line
	8750 5100 8750 6450
$Comp
L Device:C C10
U 1 1 61E80CFE
P 7700 3900
F 0 "C10" H 7815 3946 50  0000 L CNN
F 1 "100n" H 7815 3855 50  0000 L CNN
F 2 "Capacitor_SMD:C_0603_1608Metric_Pad1.08x0.95mm_HandSolder" H 7738 3750 50  0001 C CNN
F 3 "~" H 7700 3900 50  0001 C CNN
	1    7700 3900
	1    0    0    -1  
$EndComp
Wire Wire Line
	8050 4150 7700 4150
Wire Wire Line
	7700 4150 7700 4050
Connection ~ 8050 4150
Wire Wire Line
	8050 4150 8050 4700
Wire Wire Line
	7700 3750 7700 3650
Wire Wire Line
	7700 3650 8050 3650
Wire Wire Line
	8050 3650 8050 3950
Connection ~ 7700 3650
Wire Wire Line
	7700 3650 7700 3550
Wire Wire Line
	9450 4050 9450 4150
Wire Wire Line
	10000 4250 9350 4250
Wire Wire Line
	9350 4350 9900 4350
$Comp
L Device:C C11
U 1 1 61EF66EF
P 9650 3900
F 0 "C11" H 9765 3946 50  0000 L CNN
F 1 "100n" H 9765 3855 50  0000 L CNN
F 2 "Capacitor_SMD:C_0603_1608Metric_Pad1.08x0.95mm_HandSolder" H 9688 3750 50  0001 C CNN
F 3 "~" H 9650 3900 50  0001 C CNN
	1    9650 3900
	1    0    0    -1  
$EndComp
Wire Wire Line
	9350 4550 10400 4550
Wire Wire Line
	9350 4450 10400 4450
Wire Wire Line
	9650 4050 9650 4150
Wire Wire Line
	9650 4150 9450 4150
Connection ~ 9450 4150
Wire Wire Line
	9450 4150 9450 4700
Wire Wire Line
	9650 3550 9650 3650
Wire Wire Line
	9650 3650 9450 3650
Wire Wire Line
	9450 3650 9450 3950
Connection ~ 9650 3650
Wire Wire Line
	9650 3650 9650 3750
$Comp
L parts:ISO_+5VP #PWR0144
U 1 1 62065787
P 9900 5400
F 0 "#PWR0144" H 9900 5250 50  0001 C CNN
F 1 "ISO_+5VP" H 9915 5573 50  0000 C CNN
F 2 "" H 9900 5400 50  0001 C CNN
F 3 "" H 9900 5400 50  0001 C CNN
	1    9900 5400
	1    0    0    -1  
$EndComp
$Sheet
S 8600 5350 1200 900 
U 6216DC24
F0 "Supply_Options" 50
F1 "supply_options.sch" 50
F2 "DC_DC_~Enable~" I L 8600 5700 50 
F3 "DC_DC_+IN" I L 8600 5500 50 
F4 "DC_DC_-IN" I L 8600 5900 50 
F5 "Supply_5V" I R 9800 5700 50 
F6 "Supply_GND" I R 9800 6100 50 
F7 "Supply_3V3" I R 9800 5900 50 
F8 "Supply_5VP" I R 9800 5500 50 
$EndSheet
Wire Wire Line
	9900 5400 9900 5500
Wire Wire Line
	9900 5500 9800 5500
$Comp
L parts:ISO_+5V #PWR0145
U 1 1 6235A25A
P 10100 5600
F 0 "#PWR0145" H 10100 5450 50  0001 C CNN
F 1 "ISO_+5V" H 10115 5773 50  0000 C CNN
F 2 "" H 10100 5600 50  0001 C CNN
F 3 "" H 10100 5600 50  0001 C CNN
	1    10100 5600
	1    0    0    -1  
$EndComp
Wire Wire Line
	10100 5600 10100 5700
Wire Wire Line
	10100 5700 9800 5700
$Comp
L parts:ISO_+3V3 #PWR0146
U 1 1 62366D38
P 10300 5800
F 0 "#PWR0146" H 10300 5650 50  0001 C CNN
F 1 "ISO_+3V3" H 10315 5973 50  0000 C CNN
F 2 "" H 10300 5800 50  0001 C CNN
F 3 "" H 10300 5800 50  0001 C CNN
	1    10300 5800
	1    0    0    -1  
$EndComp
Wire Wire Line
	10300 5800 10300 5900
Wire Wire Line
	10300 5900 9800 5900
$Comp
L parts:ISO_GNDD #PWR0147
U 1 1 6237406B
P 9900 6200
F 0 "#PWR0147" H 9900 5950 50  0001 C CNN
F 1 "ISO_GNDD" H 9904 6045 50  0000 C CNN
F 2 "" H 9900 6200 50  0001 C CNN
F 3 "" H 9900 6200 50  0001 C CNN
	1    9900 6200
	1    0    0    -1  
$EndComp
Wire Wire Line
	9900 6200 9900 6100
Wire Wire Line
	9900 6100 9800 6100
$Comp
L power:GNDD #PWR0148
U 1 1 62380FDB
P 8450 5950
F 0 "#PWR0148" H 8450 5700 50  0001 C CNN
F 1 "GNDD" H 8454 5795 50  0000 C CNN
F 2 "" H 8450 5950 50  0001 C CNN
F 3 "" H 8450 5950 50  0001 C CNN
	1    8450 5950
	1    0    0    -1  
$EndComp
Wire Wire Line
	8450 5950 8450 5900
Wire Wire Line
	8450 5900 8600 5900
$Comp
L power:+5VP #PWR0149
U 1 1 6238F88D
P 8450 5400
F 0 "#PWR0149" H 8450 5250 50  0001 C CNN
F 1 "+5VP" H 8465 5573 50  0000 C CNN
F 2 "" H 8450 5400 50  0001 C CNN
F 3 "" H 8450 5400 50  0001 C CNN
	1    8450 5400
	1    0    0    -1  
$EndComp
Wire Wire Line
	8450 5400 8450 5500
Wire Wire Line
	8450 5500 8600 5500
Wire Wire Line
	8600 5700 7550 5700
Text Label 7650 5700 0    50   ~ 0
DC_DC_~Enable~
Wire Bus Line
	6900 7050 6900 6450
Wire Bus Line
	6900 6450 7450 6450
Entry Wire Line
	7450 5600 7550 5700
Text Label 6650 5650 0    50   ~ 0
DC_DC_~Enable~
Wire Wire Line
	6550 2750 7350 2750
Wire Wire Line
	7350 2850 6550 2850
Wire Wire Line
	6550 3050 7350 3050
Wire Wire Line
	7350 2950 6550 2950
Entry Wire Line
	7350 2950 7450 3050
Entry Wire Line
	7350 3050 7450 3150
Entry Wire Line
	7350 2750 7450 2850
Text Label 6650 2750 0    50   ~ 0
LED1
Text Label 6650 2850 0    50   ~ 0
LED2
Text Label 6650 2950 0    50   ~ 0
LED3
Text Label 6650 3050 0    50   ~ 0
LED4
$Comp
L Switch:SW_Push SW1
U 1 1 625D5D2C
P 2600 3550
F 0 "SW1" H 2600 3835 50  0000 C CNN
F 1 "SW_Push" H 2600 3744 50  0000 C CNN
F 2 "parts:Schurter_LSG_1301.931x_SMD_Button" H 2600 3750 50  0001 C CNN
F 3 "~" H 2600 3750 50  0001 C CNN
	1    2600 3550
	1    0    0    -1  
$EndComp
$Comp
L power:GNDD #PWR0150
U 1 1 625D6811
P 2300 3650
F 0 "#PWR0150" H 2300 3400 50  0001 C CNN
F 1 "GNDD" H 2304 3495 50  0000 C CNN
F 2 "" H 2300 3650 50  0001 C CNN
F 3 "" H 2300 3650 50  0001 C CNN
	1    2300 3650
	1    0    0    -1  
$EndComp
Wire Wire Line
	2300 3650 2300 3550
Wire Wire Line
	2300 3550 2400 3550
Wire Wire Line
	2800 3550 2950 3550
Connection ~ 2950 2750
Wire Wire Line
	4000 3450 4000 3850
Wire Wire Line
	4000 3450 4150 3450
Wire Wire Line
	3500 3350 3500 3850
Wire Wire Line
	3500 3350 4150 3350
Wire Wire Line
	2950 3550 4150 3550
Wire Wire Line
	2950 2750 2950 3550
Wire Wire Line
	6550 5550 7350 5550
Wire Wire Line
	7350 5750 6550 5750
Entry Wire Line
	7350 5550 7450 5650
Entry Wire Line
	7350 2850 7450 2950
Text Label 6650 5750 0    50   ~ 0
BUTTON1
Text Label 6650 5850 0    50   ~ 0
BUTTON2
Wire Wire Line
	6550 4750 7350 4750
Wire Wire Line
	7350 4850 6550 4850
Entry Wire Line
	7350 4750 7450 4850
Entry Wire Line
	7350 4850 7450 4950
Text Label 6650 3150 0    50   ~ 0
RELAIS1
Text Label 6650 3250 0    50   ~ 0
RELAIS2
Text Label 3400 5050 0    50   ~ 0
KL25Z_USB_D+
Text Label 3400 5150 0    50   ~ 0
KL25Z_USB_D-
Text Label 2200 5050 0    50   ~ 0
USB_D+
Text Label 2200 5150 0    50   ~ 0
USB_D-
Text Label 4100 6150 2    50   ~ 0
VREG_USB
$Comp
L power:+3V3 #PWR0156
U 1 1 61B9E0B3
P 5250 700
F 0 "#PWR0156" H 5250 550 50  0001 C CNN
F 1 "+3V3" H 5265 873 50  0000 C CNN
F 2 "" H 5250 700 50  0001 C CNN
F 3 "" H 5250 700 50  0001 C CNN
	1    5250 700 
	1    0    0    -1  
$EndComp
Wire Wire Line
	5250 700  5250 800 
Connection ~ 5250 800 
$Comp
L Device:D_TVS D2
U 1 1 61C0D3F5
P 700 1500
AR Path="/61C0D3F5" Ref="D2"  Part="1" 
AR Path="/6216DC24/61C0D3F5" Ref="D?"  Part="1" 
F 0 "D2" V 654 1580 50  0000 L CNN
F 1 "P6SMB_5.0CA" V 745 1580 50  0000 L CNN
F 2 "Diode_SMD:D_SMB_Handsoldering" H 700 1500 50  0001 C CNN
F 3 "~" H 700 1500 50  0001 C CNN
	1    700  1500
	0    1    1    0   
$EndComp
Wire Wire Line
	700  1250 1350 1250
$Comp
L Device:Jumper_NC_Small JP4
U 1 1 61CE6550
P 5050 1300
F 0 "JP4" V 5096 1253 50  0000 R CNN
F 1 "Jumper_NC_Small" V 5005 1253 50  0000 R CNN
F 2 "Jumper:SolderJumper-2_P1.3mm_Open_TrianglePad1.0x1.5mm" H 5050 1300 50  0001 C CNN
F 3 "~" H 5050 1300 50  0001 C CNN
	1    5050 1300
	0    -1   -1   0   
$EndComp
Wire Wire Line
	5050 1400 5050 1550
Wire Bus Line
	3300 3300 3700 3300
Entry Wire Line
	3700 2650 3800 2750
Entry Wire Line
	3700 2750 3800 2850
Wire Wire Line
	3800 2750 4150 2750
Wire Wire Line
	3800 2850 4150 2850
Entry Wire Line
	7350 5750 7450 5850
Entry Wire Line
	7350 5850 7450 5950
Wire Wire Line
	6550 5850 7350 5850
$Comp
L Device:Ferrite_Bead FB7
U 1 1 6214460E
P 2350 4850
F 0 "FB7" V 2076 4850 50  0000 C CNN
F 1 "330R" V 2167 4850 50  0000 C CNN
F 2 "Inductor_SMD:L_0603_1608Metric_Pad1.05x0.95mm_HandSolder" V 2280 4850 50  0001 C CNN
F 3 "~" H 2350 4850 50  0001 C CNN
	1    2350 4850
	0    1    1    0   
$EndComp
Wire Wire Line
	2500 4850 2600 4850
Wire Wire Line
	2600 4850 2600 4750
Wire Wire Line
	5250 800  5250 950 
Wire Wire Line
	5250 800  6700 800 
$Comp
L Device:C C21
U 1 1 61B60AA4
P 6300 1200
F 0 "C21" H 6415 1246 50  0000 L CNN
F 1 "1u" H 6415 1155 50  0000 L CNN
F 2 "Capacitor_SMD:C_0805_2012Metric_Pad1.18x1.45mm_HandSolder" H 6338 1050 50  0001 C CNN
F 3 "~" H 6300 1200 50  0001 C CNN
	1    6300 1200
	1    0    0    -1  
$EndComp
$Comp
L Device:C C5
U 1 1 61B6181E
P 5900 1200
F 0 "C5" H 6015 1246 50  0000 L CNN
F 1 "100n" H 6015 1155 50  0000 L CNN
F 2 "Capacitor_SMD:C_0603_1608Metric_Pad1.08x0.95mm_HandSolder" H 5938 1050 50  0001 C CNN
F 3 "~" H 5900 1200 50  0001 C CNN
	1    5900 1200
	1    0    0    -1  
$EndComp
$Comp
L Device:Ferrite_Bead FB8
U 1 1 61B62E53
P 5500 950
F 0 "FB8" V 5226 950 50  0000 C CNN
F 1 "330R" V 5317 950 50  0000 C CNN
F 2 "Inductor_SMD:L_0603_1608Metric_Pad1.05x0.95mm_HandSolder" V 5430 950 50  0001 C CNN
F 3 "~" H 5500 950 50  0001 C CNN
	1    5500 950 
	0    1    1    0   
$EndComp
Wire Wire Line
	5350 950  5250 950 
Connection ~ 5250 950 
Wire Wire Line
	5250 950  5250 1550
Wire Wire Line
	5450 1550 5450 1450
Wire Wire Line
	5450 1450 5550 1450
Wire Wire Line
	5750 1450 5750 950 
Wire Wire Line
	5750 950  5650 950 
Wire Wire Line
	5750 950  5900 950 
Wire Wire Line
	5900 950  5900 1050
Connection ~ 5750 950 
Wire Wire Line
	5900 950  6300 950 
Wire Wire Line
	6300 950  6300 1050
Connection ~ 5900 950 
Wire Wire Line
	5550 1550 5550 1450
Connection ~ 5550 1450
Wire Wire Line
	5550 1450 5750 1450
$Comp
L power:GNDD #PWR0110
U 1 1 61BCF6D1
P 6300 1450
F 0 "#PWR0110" H 6300 1200 50  0001 C CNN
F 1 "GNDD" H 6304 1295 50  0000 C CNN
F 2 "" H 6300 1450 50  0001 C CNN
F 3 "" H 6300 1450 50  0001 C CNN
	1    6300 1450
	1    0    0    -1  
$EndComp
$Comp
L power:GNDD #PWR0157
U 1 1 61BCFC62
P 5900 1450
F 0 "#PWR0157" H 5900 1200 50  0001 C CNN
F 1 "GNDD" H 5904 1295 50  0000 C CNN
F 2 "" H 5900 1450 50  0001 C CNN
F 3 "" H 5900 1450 50  0001 C CNN
	1    5900 1450
	1    0    0    -1  
$EndComp
Wire Wire Line
	6300 1450 6300 1350
Wire Wire Line
	5900 1350 5900 1450
Entry Wire Line
	7350 5650 7450 5750
Wire Wire Line
	6550 5650 7350 5650
Text Label 6650 5550 0    50   ~ 0
GND_Sense
Connection ~ 3300 7050
$Comp
L Device:R R15
U 1 1 61D5E1C3
P 1550 6800
F 0 "R15" V 1343 6800 50  0000 C CNN
F 1 "10k" V 1434 6800 50  0000 C CNN
F 2 "Resistor_SMD:R_0603_1608Metric_Pad0.98x0.95mm_HandSolder" V 1480 6800 50  0001 C CNN
F 3 "~" H 1550 6800 50  0001 C CNN
	1    1550 6800
	-1   0    0    1   
$EndComp
$Comp
L Device:R R16
U 1 1 61D6333A
P 1550 7300
F 0 "R16" V 1343 7300 50  0000 C CNN
F 1 "10k" V 1434 7300 50  0000 C CNN
F 2 "Resistor_SMD:R_0603_1608Metric_Pad0.98x0.95mm_HandSolder" V 1480 7300 50  0001 C CNN
F 3 "~" H 1550 7300 50  0001 C CNN
	1    1550 7300
	-1   0    0    1   
$EndComp
$Comp
L power:GNDD #PWR0158
U 1 1 61D63C21
P 1200 7550
F 0 "#PWR0158" H 1200 7300 50  0001 C CNN
F 1 "GNDD" H 1204 7395 50  0000 C CNN
F 2 "" H 1200 7550 50  0001 C CNN
F 3 "" H 1200 7550 50  0001 C CNN
	1    1200 7550
	1    0    0    -1  
$EndComp
$Comp
L Device:R R17
U 1 1 61D6C051
P 900 7050
F 0 "R17" V 693 7050 50  0000 C CNN
F 1 "1M" V 784 7050 50  0000 C CNN
F 2 "Resistor_SMD:R_1206_3216Metric_Pad1.30x1.75mm_HandSolder" V 830 7050 50  0001 C CNN
F 3 "~" H 900 7050 50  0001 C CNN
	1    900  7050
	0    -1   -1   0   
$EndComp
Wire Wire Line
	1200 7050 1200 7150
$Comp
L parts:ISO_GNDD #PWR0159
U 1 1 61DE0C6D
P 650 7150
F 0 "#PWR0159" H 650 6900 50  0001 C CNN
F 1 "ISO_GNDD" H 654 6995 50  0000 C CNN
F 2 "" H 650 7150 50  0001 C CNN
F 3 "" H 650 7150 50  0001 C CNN
	1    650  7150
	1    0    0    -1  
$EndComp
Wire Wire Line
	1200 7550 1200 7450
$Comp
L Amplifier_Operational:MCP6001R U7
U 1 1 61DFB211
P 2400 7150
F 0 "U7" H 2500 7050 50  0000 L CNN
F 1 "MCP6001R" H 2400 6950 50  0000 L CNN
F 2 "Package_TO_SOT_SMD:SOT-23-5_HandSoldering" H 2400 7150 50  0001 C CNN
F 3 "http://ww1.microchip.com/downloads/en/DeviceDoc/21733j.pdf" H 2400 7350 50  0001 C CNN
	1    2400 7150
	1    0    0    -1  
$EndComp
Wire Wire Line
	2300 7550 2300 7450
Wire Wire Line
	2700 7150 2800 7150
Wire Wire Line
	2800 7150 2800 7500
Wire Wire Line
	2800 7500 2000 7500
Wire Wire Line
	2000 7250 2100 7250
Connection ~ 1200 7050
Wire Wire Line
	3200 7150 2800 7150
Entry Wire Line
	3300 7250 3200 7150
Text Label 2700 7150 0    50   ~ 0
GND_Sense
$Comp
L Device:C C23
U 1 1 61E904C7
P 1150 6500
F 0 "C23" H 1265 6546 50  0000 L CNN
F 1 "100n" H 1265 6455 50  0000 L CNN
F 2 "Capacitor_SMD:C_0603_1608Metric_Pad1.08x0.95mm_HandSolder" H 1188 6350 50  0001 C CNN
F 3 "~" H 1150 6500 50  0001 C CNN
	1    1150 6500
	1    0    0    -1  
$EndComp
$Comp
L power:GNDD #PWR0161
U 1 1 61E9B3BE
P 1150 6750
F 0 "#PWR0161" H 1150 6500 50  0001 C CNN
F 1 "GNDD" H 1154 6595 50  0000 C CNN
F 2 "" H 1150 6750 50  0001 C CNN
F 3 "" H 1150 6750 50  0001 C CNN
	1    1150 6750
	1    0    0    -1  
$EndComp
Wire Wire Line
	1150 6650 1150 6750
$Comp
L Device:C C22
U 1 1 61EB9A77
P 800 6500
F 0 "C22" H 915 6546 50  0000 L CNN
F 1 "1u" H 915 6455 50  0000 L CNN
F 2 "Capacitor_SMD:C_0805_2012Metric_Pad1.18x1.45mm_HandSolder" H 838 6350 50  0001 C CNN
F 3 "~" H 800 6500 50  0001 C CNN
	1    800  6500
	1    0    0    -1  
$EndComp
$Comp
L power:GNDD #PWR0162
U 1 1 61EBC983
P 800 6750
F 0 "#PWR0162" H 800 6500 50  0001 C CNN
F 1 "GNDD" H 804 6595 50  0000 C CNN
F 2 "" H 800 6750 50  0001 C CNN
F 3 "" H 800 6750 50  0001 C CNN
	1    800  6750
	1    0    0    -1  
$EndComp
Wire Wire Line
	800  6750 800  6650
Wire Wire Line
	1150 6350 1150 6250
Wire Wire Line
	1150 6250 800  6250
Wire Wire Line
	800  6250 800  6350
Wire Wire Line
	800  6250 800  6150
Wire Wire Line
	800  5850 800  5750
Connection ~ 800  6250
$Comp
L power:+3V3 #PWR0163
U 1 1 61F0DC95
P 800 5750
F 0 "#PWR0163" H 800 5600 50  0001 C CNN
F 1 "+3V3" H 815 5923 50  0000 C CNN
F 2 "" H 800 5750 50  0001 C CNN
F 3 "" H 800 5750 50  0001 C CNN
	1    800  5750
	1    0    0    -1  
$EndComp
$Comp
L Device:Ferrite_Bead FB9
U 1 1 61F0E659
P 800 6000
F 0 "FB9" H 663 5954 50  0000 R CNN
F 1 "330R" H 663 6045 50  0000 R CNN
F 2 "Inductor_SMD:L_0603_1608Metric_Pad1.05x0.95mm_HandSolder" V 730 6000 50  0001 C CNN
F 3 "~" H 800 6000 50  0001 C CNN
	1    800  6000
	-1   0    0    1   
$EndComp
Connection ~ 2800 7150
$Comp
L Device:C C24
U 1 1 62034D08
P 1200 7300
F 0 "C24" H 1315 7346 50  0000 L CNN
F 1 "10n" H 1315 7255 50  0000 L CNN
F 2 "Capacitor_SMD:C_0603_1608Metric_Pad1.08x0.95mm_HandSolder" H 1238 7150 50  0001 C CNN
F 3 "~" H 1200 7300 50  0001 C CNN
	1    1200 7300
	1    0    0    -1  
$EndComp
Wire Wire Line
	1550 7050 1550 7150
Connection ~ 1550 7050
Wire Wire Line
	1550 7050 1200 7050
Wire Wire Line
	1550 7550 1550 7450
$Comp
L power:GNDD #PWR0164
U 1 1 62071303
P 1550 7550
F 0 "#PWR0164" H 1550 7300 50  0001 C CNN
F 1 "GNDD" H 1554 7395 50  0000 C CNN
F 2 "" H 1550 7550 50  0001 C CNN
F 3 "" H 1550 7550 50  0001 C CNN
	1    1550 7550
	1    0    0    -1  
$EndComp
Wire Wire Line
	2850 700  2850 800 
Wire Wire Line
	1850 700  1850 800 
Wire Wire Line
	2850 800  2500 800 
Connection ~ 2850 800 
Wire Wire Line
	2850 800  2850 1250
Connection ~ 1850 800 
Wire Wire Line
	1850 800  1850 1250
$Comp
L Diode:BAT54W D12
U 1 1 621599D4
P 2350 800
F 0 "D12" H 2350 1066 50  0000 C CNN
F 1 "BAT54W" H 2350 975 50  0000 C CNN
F 2 "Package_TO_SOT_SMD:SOT-23_Handsoldering" H 2350 625 50  0001 C CNN
F 3 "https://assets.nexperia.com/documents/data-sheet/BAT54W_SER.pdf" H 2350 800 50  0001 C CNN
	1    2350 800 
	1    0    0    -1  
$EndComp
Wire Wire Line
	2200 800  1850 800 
$Comp
L power:GNDD #PWR0160
U 1 1 6219C213
P 2300 7550
F 0 "#PWR0160" H 2300 7300 50  0001 C CNN
F 1 "GNDD" H 2304 7395 50  0000 C CNN
F 2 "" H 2300 7550 50  0001 C CNN
F 3 "" H 2300 7550 50  0001 C CNN
	1    2300 7550
	1    0    0    -1  
$EndComp
$Comp
L Mechanical:MountingHole H1
U 1 1 621E86CF
P 3350 700
F 0 "H1" H 3450 746 50  0000 L CNN
F 1 "M3" H 3450 655 50  0000 L CNN
F 2 "MountingHole:MountingHole_3.2mm_M3" H 3350 700 50  0001 C CNN
F 3 "~" H 3350 700 50  0001 C CNN
	1    3350 700 
	1    0    0    -1  
$EndComp
$Comp
L Mechanical:MountingHole H2
U 1 1 621E9199
P 3350 900
F 0 "H2" H 3450 946 50  0000 L CNN
F 1 "M3" H 3450 855 50  0000 L CNN
F 2 "MountingHole:MountingHole_3.2mm_M3" H 3350 900 50  0001 C CNN
F 3 "~" H 3350 900 50  0001 C CNN
	1    3350 900 
	1    0    0    -1  
$EndComp
$Comp
L Mechanical:MountingHole H3
U 1 1 621E9A26
P 3350 1100
F 0 "H3" H 3450 1191 50  0000 L CNN
F 1 "PCIe low profile board outline" H 3450 1100 50  0000 L CNN
F 2 "parts:PCIexpress_x1_Card_No_Contacts_PCI_Combo" H 3450 1009 50  0000 L CNN
F 3 "~" H 3350 1100 50  0001 C CNN
	1    3350 1100
	1    0    0    -1  
$EndComp
$Sheet
S 9850 700  1100 2450
U 62547F3A
F0 "IO_Extra" 50
F1 "io-extra.sch" 50
F2 "Relais1" I L 9850 1500 50 
F3 "Relais2" I L 9850 1700 50 
F4 "Relais_VCC" I L 9850 850 50 
F5 "Relais_GND" I L 9850 1100 50 
F6 "LED1" I L 9850 1900 50 
F7 "LED2" I L 9850 2100 50 
F8 "LED3" I L 9850 2300 50 
F9 "LED4" I L 9850 2500 50 
F10 "Button2" I L 9850 2900 50 
F11 "Button1" I L 9850 2700 50 
$EndSheet
Connection ~ 8850 2200
$Comp
L power:+5VP #PWR0152
U 1 1 626D613A
P 9650 750
F 0 "#PWR0152" H 9650 600 50  0001 C CNN
F 1 "+5VP" H 9665 923 50  0000 C CNN
F 2 "" H 9650 750 50  0001 C CNN
F 3 "" H 9650 750 50  0001 C CNN
	1    9650 750 
	1    0    0    -1  
$EndComp
Wire Wire Line
	9650 750  9650 850 
Wire Wire Line
	9650 850  9850 850 
Wire Wire Line
	9650 1200 9650 1100
Wire Wire Line
	9650 1100 9850 1100
$Comp
L power:GNDD #PWR0153
U 1 1 62708D48
P 9650 1200
F 0 "#PWR0153" H 9650 950 50  0001 C CNN
F 1 "GNDD" H 9654 1045 50  0000 C CNN
F 2 "" H 9650 1200 50  0001 C CNN
F 3 "" H 9650 1200 50  0001 C CNN
	1    9650 1200
	1    0    0    -1  
$EndComp
Wire Wire Line
	9850 1500 8950 1500
Wire Wire Line
	8950 1700 9850 1700
Entry Wire Line
	8850 1400 8950 1500
Entry Wire Line
	8850 1600 8950 1700
Text Label 9000 1500 0    50   ~ 0
RELAIS1
Text Label 9000 1700 0    50   ~ 0
RELAIS2
Entry Wire Line
	8950 2500 8850 2400
Entry Wire Line
	8950 2300 8850 2200
Entry Wire Line
	8950 2100 8850 2000
Entry Wire Line
	8950 1900 8850 1800
Text Label 9000 1900 0    50   ~ 0
LED1
Text Label 9000 2100 0    50   ~ 0
LED2
Text Label 9000 2300 0    50   ~ 0
LED3
Text Label 9000 2500 0    50   ~ 0
LED4
Wire Wire Line
	8950 2100 9850 2100
Wire Wire Line
	8950 1900 9850 1900
Wire Wire Line
	8950 2500 9850 2500
Wire Wire Line
	8950 2300 9850 2300
Entry Wire Line
	8950 2700 8850 2600
Text Label 9000 2700 0    50   ~ 0
BUTTON1
Wire Wire Line
	8950 2700 9850 2700
Entry Wire Line
	8950 2900 8850 2800
Text Label 9000 2900 0    50   ~ 0
BUTTON2
Wire Wire Line
	8950 2900 9850 2900
Wire Bus Line
	3300 3300 3300 7050
Wire Bus Line
	3300 7050 6900 7050
Wire Wire Line
	2000 7500 2000 7250
Wire Wire Line
	1550 7050 2100 7050
Wire Wire Line
	1550 6950 1550 7050
Wire Wire Line
	1150 6250 1550 6250
Connection ~ 1150 6250
Wire Wire Line
	1550 6550 2300 6550
Wire Wire Line
	2300 6550 2300 6850
Connection ~ 1550 6550
Wire Wire Line
	1550 6550 1550 6650
Wire Wire Line
	1050 7050 1200 7050
Wire Wire Line
	650  7150 650  7050
Wire Wire Line
	650  7050 750  7050
Wire Wire Line
	1550 6250 1550 6550
Wire Bus Line
	3300 7050 3300 7400
Wire Bus Line
	3700 2500 3700 3300
Wire Bus Line
	8850 750  8850 2200
Wire Bus Line
	8850 2200 8850 3150
Wire Bus Line
	7450 2200 7450 6450
$EndSCHEMATC
