(module PCIexpress_x1_Card_No_Contacts (layer F.Cu) (tedit 61A40290)
  (descr "PCIexpress x1 Card with outline, keepout area, and card bracket including connector opening. PCI_Express_CEM_1.1.pdf")
  (tags PCIe)
  (attr virtual)
  (fp_text reference REF** (at -6.5 -6.95) (layer F.SilkS)
    (effects (font (size 1 1) (thickness 0.15)))
  )
  (fp_text value PCIexpress_x1_Card_No_Contacts (at -1.17 -11.46) (layer F.Fab)
    (effects (font (size 1 1) (thickness 0.15)))
  )
  (fp_line (start -70.47 -103.49) (end -66.29 -104) (layer Cmts.User) (width 0.12))
  (fp_line (start -70.47 -104) (end -70.47 -103.49) (layer Cmts.User) (width 0.12))
  (fp_line (start -59.04 10.95) (end -59.49 16.02) (layer Cmts.User) (width 0.12))
  (fp_line (start -58.63 16.02) (end -58.18 10.95) (layer Cmts.User) (width 0.12))
  (fp_line (start -59.04 10.95) (end -58.18 10.95) (layer Cmts.User) (width 0.12))
  (fp_line (start -58.18 10.95) (end -58.18 -4.5) (layer Cmts.User) (width 0.12))
  (fp_line (start -59.49 16.02) (end -58.63 16.02) (layer Cmts.User) (width 0.12))
  (fp_line (start -59.04 -104) (end -59.04 10.95) (layer Cmts.User) (width 0.12))
  (fp_line (start -70.47 -104) (end -59.04 -104) (layer Cmts.User) (width 0.12))
  (fp_line (start -70.47 -104.86) (end -70.47 -104) (layer Cmts.User) (width 0.12))
  (fp_line (start -58.18 -104.86) (end -70.47 -104.86) (layer Cmts.User) (width 0.12))
  (fp_line (start -58.18 -4.5) (end -58.18 -104.86) (layer Cmts.User) (width 0.12))
  (fp_circle (center -49.65 -95.75) (end -48.06 -95.75) (layer Cmts.User) (width 0.12))
  (fp_line (start 98.3 -16.1) (end 98.3 -13.75) (layer Cmts.User) (width 0.05))
  (fp_line (start 93.05 -16.1) (end 98.3 -16.1) (layer Cmts.User) (width 0.05))
  (fp_line (start 93.05 -14.1) (end 93.05 -16.1) (layer Cmts.User) (width 0.05))
  (fp_line (start 84.9 -14.1) (end 93.05 -14.1) (layer Cmts.User) (width 0.05))
  (fp_line (start 84.9 -13.75) (end 84.9 -14.1) (layer Cmts.User) (width 0.05))
  (fp_line (start 110.5 -111.15) (end -57.15 -111.15) (layer Cmts.User) (width 0.12))
  (fp_line (start 110.5 -12.75) (end 110.5 -111.15) (layer Cmts.User) (width 0.12))
  (fp_line (start 8.15 -12.75) (end 110.5 -12.75) (layer Cmts.User) (width 0.12))
  (fp_line (start 8.15 -12.75) (end 8.15 -13.75) (layer Cmts.User) (width 0.05))
  (fp_line (start 8.15 -12.75) (end 8.15 -8.4) (layer Cmts.User) (width 0.12))
  (fp_line (start 105.42 -13.75) (end 8.15 -13.75) (layer Cmts.User) (width 0.05))
  (fp_line (start 105.42 -108.15) (end 105.42 -13.75) (layer Cmts.User) (width 0.05))
  (fp_line (start 80 -108.15) (end 105.42 -108.15) (layer Cmts.User) (width 0.05))
  (fp_line (start 80 -110.15) (end 80 -108.15) (layer Cmts.User) (width 0.05))
  (fp_line (start -44.45 -110.15) (end 80 -110.15) (layer Cmts.User) (width 0.05))
  (fp_line (start -44.45 -90.7) (end -44.45 -110.15) (layer Cmts.User) (width 0.05))
  (fp_line (start -57.15 -90.7) (end -44.45 -90.7) (layer Cmts.User) (width 0.05))
  (fp_line (start -52.08 -13.75) (end -52.08 -90.7) (layer Cmts.User) (width 0.05))
  (fp_line (start -57.15 -13.75) (end -52.05 -13.75) (layer Cmts.User) (width 0.12))
  (fp_circle (center -49.65 -9.35) (end -48.06 -9.35) (layer Cmts.User) (width 0.12))
  (fp_line (start -12.15 -8.4) (end -12.15 -10.925) (layer Cmts.User) (width 0.12))
  (fp_line (start -12.15 -13.75) (end -12.15 -10.925) (layer Cmts.User) (width 0.05))
  (fp_line (start -57.15 -13.75) (end -12.15 -13.75) (layer Cmts.User) (width 0.05))
  (fp_arc (start -13.975 -10.925) (end -12.15 -10.925) (angle -180) (layer Cmts.User) (width 0.12))
  (fp_line (start -15.8 -7.95) (end -23.8 -7.95) (layer Cmts.User) (width 0.05))
  (fp_line (start -15.8 -4.5) (end -15.8 -10.925) (layer Cmts.User) (width 0.12))
  (fp_line (start -23.8 -4.5) (end -15.8 -4.5) (layer Cmts.User) (width 0.12))
  (fp_line (start -23.8 -12.75) (end -23.8 -4.5) (layer Cmts.User) (width 0.12))
  (fp_line (start -42.15 -12.75) (end -23.8 -12.75) (layer Cmts.User) (width 0.12))
  (fp_line (start -42.15 -4.5) (end -42.15 -12.75) (layer Cmts.User) (width 0.12))
  (fp_line (start -57.15 -4.5) (end -42.15 -4.5) (layer Cmts.User) (width 0.12))
  (fp_line (start -57.15 -4.5) (end -57.15 -111.15) (layer Cmts.User) (width 0.12))
  (fp_arc (start 0 -7.45) (end 0.95 -7.45) (angle -180) (layer Edge.Cuts) (width 0.1))
  (fp_text user "PCB Thickness 1.57 mm" (at -6.5 -0.65 180) (layer Cmts.User)
    (effects (font (size 0.5 0.5) (thickness 0.1)))
  )
  (fp_text user %R (at 4.5 -6.95) (layer F.Fab)
    (effects (font (size 1 1) (thickness 0.15)))
  )
  (fp_line (start -12.65 -8.9) (end 8.65 -8.9) (layer F.CrtYd) (width 0.05))
  (fp_line (start -12.65 -8.9) (end -12.65 0.5) (layer F.CrtYd) (width 0.05))
  (fp_line (start 8.65 0.5) (end 8.65 -8.9) (layer F.CrtYd) (width 0.05))
  (fp_line (start 8.65 0.5) (end -12.65 0.5) (layer F.CrtYd) (width 0.05))
  (fp_line (start -0.95 -7.45) (end -0.95 -0.5) (layer Edge.Cuts) (width 0.1))
  (fp_line (start 0.95 -7.45) (end 0.95 -0.5) (layer Edge.Cuts) (width 0.1))
  (fp_line (start -12.15 -8.4) (end -12.15 -0.5) (layer Edge.Cuts) (width 0.1))
  (fp_line (start -11.65 0) (end -1.45 0) (layer Edge.Cuts) (width 0.1))
  (fp_line (start 8.15 -8.4) (end 8.15 -0.5) (layer Edge.Cuts) (width 0.1))
  (fp_line (start 1.45 0) (end 7.65 0) (layer Edge.Cuts) (width 0.1))
  (fp_line (start -12.15 -0.5) (end -11.65 0) (layer Edge.Cuts) (width 0.1))
  (fp_line (start -0.95 -0.5) (end -1.45 0) (layer Edge.Cuts) (width 0.1))
  (fp_line (start 0.95 -0.5) (end 1.45 0) (layer Edge.Cuts) (width 0.1))
  (fp_line (start 8.15 -0.5) (end 7.65 0) (layer Edge.Cuts) (width 0.1))
  (fp_line (start -57.15 -68.9) (end 110.5 -68.9) (layer Cmts.User) (width 0.12))
  (fp_line (start -57.15 -58.5) (end -44.75 -58.5) (layer Cmts.User) (width 0.05))
  (fp_line (start -44.75 -58.5) (end -44.75 -67.9) (layer Cmts.User) (width 0.05))
  (fp_line (start -44.75 -67.9) (end 105.42 -67.9) (layer Cmts.User) (width 0.05))
  (fp_line (start -56.15 -13.75) (end -56.15 -58.5) (layer Cmts.User) (width 0.05))
  (fp_circle (center -49.65 -63.25) (end -48.06 -63.25) (layer Cmts.User) (width 0.12))
  (fp_line (start -58.18 -95.75) (end -59.04 -95.75) (layer Cmts.User) (width 0.12))
  (fp_line (start -59.04 -5.85) (end -58.18 -5.85) (layer Cmts.User) (width 0.12))
  (fp_line (start -59.04 -60.28) (end -58.18 -60.28) (layer Cmts.User) (width 0.12))
)
