(module R_Shunt_combined_Ohmite_LVK12_and_others (layer F.Cu) (tedit 61AB4646)
  (descr "4 contact shunt resistor")
  (tags "shunt resistor 4 contacts")
  (attr smd)
  (fp_text reference REF** (at 2 0 270) (layer F.SilkS)
    (effects (font (size 1 1) (thickness 0.15)))
  )
  (fp_text value R_Shunt_combined_Ohmite_LVK12_and_others (at 0 3.4) (layer F.Fab)
    (effects (font (size 1 1) (thickness 0.15)))
  )
  (fp_line (start 1 -0.4) (end 1 0.4) (layer F.SilkS) (width 0.12))
  (fp_line (start -1 0.4) (end -1 -0.4) (layer F.SilkS) (width 0.12))
  (fp_line (start -1.5 -2.5) (end 1.5 -2.5) (layer F.CrtYd) (width 0.05))
  (fp_line (start 1.5 -2.5) (end 1.5 2.5) (layer F.CrtYd) (width 0.05))
  (fp_line (start 1.5 2.5) (end -1.5 2.5) (layer F.CrtYd) (width 0.05))
  (fp_line (start -1.5 2.5) (end -1.5 -2.5) (layer F.CrtYd) (width 0.05))
  (fp_line (start -0.8 1.6) (end 0.8 1.6) (layer F.Fab) (width 0.1))
  (fp_line (start 0.8 1.6) (end 0.8 -1.6) (layer F.Fab) (width 0.1))
  (fp_line (start 0.8 -1.6) (end -0.8 -1.6) (layer F.Fab) (width 0.1))
  (fp_line (start -0.8 -1.6) (end -0.8 1.6) (layer F.Fab) (width 0.1))
  (fp_text user %R (at 0.1 0 180) (layer F.Fab)
    (effects (font (size 0.6 0.6) (thickness 0.1)))
  )
  (pad 1 smd rect (at -1.9 -2.2) (size 3.5 3.4) (layers F.Cu F.Paste F.Mask))
  (pad 2 smd rect (at 0.7 -2.2) (size 1.1 3.4) (layers F.Cu F.Paste F.Mask))
  (pad 4 smd rect (at -1.9 2.2) (size 3.5 3.4) (layers F.Cu F.Paste F.Mask)
    (die_length 2))
  (pad 3 smd rect (at 0.7 2.2) (size 1.1 3.4) (layers F.Cu F.Paste F.Mask))
  (model ${KISYS3DMOD}/Resistor_SMD.3dshapes/R_Shunt_Ohmite_LVK12.wrl
    (at (xyz 0 0 0))
    (scale (xyz 1 1 1))
    (rotate (xyz 0 0 0))
  )
)
