(module SWD_PCIe (layer F.Cu) (tedit 61A8E76F)
  (descr "PCIexpress Bus Edge Connector x1 http://www.ritrontek.com/uploadfile/2016/1026/20161026105231124.pdf#page=70")
  (tags PCIe)
  (attr virtual)
  (fp_text reference REF** (at 0 5.1) (layer F.SilkS)
    (effects (font (size 1 1) (thickness 0.15)))
  )
  (fp_text value SWD_PCIe (at 0 -3.05) (layer F.Fab)
    (effects (font (size 1 1) (thickness 0.15)))
  )
  (fp_line (start -8.65 0.55) (end 7.55 0.55) (layer F.CrtYd) (width 0.05))
  (fp_line (start -8.65 0.55) (end -8.65 8.55) (layer F.CrtYd) (width 0.05))
  (fp_line (start 7.55 8.55) (end 7.55 0.55) (layer F.CrtYd) (width 0.05))
  (fp_line (start 7.55 8.55) (end -8.65 8.55) (layer F.CrtYd) (width 0.05))
  (fp_line (start 5.55 1.2) (end 5.55 7.55) (layer Edge.Cuts) (width 0.1))
  (fp_line (start -5.95 1.2) (end -5.95 7.55) (layer Edge.Cuts) (width 0.1))
  (fp_line (start -5.45 8.05) (end 5.05 8.05) (layer Edge.Cuts) (width 0.1))
  (fp_line (start -5.95 7.55) (end -5.45 8.05) (layer Edge.Cuts) (width 0.1))
  (fp_line (start 5.55 7.55) (end 5.05 8.05) (layer Edge.Cuts) (width 0.1))
  (fp_line (start -7.45 0) (end -7.15 0) (layer Edge.Cuts) (width 0.1))
  (fp_text user %R (at 0 -1.45) (layer F.Fab)
    (effects (font (size 1 1) (thickness 0.15)))
  )
  (fp_text user "PCB Thickness 1.57 mm" (at 0 7.4 180) (layer Cmts.User)
    (effects (font (size 0.5 0.5) (thickness 0.1)))
  )
  (fp_arc (start 6.75 1.2) (end 6.75 0) (angle -90) (layer Edge.Cuts) (width 0.1))
  (fp_arc (start -7.15 1.2) (end -5.95 1.2) (angle -90) (layer Edge.Cuts) (width 0.1))
  (fp_text user "SWD via PCIe" (at 0 6.6) (layer F.SilkS)
    (effects (font (size 1 1) (thickness 0.15)))
  )
  (fp_text user \RESET (at -5 6.6 -90 unlocked) (layer B.SilkS)
    (effects (font (size 0.8 1) (thickness 0.15)) (justify left mirror))
  )
  (fp_text user GND (at -3 7.1 -90 unlocked) (layer B.SilkS)
    (effects (font (size 0.8 1) (thickness 0.15)) (justify left mirror))
  )
  (fp_text user 3V3 (at -1 7.1 -90 unlocked) (layer B.SilkS)
    (effects (font (size 0.8 1) (thickness 0.15)) (justify left mirror))
  )
  (fp_text user SWCLK (at 1 7.1 -90 unlocked) (layer B.SilkS)
    (effects (font (size 0.8 1) (thickness 0.15)) (justify left mirror))
  )
  (fp_text user SWDIO (at 3 7.1 -90 unlocked) (layer B.SilkS)
    (effects (font (size 0.8 1) (thickness 0.15)) (justify left mirror))
  )
  (pad 10 connect roundrect (at -4 4.1) (size 0.7 3.3) (layers B.Cu B.Mask) (roundrect_rratio 0.25))
  (pad 3 connect roundrect (at -2 4.6) (size 0.7 4.3) (layers B.Cu B.Mask) (roundrect_rratio 0.25))
  (pad 1 connect roundrect (at 0 4.6) (size 0.7 4.3) (layers B.Cu B.Mask) (roundrect_rratio 0.25))
  (pad 4 connect roundrect (at 2 4.1) (size 0.7 3.3) (layers B.Cu B.Mask) (roundrect_rratio 0.25))
  (pad 2 connect roundrect (at 4 4.1) (size 0.7 3.3) (layers B.Cu B.Mask) (roundrect_rratio 0.25))
)
