EESchema Schematic File Version 4
EELAYER 30 0
EELAYER END
$Descr A3 16535 11693
encoding utf-8
Sheet 1 6
Title ""
Date ""
Rev ""
Comp ""
Comment1 ""
Comment2 ""
Comment3 ""
Comment4 ""
$EndDescr
$Comp
L Regulator_Linear:MIC5365-3.3YD5 U2
U 1 1 6192A6A9
P 1800 1150
F 0 "U2" H 1800 1517 50  0000 C CNN
F 1 "MIC5317-3.3YM5 (or 5365)" H 1800 1426 50  0000 C CNN
F 2 "Package_TO_SOT_SMD:SOT-23-5_HandSoldering" H 1800 1500 50  0001 C CNN
F 3 "http://ww1.microchip.com/downloads/en/DeviceDoc/mic5365.pdf" H 1550 1400 50  0001 C CNN
	1    1800 1150
	1    0    0    -1  
$EndComp
$Comp
L power:+5V #PWR0101
U 1 1 6192ABCE
P 1250 900
F 0 "#PWR0101" H 1250 750 50  0001 C CNN
F 1 "+5V" H 1265 1073 50  0000 C CNN
F 2 "" H 1250 900 50  0001 C CNN
F 3 "" H 1250 900 50  0001 C CNN
	1    1250 900 
	1    0    0    -1  
$EndComp
$Comp
L power:GNDD #PWR0102
U 1 1 6192B34F
P 1800 1850
F 0 "#PWR0102" H 1800 1600 50  0001 C CNN
F 1 "GNDD" H 1804 1695 50  0000 C CNN
F 2 "" H 1800 1850 50  0001 C CNN
F 3 "" H 1800 1850 50  0001 C CNN
	1    1800 1850
	1    0    0    -1  
$EndComp
$Comp
L power:+3.3VA #PWR0103
U 1 1 6192B7EF
P 2350 900
F 0 "#PWR0103" H 2350 750 50  0001 C CNN
F 1 "+3.3VA" H 2365 1073 50  0000 C CNN
F 2 "" H 2350 900 50  0001 C CNN
F 3 "" H 2350 900 50  0001 C CNN
	1    2350 900 
	1    0    0    -1  
$EndComp
Wire Wire Line
	1400 1250 1250 1250
Wire Wire Line
	1250 1250 1250 1050
Wire Wire Line
	1400 1050 1250 1050
Connection ~ 1250 1050
Wire Wire Line
	1250 1050 1250 900 
Wire Wire Line
	2200 1050 2350 1050
Wire Wire Line
	2350 1050 2350 900 
$Comp
L Device:C C2
U 1 1 6192D1E7
P 1250 1550
F 0 "C2" H 1365 1596 50  0000 L CNN
F 1 "1U" H 1365 1505 50  0000 L CNN
F 2 "Capacitor_SMD:C_0805_2012Metric_Pad1.18x1.45mm_HandSolder" H 1288 1400 50  0001 C CNN
F 3 "~" H 1250 1550 50  0001 C CNN
	1    1250 1550
	1    0    0    -1  
$EndComp
$Comp
L Device:C C3
U 1 1 6192D90D
P 2350 1550
F 0 "C3" H 2465 1596 50  0000 L CNN
F 1 "1U" H 2465 1505 50  0000 L CNN
F 2 "Capacitor_SMD:C_0805_2012Metric_Pad1.18x1.45mm_HandSolder" H 2388 1400 50  0001 C CNN
F 3 "~" H 2350 1550 50  0001 C CNN
	1    2350 1550
	1    0    0    -1  
$EndComp
$Comp
L power:GNDD #PWR0104
U 1 1 6192F3A4
P 2350 1850
F 0 "#PWR0104" H 2350 1600 50  0001 C CNN
F 1 "GNDD" H 2354 1695 50  0000 C CNN
F 2 "" H 2350 1850 50  0001 C CNN
F 3 "" H 2350 1850 50  0001 C CNN
	1    2350 1850
	1    0    0    -1  
$EndComp
$Comp
L power:GNDD #PWR0105
U 1 1 6192F649
P 1250 1850
F 0 "#PWR0105" H 1250 1600 50  0001 C CNN
F 1 "GNDD" H 1254 1695 50  0000 C CNN
F 2 "" H 1250 1850 50  0001 C CNN
F 3 "" H 1250 1850 50  0001 C CNN
	1    1250 1850
	1    0    0    -1  
$EndComp
Wire Wire Line
	1250 1850 1250 1700
Wire Wire Line
	1250 1400 1250 1250
Connection ~ 1250 1250
Wire Wire Line
	1800 1450 1800 1850
Wire Wire Line
	2350 1850 2350 1700
Wire Wire Line
	2350 1400 2350 1050
Connection ~ 2350 1050
Entry Wire Line
	11450 6750 11550 6850
Entry Wire Line
	11450 6650 11550 6750
Entry Wire Line
	11450 6450 11550 6550
Entry Wire Line
	11450 7050 11550 7150
Wire Wire Line
	11450 6550 9250 6550
Wire Wire Line
	11450 6650 9250 6650
Wire Wire Line
	9250 6450 11450 6450
Wire Wire Line
	11450 7050 9250 7050
Text Label 10950 6550 0    50   ~ 0
SCK
Text Label 10950 6750 0    50   ~ 0
MOSI_FWD
Text Label 10950 6650 0    50   ~ 0
MOSI_IN
Text Label 10950 6450 0    50   ~ 0
\CS
Text Label 10950 7050 0    50   ~ 0
MISO
Text Notes 9300 7050 0    50   ~ 0
MISO (last module only)
Text Notes 9300 6750 0    50   ~ 0
MISO
Text Notes 9300 6650 0    50   ~ 0
MOSI
Wire Wire Line
	9250 6750 11450 6750
Text Notes 9300 6550 0    50   ~ 0
SCK
Text Notes 9300 6450 0    50   ~ 0
NSS
$Comp
L Device:C C6
U 1 1 619A3054
P 5950 3500
F 0 "C6" H 6065 3546 50  0000 L CNN
F 1 "100N" H 6065 3455 50  0000 L CNN
F 2 "Capacitor_SMD:C_0603_1608Metric_Pad1.08x0.95mm_HandSolder" H 5988 3350 50  0001 C CNN
F 3 "~" H 5950 3500 50  0001 C CNN
	1    5950 3500
	1    0    0    -1  
$EndComp
$Comp
L Device:Ferrite_Bead FB1
U 1 1 619A408F
P 7800 3250
F 0 "FB1" H 7663 3204 50  0000 R CNN
F 1 "330R" H 7663 3295 50  0000 R CNN
F 2 "Inductor_SMD:L_0603_1608Metric_Pad1.05x0.95mm_HandSolder" V 7730 3250 50  0001 C CNN
F 3 "~" H 7800 3250 50  0001 C CNN
	1    7800 3250
	0    1    1    0   
$EndComp
$Comp
L Device:C C5
U 1 1 619A47C7
P 5550 3500
F 0 "C5" H 5665 3546 50  0000 L CNN
F 1 "1U" H 5665 3455 50  0000 L CNN
F 2 "Capacitor_SMD:C_0805_2012Metric_Pad1.18x1.45mm_HandSolder" H 5588 3350 50  0001 C CNN
F 3 "~" H 5550 3500 50  0001 C CNN
	1    5550 3500
	1    0    0    -1  
$EndComp
$Comp
L power:GNDD #PWR0106
U 1 1 619A4B55
P 5950 3800
F 0 "#PWR0106" H 5950 3550 50  0001 C CNN
F 1 "GNDD" H 5954 3645 50  0000 C CNN
F 2 "" H 5950 3800 50  0001 C CNN
F 3 "" H 5950 3800 50  0001 C CNN
	1    5950 3800
	1    0    0    -1  
$EndComp
$Comp
L power:GNDD #PWR0107
U 1 1 619A4E50
P 5550 3800
F 0 "#PWR0107" H 5550 3550 50  0001 C CNN
F 1 "GNDD" H 5554 3645 50  0000 C CNN
F 2 "" H 5550 3800 50  0001 C CNN
F 3 "" H 5550 3800 50  0001 C CNN
	1    5550 3800
	1    0    0    -1  
$EndComp
Wire Wire Line
	5950 3650 5950 3800
Wire Wire Line
	5550 3650 5550 3800
$Sheet
S 2550 6750 650  950 
U 619C8E00
F0 "Sensor_C" 50
F1 "sensor-hall-shunt-voltage.sch" 50
F2 "+IN" I L 2550 6900 50 
F3 "-IN" I L 2550 7100 50 
F4 "VREF" I R 3200 6900 50 
F5 "VOUT_I" I R 3200 7500 50 
F6 "VOUT_V" I R 3200 7300 50 
F7 "VREF_I" I R 3200 7100 50 
$EndSheet
$Sheet
S 2550 5600 650  950 
U 619FAB05
F0 "Sensor_B" 50
F1 "sensor-hall-shunt-voltage.sch" 50
F2 "+IN" I L 2550 5750 50 
F3 "-IN" I L 2550 5950 50 
F4 "VREF" I R 3200 5750 50 
F5 "VOUT_I" I R 3200 6350 50 
F6 "VOUT_V" I R 3200 6150 50 
F7 "VREF_I" I R 3200 5950 50 
$EndSheet
$Comp
L power:GNDD #PWR0108
U 1 1 61A62BB2
P 3450 1950
F 0 "#PWR0108" H 3450 1700 50  0001 C CNN
F 1 "GNDD" H 3454 1795 50  0000 C CNN
F 2 "" H 3450 1950 50  0001 C CNN
F 3 "" H 3450 1950 50  0001 C CNN
	1    3450 1950
	1    0    0    -1  
$EndComp
Wire Wire Line
	2350 1050 2650 1050
Wire Wire Line
	3450 1050 3450 1200
Wire Wire Line
	3450 1800 3450 1950
$Comp
L Reference_Voltage:ISL21070DIH306Z-TK U1
U 1 1 61A6B030
P 3550 1500
F 0 "U1" H 3321 1546 50  0000 R CNN
F 1 "ISL21080CIH315Z" H 3321 1455 50  0000 R CNN
F 2 "Package_TO_SOT_SMD:SOT-23_Handsoldering" H 4050 1250 50  0001 C CIN
F 3 "" H 3550 1500 50  0001 C CIN
	1    3550 1500
	1    0    0    -1  
$EndComp
Wire Wire Line
	3950 6900 3200 6900
Connection ~ 3950 5750
Wire Wire Line
	3950 5750 3950 6900
Connection ~ 3950 4600
Wire Wire Line
	3950 4600 3950 5750
Wire Wire Line
	3200 5000 4150 5000
Wire Wire Line
	4150 5200 3200 5200
Wire Wire Line
	3200 7300 4150 7300
Wire Wire Line
	4150 7500 3200 7500
Entry Wire Line
	4150 5000 4250 5100
Entry Wire Line
	4150 5200 4250 5300
Entry Wire Line
	4150 6150 4250 6250
Entry Wire Line
	4150 6350 4250 6450
Entry Wire Line
	4150 7300 4250 7400
Entry Wire Line
	4150 7500 4250 7600
Text Notes 5100 10150 2    50   ~ 0
ADC
Text Label 3950 2950 2    50   ~ 0
VREF_1.5V
$Comp
L Connector:Conn_ARM_JTAG_SWD_10 J2
U 1 1 61B856F9
P 6700 1600
F 0 "J2" H 6257 1646 50  0000 R CNN
F 1 "Conn_ARM_JTAG_SWD_10" H 6257 1555 50  0000 R CNN
F 2 "parts:1.27mm_1x05_Header_Shrouded" H 6700 1600 50  0001 C CNN
F 3 "http://infocenter.arm.com/help/topic/com.arm.doc.ddi0314h/DDI0314H_coresight_components_trm.pdf" V 6350 350 50  0001 C CNN
	1    6700 1600
	1    0    0    -1  
$EndComp
$Comp
L parts:SWD_via_PCIe J1
U 1 1 61B85F45
P 8600 1500
F 0 "J1" H 8271 1546 50  0000 R CNN
F 1 "SWD_via_PCIe" H 8271 1455 50  0000 R CNN
F 2 "parts:SWD_PCIe" H 8600 1500 50  0001 C CNN
F 3 "" V 8250 250 50  0001 C CNN
	1    8600 1500
	1    0    0    -1  
$EndComp
$Comp
L Diode:BAT54C D1
U 1 1 61B8FD6F
P 3050 950
F 0 "D1" H 3050 725 50  0000 C CNN
F 1 "BAT54W" H 2850 750 50  0000 C CNN
F 2 "Package_TO_SOT_SMD:SOT-23_Handsoldering" H 3050 775 50  0001 C CNN
F 3 "https://assets.nexperia.com/documents/data-sheet/BAT54W_SER.pdf" H 3050 950 50  0001 C CNN
	1    3050 950 
	-1   0    0    1   
$EndComp
$Comp
L power:+5V #PWR0109
U 1 1 61B90A5D
P 3050 700
F 0 "#PWR0109" H 3050 550 50  0001 C CNN
F 1 "+5V" H 3065 873 50  0000 C CNN
F 2 "" H 3050 700 50  0001 C CNN
F 3 "" H 3050 700 50  0001 C CNN
	1    3050 700 
	1    0    0    -1  
$EndComp
Wire Wire Line
	2750 950  2650 950 
Wire Wire Line
	2650 950  2650 1050
Connection ~ 2650 1050
Wire Wire Line
	2650 1050 3450 1050
Text Notes 4350 900  2    50   ~ 0
Reverse current caused\nby SWD connector!
Wire Wire Line
	9000 1400 9150 1400
Wire Wire Line
	9000 1500 9250 1500
Wire Wire Line
	9000 1600 9350 1600
$Comp
L power:GNDD #PWR0110
U 1 1 61BDA853
P 6600 2400
F 0 "#PWR0110" H 6600 2150 50  0001 C CNN
F 1 "GNDD" H 6604 2245 50  0000 C CNN
F 2 "" H 6600 2400 50  0001 C CNN
F 3 "" H 6600 2400 50  0001 C CNN
	1    6600 2400
	1    0    0    -1  
$EndComp
$Comp
L power:GNDD #PWR0111
U 1 1 61BDADC0
P 8600 2100
F 0 "#PWR0111" H 8600 1850 50  0001 C CNN
F 1 "GNDD" H 8604 1945 50  0000 C CNN
F 2 "" H 8600 2100 50  0001 C CNN
F 3 "" H 8600 2100 50  0001 C CNN
	1    8600 2100
	1    0    0    -1  
$EndComp
Wire Wire Line
	6700 2200 6700 2300
Wire Wire Line
	8600 2100 8600 1950
Wire Wire Line
	7200 1300 7500 1300
Wire Wire Line
	7600 1500 7200 1500
Wire Wire Line
	7200 1600 7700 1600
Wire Wire Line
	7300 1700 7200 1700
Wire Wire Line
	7300 1800 7200 1800
NoConn ~ 7300 1700
NoConn ~ 7300 1800
Wire Wire Line
	8600 900  8600 1050
Wire Wire Line
	6700 1000 6700 850 
$Comp
L Connector:Screw_Terminal_01x02 J3
U 1 1 61C78978
P 2600 2250
F 0 "J3" V 2564 2062 50  0000 R CNN
F 1 "Screw_Terminal_01x02" V 2473 2062 50  0000 R CNN
F 2 "TerminalBlock_MetzConnect:TerminalBlock_MetzConnect_Type094_RT03502HBLU_1x02_P5.00mm_Horizontal" H 2600 2250 50  0001 C CNN
F 3 "~" H 2600 2250 50  0001 C CNN
	1    2600 2250
	0    -1   -1   0   
$EndComp
$Comp
L power:GNDD #PWR0112
U 1 1 61C78D8A
P 2600 2650
F 0 "#PWR0112" H 2600 2400 50  0001 C CNN
F 1 "GNDD" H 2604 2495 50  0000 C CNN
F 2 "" H 2600 2650 50  0001 C CNN
F 3 "" H 2600 2650 50  0001 C CNN
	1    2600 2650
	1    0    0    -1  
$EndComp
Wire Wire Line
	2600 2650 2600 2550
Wire Wire Line
	2600 2550 2700 2550
Wire Wire Line
	2700 2450 2700 2550
Connection ~ 2600 2550
Wire Wire Line
	2600 2550 2600 2450
$Comp
L parts:MKL13Z32VLH4 U3
U 1 1 619775FF
P 8050 6450
F 0 "U3" H 8050 9081 50  0000 C CNN
F 1 "MKL13Z32VLH4" H 8050 8990 50  0000 C CNN
F 2 "Package_QFP:LQFP-64_10x10mm_P0.5mm" H 8250 4175 50  0001 L TNN
F 3 "" H 8300 4000 50  0001 L BNN
	1    8050 6450
	1    0    0    -1  
$EndComp
$Sheet
S 2550 7900 650  950 
U 61A1E695
F0 "Sensor_D" 50
F1 "sensor-hall-shunt-voltage.sch" 50
F2 "+IN" I L 2550 8050 50 
F3 "-IN" I L 2550 8250 50 
F4 "VREF" I R 3200 8050 50 
F5 "VOUT_I" I R 3200 8650 50 
F6 "VOUT_V" I R 3200 8450 50 
F7 "VREF_I" I R 3200 8250 50 
$EndSheet
Wire Wire Line
	3950 8050 3200 8050
Wire Wire Line
	3200 8450 4150 8450
Wire Wire Line
	4150 8650 3200 8650
$Sheet
S 2550 9050 650  950 
U 61A25C8C
F0 "Sensor_E" 50
F1 "sensor-hall-shunt-voltage.sch" 50
F2 "+IN" I L 2550 9200 50 
F3 "-IN" I L 2550 9400 50 
F4 "VREF" I R 3200 9200 50 
F5 "VOUT_I" I R 3200 9800 50 
F6 "VOUT_V" I R 3200 9600 50 
F7 "VREF_I" I R 3200 9400 50 
$EndSheet
Wire Wire Line
	3950 9200 3200 9200
Wire Wire Line
	3200 9600 4150 9600
Wire Wire Line
	4150 9800 3200 9800
Wire Wire Line
	2550 9200 2300 9200
Wire Wire Line
	2200 9400 2300 9400
Entry Wire Line
	4150 9800 4250 9900
Entry Wire Line
	4150 9600 4250 9700
Entry Wire Line
	4150 8650 4250 8750
Entry Wire Line
	4150 8450 4250 8550
Wire Wire Line
	3950 6900 3950 8050
Connection ~ 3950 6900
Connection ~ 3950 8050
$Comp
L Connector:Screw_Terminal_01x02 J8
U 1 1 61A5E3F7
P 2300 8900
F 0 "J8" V 2264 8712 50  0000 R CNN
F 1 "Screw_Terminal_01x02" V 2173 8712 50  0000 R CNN
F 2 "TerminalBlock_MetzConnect:TerminalBlock_MetzConnect_Type701_RT11L02HGLU_1x02_P6.35mm_Horizontal" H 2300 8900 50  0001 C CNN
F 3 "~" H 2300 8900 50  0001 C CNN
	1    2300 8900
	0    1    -1   0   
$EndComp
Wire Wire Line
	2300 9500 2300 9400
Wire Wire Line
	2200 9400 2200 9500
Connection ~ 2300 9400
Wire Wire Line
	2300 8350 2300 8250
Wire Wire Line
	2300 8250 2200 8250
Wire Wire Line
	2200 8250 2200 8350
Wire Wire Line
	2300 9100 2300 9200
Wire Wire Line
	2300 9200 2200 9200
Wire Wire Line
	2200 9200 2200 9100
Wire Wire Line
	2300 7950 2300 8050
Wire Wire Line
	2300 8050 2200 8050
Connection ~ 2300 8250
Wire Wire Line
	3950 4600 4150 4600
Entry Wire Line
	4150 4600 4250 4700
$Comp
L power:+3.3VA #PWR0113
U 1 1 61B5EC79
P 8100 3100
F 0 "#PWR0113" H 8100 2950 50  0001 C CNN
F 1 "+3.3VA" H 8115 3273 50  0000 C CNN
F 2 "" H 8100 3100 50  0001 C CNN
F 3 "" H 8100 3100 50  0001 C CNN
	1    8100 3100
	1    0    0    -1  
$EndComp
Wire Wire Line
	8100 3100 8100 3250
Wire Wire Line
	8100 3250 7950 3250
Connection ~ 8100 3250
Wire Wire Line
	7650 3250 7500 3250
Wire Wire Line
	7500 3250 7350 3250
Connection ~ 7500 3250
Wire Wire Line
	7350 3250 7200 3250
Connection ~ 7350 3250
$Comp
L Device:C C8
U 1 1 61B9E56B
P 6750 3500
F 0 "C8" H 6865 3546 50  0000 L CNN
F 1 "100N" H 6865 3455 50  0000 L CNN
F 2 "Capacitor_SMD:C_0603_1608Metric_Pad1.08x0.95mm_HandSolder" H 6788 3350 50  0001 C CNN
F 3 "~" H 6750 3500 50  0001 C CNN
	1    6750 3500
	1    0    0    -1  
$EndComp
$Comp
L Device:C C7
U 1 1 61B9E8F8
P 6350 3500
F 0 "C7" H 6465 3546 50  0000 L CNN
F 1 "100N" H 6465 3455 50  0000 L CNN
F 2 "Capacitor_SMD:C_0603_1608Metric_Pad1.08x0.95mm_HandSolder" H 6388 3350 50  0001 C CNN
F 3 "~" H 6350 3500 50  0001 C CNN
	1    6350 3500
	1    0    0    -1  
$EndComp
$Comp
L power:GNDD #PWR0114
U 1 1 61BBCB51
P 6350 3800
F 0 "#PWR0114" H 6350 3550 50  0001 C CNN
F 1 "GNDD" H 6354 3645 50  0000 C CNN
F 2 "" H 6350 3800 50  0001 C CNN
F 3 "" H 6350 3800 50  0001 C CNN
	1    6350 3800
	1    0    0    -1  
$EndComp
$Comp
L power:GNDD #PWR0115
U 1 1 61BBCE32
P 6750 3800
F 0 "#PWR0115" H 6750 3550 50  0001 C CNN
F 1 "GNDD" H 6754 3645 50  0000 C CNN
F 2 "" H 6750 3800 50  0001 C CNN
F 3 "" H 6750 3800 50  0001 C CNN
	1    6750 3800
	1    0    0    -1  
$EndComp
Wire Wire Line
	6350 3650 6350 3800
Wire Wire Line
	6750 3800 6750 3650
Wire Wire Line
	7200 3250 6750 3250
Wire Wire Line
	6750 3250 6750 3350
Connection ~ 7200 3250
Wire Wire Line
	6750 3250 6350 3250
Wire Wire Line
	6350 3250 6350 3350
Connection ~ 6750 3250
Wire Wire Line
	6350 3250 5950 3250
Wire Wire Line
	5950 3250 5950 3350
Connection ~ 6350 3250
Wire Wire Line
	5550 3250 5550 3350
$Comp
L power:GNDD #PWR0116
U 1 1 61C24384
P 7500 9000
F 0 "#PWR0116" H 7500 8750 50  0001 C CNN
F 1 "GNDD" H 7504 8845 50  0000 C CNN
F 2 "" H 7500 9000 50  0001 C CNN
F 3 "" H 7500 9000 50  0001 C CNN
	1    7500 9000
	1    0    0    -1  
$EndComp
$Comp
L power:GNDD #PWR0117
U 1 1 61C24F72
P 7350 9000
F 0 "#PWR0117" H 7350 8750 50  0001 C CNN
F 1 "GNDD" H 7354 8845 50  0000 C CNN
F 2 "" H 7350 9000 50  0001 C CNN
F 3 "" H 7350 9000 50  0001 C CNN
	1    7350 9000
	1    0    0    -1  
$EndComp
$Comp
L power:GNDD #PWR0118
U 1 1 61C251A9
P 7200 9000
F 0 "#PWR0118" H 7200 8750 50  0001 C CNN
F 1 "GNDD" H 7204 8845 50  0000 C CNN
F 2 "" H 7200 9000 50  0001 C CNN
F 3 "" H 7200 9000 50  0001 C CNN
	1    7200 9000
	1    0    0    -1  
$EndComp
$Comp
L power:GNDD #PWR0119
U 1 1 61C25314
P 8100 9000
F 0 "#PWR0119" H 8100 8750 50  0001 C CNN
F 1 "GNDD" H 8104 8845 50  0000 C CNN
F 2 "" H 8100 9000 50  0001 C CNN
F 3 "" H 8100 9000 50  0001 C CNN
	1    8100 9000
	1    0    0    -1  
$EndComp
Wire Wire Line
	8100 9000 8100 8900
Wire Wire Line
	7350 9000 7350 8900
Wire Wire Line
	7500 8900 7500 9000
Wire Wire Line
	7200 8900 7200 9000
Wire Wire Line
	8100 3250 8250 3250
$Comp
L Device:C C9
U 1 1 61C8446F
P 9250 3500
F 0 "C9" H 9365 3546 50  0000 L CNN
F 1 "100N" H 9365 3455 50  0000 L CNN
F 2 "Capacitor_SMD:C_0603_1608Metric_Pad1.08x0.95mm_HandSolder" H 9288 3350 50  0001 C CNN
F 3 "~" H 9250 3500 50  0001 C CNN
	1    9250 3500
	1    0    0    -1  
$EndComp
$Comp
L power:GNDD #PWR0120
U 1 1 61C84E17
P 9250 3750
F 0 "#PWR0120" H 9250 3500 50  0001 C CNN
F 1 "GNDD" H 9254 3595 50  0000 C CNN
F 2 "" H 9250 3750 50  0001 C CNN
F 3 "" H 9250 3750 50  0001 C CNN
	1    9250 3750
	1    0    0    -1  
$EndComp
Wire Wire Line
	9250 3750 9250 3650
Wire Wire Line
	9250 3350 9250 3250
Connection ~ 8250 3250
Wire Wire Line
	6600 2200 6600 2300
Wire Wire Line
	6700 2300 6600 2300
Wire Wire Line
	6600 2300 6600 2400
Connection ~ 6600 2300
$Comp
L power:GNDD #PWR0121
U 1 1 61D5F04D
P 8250 9000
F 0 "#PWR0121" H 8250 8750 50  0001 C CNN
F 1 "GNDD" H 8254 8845 50  0000 C CNN
F 2 "" H 8250 9000 50  0001 C CNN
F 3 "" H 8250 9000 50  0001 C CNN
	1    8250 9000
	1    0    0    -1  
$EndComp
Wire Wire Line
	8250 8900 8250 9000
$Comp
L Device:C C10
U 1 1 61D96981
P 5400 6300
F 0 "C10" H 5515 6346 50  0000 L CNN
F 1 "100N" H 5515 6255 50  0000 L CNN
F 2 "Capacitor_SMD:C_0603_1608Metric_Pad1.08x0.95mm_HandSolder" H 5438 6150 50  0001 C CNN
F 3 "~" H 5400 6300 50  0001 C CNN
	1    5400 6300
	1    0    0    -1  
$EndComp
$Comp
L Device:R R5
U 1 1 61D9980C
P 5400 5800
F 0 "R5" H 5470 5846 50  0000 L CNN
F 1 "10k" H 5470 5755 50  0000 L CNN
F 2 "Resistor_SMD:R_0603_1608Metric_Pad0.98x0.95mm_HandSolder" V 5330 5800 50  0001 C CNN
F 3 "~" H 5400 5800 50  0001 C CNN
	1    5400 5800
	1    0    0    -1  
$EndComp
Wire Wire Line
	5400 5950 5400 6050
Connection ~ 5400 6050
Wire Wire Line
	5400 6050 5250 6050
Wire Wire Line
	5400 6050 5400 6150
Wire Wire Line
	5400 6450 5400 6550
Wire Wire Line
	5400 5650 5400 5550
$Comp
L power:+3V3 #PWR0122
U 1 1 61DE0B89
P 7500 3100
F 0 "#PWR0122" H 7500 2950 50  0001 C CNN
F 1 "+3V3" H 7515 3273 50  0000 C CNN
F 2 "" H 7500 3100 50  0001 C CNN
F 3 "" H 7500 3100 50  0001 C CNN
	1    7500 3100
	1    0    0    -1  
$EndComp
Wire Wire Line
	7500 3250 7500 3100
$Comp
L power:+3V3 #PWR0123
U 1 1 61DEF61B
P 5400 5550
F 0 "#PWR0123" H 5400 5400 50  0001 C CNN
F 1 "+3V3" H 5415 5723 50  0000 C CNN
F 2 "" H 5400 5550 50  0001 C CNN
F 3 "" H 5400 5550 50  0001 C CNN
	1    5400 5550
	1    0    0    -1  
$EndComp
$Comp
L power:GNDD #PWR0124
U 1 1 61DF0525
P 5400 6550
F 0 "#PWR0124" H 5400 6300 50  0001 C CNN
F 1 "GNDD" H 5404 6395 50  0000 C CNN
F 2 "" H 5400 6550 50  0001 C CNN
F 3 "" H 5400 6550 50  0001 C CNN
	1    5400 6550
	1    0    0    -1  
$EndComp
Entry Wire Line
	5150 4850 5250 4950
Entry Wire Line
	5150 5150 5250 5250
Entry Wire Line
	5150 5950 5250 6050
Text Label 7500 2550 1    50   ~ 0
~RESET~
Text Label 7600 2550 1    50   ~ 0
SWD_CLK
Text Label 7700 2550 1    50   ~ 0
SWD_DIO
Text Label 9150 2550 1    50   ~ 0
~RESET~
Text Label 9250 2550 1    50   ~ 0
SWD_CLK
Text Label 9350 2550 1    50   ~ 0
SWD_DIO
Text Label 5500 6050 0    50   ~ 0
~RESET~
Text Label 5500 5250 0    50   ~ 0
SWD_DIO
Text Label 5500 4950 0    50   ~ 0
SWD_CLK
$Comp
L power:+3V3 #PWR0125
U 1 1 61E3EEF3
P 6700 850
F 0 "#PWR0125" H 6700 700 50  0001 C CNN
F 1 "+3V3" H 6715 1023 50  0000 C CNN
F 2 "" H 6700 850 50  0001 C CNN
F 3 "" H 6700 850 50  0001 C CNN
	1    6700 850 
	1    0    0    -1  
$EndComp
$Comp
L power:+3V3 #PWR0126
U 1 1 61E3F7EB
P 8600 900
F 0 "#PWR0126" H 8600 750 50  0001 C CNN
F 1 "+3V3" H 8615 1073 50  0000 C CNN
F 2 "" H 8600 900 50  0001 C CNN
F 3 "" H 8600 900 50  0001 C CNN
	1    8600 900 
	1    0    0    -1  
$EndComp
Entry Wire Line
	11450 6550 11550 6650
Text Label 11650 6250 0    50   ~ 0
\CS
Text Label 11650 6150 0    50   ~ 0
SCK
Text Label 11650 6050 0    50   ~ 0
MISO
Text Label 11650 5950 0    50   ~ 0
MOSI_FWD
Text Label 11650 8050 0    50   ~ 0
\CS
Text Label 11650 7950 0    50   ~ 0
SCK
Connection ~ 13100 7750
Wire Wire Line
	13100 7650 13100 7750
Connection ~ 13100 5950
Wire Wire Line
	13100 5850 13100 5950
Text Label 11650 7850 0    50   ~ 0
MISO
Text Label 11650 7750 0    50   ~ 0
MOSI_IN
Wire Wire Line
	12900 5850 13100 5850
Wire Wire Line
	12400 7850 11650 7850
Wire Wire Line
	11650 7950 12400 7950
Wire Wire Line
	12400 8050 11650 8050
Wire Wire Line
	11650 7750 12400 7750
Wire Wire Line
	12400 6250 11650 6250
Wire Wire Line
	11650 6150 12400 6150
Wire Wire Line
	12400 6050 11650 6050
Wire Wire Line
	11650 5950 12400 5950
Entry Wire Line
	11550 6150 11650 6250
Entry Wire Line
	11550 6050 11650 6150
Entry Wire Line
	11550 5950 11650 6050
Entry Wire Line
	11550 5850 11650 5950
Entry Wire Line
	11550 7950 11650 8050
Entry Wire Line
	11550 7850 11650 7950
Entry Wire Line
	11550 7750 11650 7850
Entry Wire Line
	11550 7650 11650 7750
Wire Wire Line
	12900 7650 13100 7650
Wire Wire Line
	12400 7650 12200 7650
Wire Wire Line
	12400 5850 12200 5850
Wire Wire Line
	13100 8050 13100 8200
Connection ~ 13100 8050
Wire Wire Line
	13100 8050 12900 8050
Wire Wire Line
	13100 7950 13100 8050
Connection ~ 13100 7950
Wire Wire Line
	12900 7950 13100 7950
Wire Wire Line
	13100 7850 13100 7950
Connection ~ 13100 7850
Wire Wire Line
	13100 7850 12900 7850
Wire Wire Line
	12900 7750 13100 7750
Wire Wire Line
	13100 6250 13100 6400
Connection ~ 13100 6250
Wire Wire Line
	12900 6250 13100 6250
Wire Wire Line
	13100 6150 13100 6250
Connection ~ 13100 6150
Wire Wire Line
	12900 6150 13100 6150
Wire Wire Line
	13100 6050 13100 6150
Connection ~ 13100 6050
Wire Wire Line
	13100 6050 12900 6050
Wire Wire Line
	12900 5950 13100 5950
Wire Wire Line
	13100 5950 13100 6050
Wire Wire Line
	13100 7750 13100 7850
Wire Wire Line
	12200 5850 12200 5700
Wire Wire Line
	12200 7650 12200 7500
$Comp
L power:GNDD #PWR0127
U 1 1 61954F2D
P 13100 6400
F 0 "#PWR0127" H 13100 6150 50  0001 C CNN
F 1 "GNDD" H 13104 6245 50  0000 C CNN
F 2 "" H 13100 6400 50  0001 C CNN
F 3 "" H 13100 6400 50  0001 C CNN
	1    13100 6400
	1    0    0    -1  
$EndComp
$Comp
L power:GNDD #PWR0128
U 1 1 619544E6
P 13100 8200
F 0 "#PWR0128" H 13100 7950 50  0001 C CNN
F 1 "GNDD" H 13104 8045 50  0000 C CNN
F 2 "" H 13100 8200 50  0001 C CNN
F 3 "" H 13100 8200 50  0001 C CNN
	1    13100 8200
	1    0    0    -1  
$EndComp
$Comp
L power:+5VP #PWR0129
U 1 1 61953DE1
P 12200 7500
F 0 "#PWR0129" H 12200 7350 50  0001 C CNN
F 1 "+5VP" H 12215 7673 50  0000 C CNN
F 2 "" H 12200 7500 50  0001 C CNN
F 3 "" H 12200 7500 50  0001 C CNN
	1    12200 7500
	1    0    0    -1  
$EndComp
$Comp
L Connector_Generic:Conn_02x05_Odd_Even J1_TO_MASTER1
U 1 1 6194CA9C
P 12600 7850
F 0 "J1_TO_MASTER1" H 12650 8267 50  0000 C CNN
F 1 "Conn_02x05_Odd_Even" H 12650 8176 50  0000 C CNN
F 2 "parts:IDC-Header_2x05_P2.54mm_Vertical_centered" H 12600 7850 50  0001 C CNN
F 3 "~" H 12600 7850 50  0001 C CNN
	1    12600 7850
	1    0    0    -1  
$EndComp
$Comp
L Connector_Generic:Conn_02x05_Odd_Even J2_TO_SLAVE1
U 1 1 6194C60A
P 12600 6050
F 0 "J2_TO_SLAVE1" H 12650 6467 50  0000 C CNN
F 1 "Conn_02x05_Odd_Even" H 12650 6376 50  0000 C CNN
F 2 "parts:IDC-Header_2x05_P2.54mm_Vertical_centered" H 12600 6050 50  0001 C CNN
F 3 "~" H 12600 6050 50  0001 C CNN
	1    12600 6050
	1    0    0    -1  
$EndComp
Wire Bus Line
	4250 10150 6350 10150
Connection ~ 6350 10150
Wire Bus Line
	6350 10150 10400 10150
Entry Wire Line
	6350 6150 6450 6250
Entry Wire Line
	6350 6250 6450 6350
Entry Wire Line
	6350 6350 6450 6450
Entry Wire Line
	6350 6450 6450 6550
Entry Wire Line
	10300 7850 10400 7950
Entry Wire Line
	10300 7650 10400 7750
Entry Wire Line
	10300 7450 10400 7550
Entry Wire Line
	10300 7250 10400 7350
Entry Wire Line
	10300 4950 10400 5050
Entry Wire Line
	10300 4850 10400 4950
Entry Wire Line
	10300 4750 10400 4850
Wire Wire Line
	9250 7850 10300 7850
Wire Wire Line
	9250 7650 10300 7650
Wire Wire Line
	9250 7450 10300 7450
Wire Wire Line
	9250 7250 10300 7250
Wire Wire Line
	9250 4750 10300 4750
Wire Wire Line
	9250 4850 10300 4850
Wire Wire Line
	9250 4950 10300 4950
Text Notes 5550 2750 0    50   ~ 0
SWD
Wire Wire Line
	6450 6250 6850 6250
Wire Wire Line
	6450 6350 6850 6350
Wire Wire Line
	6450 6450 6850 6450
Wire Wire Line
	6450 6550 6850 6550
Wire Wire Line
	9350 1600 9350 2650
Wire Wire Line
	7700 1600 7700 2650
Wire Wire Line
	9150 1400 9150 2650
Wire Wire Line
	9250 1500 9250 2650
Wire Wire Line
	7600 1500 7600 2650
Wire Wire Line
	7500 1300 7500 2650
Entry Wire Line
	9350 2650 9450 2750
Entry Wire Line
	9250 2650 9350 2750
Entry Wire Line
	9150 2650 9250 2750
Entry Wire Line
	7700 2650 7800 2750
Entry Wire Line
	7600 2650 7700 2750
Entry Wire Line
	7500 2650 7600 2750
Entry Wire Line
	9750 6250 9850 6350
Entry Wire Line
	9750 6150 9850 6250
Entry Wire Line
	9750 6050 9850 6150
Entry Wire Line
	9750 5950 9850 6050
Entry Wire Line
	9750 5250 9850 5350
Entry Wire Line
	9750 5150 9850 5250
Entry Wire Line
	9750 5850 9850 5950
Entry Wire Line
	9750 5750 9850 5850
Wire Wire Line
	9250 6350 9650 6350
Wire Wire Line
	9650 6350 9650 6250
Wire Wire Line
	9650 6250 9750 6250
Wire Wire Line
	9750 6150 9550 6150
Wire Wire Line
	9550 6150 9550 6250
Wire Wire Line
	9550 6250 9250 6250
Wire Wire Line
	9250 6150 9450 6150
Wire Wire Line
	9450 6150 9450 6050
Wire Wire Line
	9450 6050 9750 6050
Wire Wire Line
	9750 5950 9350 5950
Wire Wire Line
	9350 5950 9350 6050
Wire Wire Line
	9350 6050 9250 6050
Wire Wire Line
	9250 5250 9750 5250
Wire Wire Line
	9750 5150 9250 5150
Wire Wire Line
	9250 5850 9750 5850
Wire Wire Line
	9750 5750 9250 5750
$Comp
L Connector_Generic:Conn_02x05_Odd_Even J3_GPIO1
U 1 1 622AF10F
P 12150 3200
F 0 "J3_GPIO1" H 12200 3617 50  0000 C CNN
F 1 "Conn_02x05_Odd_Even" H 12200 3526 50  0000 C CNN
F 2 "parts:IDC-Header_2x05_P2.54mm_Vertical_centered" H 12150 3200 50  0001 C CNN
F 3 "~" H 12150 3200 50  0001 C CNN
	1    12150 3200
	1    0    0    -1  
$EndComp
$Comp
L power:GNDD #PWR0132
U 1 1 622B35B4
P 13100 3100
F 0 "#PWR0132" H 13100 2850 50  0001 C CNN
F 1 "GNDD" H 13104 2945 50  0000 C CNN
F 2 "" H 13100 3100 50  0001 C CNN
F 3 "" H 13100 3100 50  0001 C CNN
	1    13100 3100
	1    0    0    -1  
$EndComp
Wire Wire Line
	12450 3400 12550 3400
Wire Wire Line
	12550 3400 12550 3700
Wire Wire Line
	12450 3300 12650 3300
Wire Wire Line
	12650 3300 12650 3700
Wire Wire Line
	12450 3200 12750 3200
Wire Wire Line
	12750 3200 12750 3700
Wire Wire Line
	12450 3100 12850 3100
Wire Wire Line
	12850 3100 12850 3700
Wire Wire Line
	11950 3400 11850 3400
Wire Wire Line
	11850 3400 11850 3700
Wire Wire Line
	11950 3300 11750 3300
Wire Wire Line
	11750 3300 11750 3700
Wire Wire Line
	11950 3200 11650 3200
Wire Wire Line
	11650 3200 11650 3700
Wire Wire Line
	11950 3100 11550 3100
Wire Wire Line
	11550 3100 11550 3700
Wire Wire Line
	12450 3000 13100 3000
Wire Wire Line
	13100 3000 13100 3100
Wire Wire Line
	11800 2850 11800 3000
Wire Wire Line
	11800 3000 11950 3000
Entry Wire Line
	11550 3700 11650 3800
Entry Wire Line
	11650 3700 11750 3800
Entry Wire Line
	11750 3700 11850 3800
Entry Wire Line
	11850 3700 11950 3800
Entry Wire Line
	12550 3700 12650 3800
Entry Wire Line
	12650 3700 12750 3800
Entry Wire Line
	12750 3700 12850 3800
Entry Wire Line
	12850 3700 12950 3800
$Comp
L Device:LED D3
U 1 1 623819F4
P 11250 4650
F 0 "D3" V 11289 4532 50  0000 R CNN
F 1 "LED" V 11198 4532 50  0000 R CNN
F 2 "LED_SMD:LED_1206_3216Metric_Pad1.42x1.75mm_HandSolder" H 11250 4650 50  0001 C CNN
F 3 "~" H 11250 4650 50  0001 C CNN
	1    11250 4650
	0    -1   -1   0   
$EndComp
$Comp
L Device:LED D4
U 1 1 6239544E
P 11650 4650
F 0 "D4" V 11689 4532 50  0000 R CNN
F 1 "LED" V 11598 4532 50  0000 R CNN
F 2 "LED_SMD:LED_1206_3216Metric_Pad1.42x1.75mm_HandSolder" H 11650 4650 50  0001 C CNN
F 3 "~" H 11650 4650 50  0001 C CNN
	1    11650 4650
	0    -1   -1   0   
$EndComp
$Comp
L Device:R R3
U 1 1 62395DDA
P 11250 4250
F 0 "R3" H 11180 4204 50  0000 R CNN
F 1 "2k2" H 11180 4295 50  0000 R CNN
F 2 "Resistor_SMD:R_0603_1608Metric_Pad0.98x0.95mm_HandSolder" V 11180 4250 50  0001 C CNN
F 3 "~" H 11250 4250 50  0001 C CNN
	1    11250 4250
	-1   0    0    1   
$EndComp
$Comp
L Device:R R4
U 1 1 6239618A
P 11650 4250
F 0 "R4" H 11580 4204 50  0000 R CNN
F 1 "2k2" H 11580 4295 50  0000 R CNN
F 2 "Resistor_SMD:R_0603_1608Metric_Pad0.98x0.95mm_HandSolder" V 11580 4250 50  0001 C CNN
F 3 "~" H 11650 4250 50  0001 C CNN
	1    11650 4250
	-1   0    0    1   
$EndComp
$Comp
L power:GNDD #PWR0133
U 1 1 623986A7
P 11250 4900
F 0 "#PWR0133" H 11250 4650 50  0001 C CNN
F 1 "GNDD" H 11254 4745 50  0000 C CNN
F 2 "" H 11250 4900 50  0001 C CNN
F 3 "" H 11250 4900 50  0001 C CNN
	1    11250 4900
	1    0    0    -1  
$EndComp
Text Notes 10050 3800 0    50   ~ 0
GPIO
$Comp
L power:GNDD #PWR0134
U 1 1 624191C3
P 11650 4900
F 0 "#PWR0134" H 11650 4650 50  0001 C CNN
F 1 "GNDD" H 11654 4745 50  0000 C CNN
F 2 "" H 11650 4900 50  0001 C CNN
F 3 "" H 11650 4900 50  0001 C CNN
	1    11650 4900
	1    0    0    -1  
$EndComp
Wire Wire Line
	11650 4900 11650 4800
Wire Wire Line
	11650 4500 11650 4400
Wire Wire Line
	11650 4100 11650 3900
Wire Wire Line
	11250 3900 11250 4100
Wire Wire Line
	11250 4400 11250 4500
Wire Wire Line
	11250 4800 11250 4900
Wire Wire Line
	9250 5650 9750 5650
Wire Wire Line
	9750 5550 9250 5550
Entry Wire Line
	11550 3800 11650 3900
Entry Wire Line
	11150 3800 11250 3900
Entry Wire Line
	9750 5550 9850 5650
Entry Wire Line
	9750 5650 9850 5750
Wire Wire Line
	9250 7750 10300 7750
Wire Wire Line
	10300 7950 9250 7950
Entry Wire Line
	10300 7750 10400 7850
Entry Wire Line
	10300 7950 10400 8050
Text Label 9300 7650 0    50   ~ 0
VREF_I_C
Text Label 9300 7850 0    50   ~ 0
VREF_I_B
Wire Wire Line
	9250 7350 10300 7350
Wire Wire Line
	10300 7550 9250 7550
Entry Wire Line
	10300 7350 10400 7450
Entry Wire Line
	10300 7550 10400 7650
Text Label 9300 7450 0    50   ~ 0
VREF_I_D
Text Label 9300 7250 0    50   ~ 0
VREF_I_E
Text Label 6500 6350 0    50   ~ 0
VOUT_I_A
Text Label 9300 7950 0    50   ~ 0
VOUT_I_B
Text Label 9300 7750 0    50   ~ 0
VOUT_I_C
Text Label 9300 7550 0    50   ~ 0
VOUT_I_D
Text Notes 9300 7150 0    39   ~ 0
KL25 does not have MISO on PTE0.
$Comp
L Device:R R1
U 1 1 619D09D5
P 4200 1750
F 0 "R1" H 4270 1796 50  0000 L CNN
F 1 "2k2" H 4270 1705 50  0000 L CNN
F 2 "Resistor_SMD:R_0603_1608Metric_Pad0.98x0.95mm_HandSolder" V 4130 1750 50  0001 C CNN
F 3 "~" H 4200 1750 50  0001 C CNN
	1    4200 1750
	1    0    0    -1  
$EndComp
$Comp
L power:GNDD #PWR0135
U 1 1 619D1BD7
P 4900 2000
F 0 "#PWR0135" H 4900 1750 50  0001 C CNN
F 1 "GNDD" H 4904 1845 50  0000 C CNN
F 2 "" H 4900 2000 50  0001 C CNN
F 3 "" H 4900 2000 50  0001 C CNN
	1    4900 2000
	1    0    0    -1  
$EndComp
Wire Wire Line
	4900 2000 4900 1900
Wire Wire Line
	4200 1600 4200 1500
Text Notes 4400 2450 0    50   ~ 0
1mA load bias to prevent\nsource/sink transitions
$Comp
L Device:R R2
U 1 1 61A0FA5F
P 4900 1750
F 0 "R2" H 4970 1796 50  0000 L CNN
F 1 "1k5" H 4970 1705 50  0000 L CNN
F 2 "Resistor_SMD:R_0603_1608Metric_Pad0.98x0.95mm_HandSolder" V 4830 1750 50  0001 C CNN
F 3 "~" H 4900 1750 50  0001 C CNN
	1    4900 1750
	1    0    0    -1  
$EndComp
$Comp
L Device:C C4
U 1 1 61A40569
P 4200 2150
F 0 "C4" H 4315 2196 50  0000 L CNN
F 1 "10u" H 4315 2105 50  0000 L CNN
F 2 "Capacitor_SMD:C_0603_1608Metric_Pad1.08x0.95mm_HandSolder" H 4238 2000 50  0001 C CNN
F 3 "~" H 4200 2150 50  0001 C CNN
	1    4200 2150
	1    0    0    -1  
$EndComp
$Comp
L Device:C C1
U 1 1 61A40BE2
P 4550 1750
F 0 "C1" H 4665 1796 50  0000 L CNN
F 1 "10n" H 4665 1705 50  0000 L CNN
F 2 "Capacitor_SMD:C_0603_1608Metric_Pad1.08x0.95mm_HandSolder" H 4588 1600 50  0001 C CNN
F 3 "~" H 4550 1750 50  0001 C CNN
	1    4550 1750
	1    0    0    -1  
$EndComp
$Comp
L power:GNDD #PWR0136
U 1 1 61A4137A
P 4550 2000
F 0 "#PWR0136" H 4550 1750 50  0001 C CNN
F 1 "GNDD" H 4554 1845 50  0000 C CNN
F 2 "" H 4550 2000 50  0001 C CNN
F 3 "" H 4550 2000 50  0001 C CNN
	1    4550 2000
	1    0    0    -1  
$EndComp
$Comp
L power:GNDD #PWR0137
U 1 1 61A41AF2
P 4200 2400
F 0 "#PWR0137" H 4200 2150 50  0001 C CNN
F 1 "GNDD" H 4204 2245 50  0000 C CNN
F 2 "" H 4200 2400 50  0001 C CNN
F 3 "" H 4200 2400 50  0001 C CNN
	1    4200 2400
	1    0    0    -1  
$EndComp
Wire Wire Line
	4200 2400 4200 2300
Wire Wire Line
	4200 2000 4200 1900
Wire Wire Line
	4550 2000 4550 1900
Wire Wire Line
	4550 1600 4550 1500
Wire Wire Line
	4550 1500 4200 1500
Connection ~ 4200 1500
Wire Wire Line
	4550 1500 4900 1500
Wire Wire Line
	4900 1500 4900 1600
Connection ~ 4550 1500
Wire Notes Line
	4000 2650 5400 2650
Wire Notes Line
	5400 2650 5400 1400
Wire Notes Line
	5400 1400 4000 1400
Wire Notes Line
	4000 1400 4000 2650
Text Notes 4050 1350 0    50   ~ 0
Optional
$Comp
L Power_Protection:SP0502BAHT D2
U 1 1 61BABD1C
P 850 1550
F 0 "D2" H 1055 1596 50  0000 L CNN
F 1 "CPDT-5V0U" H 900 1400 50  0000 L CNN
F 2 "Package_TO_SOT_SMD:SOT-23_Handsoldering" H 1075 1500 50  0001 L CNN
F 3 "http://www.littelfuse.com/~/media/files/littelfuse/technical%20resources/documents/data%20sheets/sp05xxba.pdf" H 975 1675 50  0001 C CNN
	1    850  1550
	1    0    0    -1  
$EndComp
Wire Wire Line
	1250 1250 950  1250
Wire Wire Line
	950  1250 950  1350
Wire Wire Line
	950  1250 750  1250
Wire Wire Line
	750  1250 750  1350
Connection ~ 950  1250
$Comp
L power:GNDD #PWR0138
U 1 1 61C0C8F8
P 850 1850
F 0 "#PWR0138" H 850 1600 50  0001 C CNN
F 1 "GNDD" H 854 1695 50  0000 C CNN
F 2 "" H 850 1850 50  0001 C CNN
F 3 "" H 850 1850 50  0001 C CNN
	1    850  1850
	1    0    0    -1  
$EndComp
Wire Wire Line
	850  1850 850  1750
Text Label 9350 5550 0    50   ~ 0
GPIO1
Text Label 9350 5650 0    50   ~ 0
GPIO2
Text Label 9350 5750 0    50   ~ 0
GPIO3
Text Label 9350 5850 0    50   ~ 0
GPIO4
Text Label 9350 5950 0    50   ~ 0
GPIO5
Text Label 9450 6050 0    50   ~ 0
GPIO6
Text Label 9300 6250 0    50   ~ 0
GPIO7
Text Label 9300 6350 0    50   ~ 0
GPIO8
Text Label 9350 5150 0    50   ~ 0
LED1
Text Label 9350 5250 0    50   ~ 0
LED2
Text Label 12500 3100 0    50   ~ 0
GPIO2
Text Label 12500 3200 0    50   ~ 0
GPIO4
Text Label 12500 3300 0    50   ~ 0
GPIO6
Text Label 12500 3400 0    50   ~ 0
GPIO8
Text Label 11850 3500 0    50   ~ 0
GPIO7
Text Label 11750 3300 0    50   ~ 0
GPIO5
Text Label 11750 3200 0    50   ~ 0
GPIO3
Text Label 11750 3100 0    50   ~ 0
GPIO1
Text Label 11650 4050 0    50   ~ 0
LED2
Text Label 11250 4050 0    50   ~ 0
LED1
Text Label 3300 5200 0    50   ~ 0
VOUT_I_A
Text Label 3300 6350 0    50   ~ 0
VOUT_I_B
Text Label 3300 7500 0    50   ~ 0
VOUT_I_C
Text Label 3300 8650 0    50   ~ 0
VOUT_I_D
Text Label 3300 9800 0    50   ~ 0
VOUT_I_E
Text Label 3300 5000 0    50   ~ 0
VOUT_V_A
Text Label 3300 6150 0    50   ~ 0
VOUT_V_B
Text Label 3300 7300 0    50   ~ 0
VOUT_V_C
Text Label 3300 8450 0    50   ~ 0
VOUT_V_D
Text Label 3300 9600 0    50   ~ 0
VOUT_V_E
Text Label 6500 6250 0    50   ~ 0
VREF_I_A
Text Label 9300 7350 0    50   ~ 0
VOUT_I_E
Text Label 6500 6450 0    50   ~ 0
VOUT_V_A
Text Label 6500 6550 0    50   ~ 0
VOUT_V_B
Text Label 9350 4750 0    50   ~ 0
VOUT_V_C
Text Label 9350 4850 0    50   ~ 0
VOUT_V_D
Text Label 9350 4950 0    50   ~ 0
VOUT_V_E
Wire Wire Line
	8100 3250 8100 4000
Wire Wire Line
	8250 3250 8250 4000
Wire Wire Line
	7500 3250 7500 4000
Wire Wire Line
	7350 3250 7350 4000
Wire Wire Line
	7200 3250 7200 4000
$Comp
L Device:R R10
U 1 1 61BDF66C
P 6750 4700
F 0 "R10" H 6820 4746 50  0000 L CNN
F 1 "10k" H 6820 4655 50  0000 L CNN
F 2 "Resistor_SMD:R_0603_1608Metric_Pad0.98x0.95mm_HandSolder" V 6680 4700 50  0001 C CNN
F 3 "~" H 6750 4700 50  0001 C CNN
	1    6750 4700
	1    0    0    -1  
$EndComp
$Comp
L power:+3V3 #PWR0194
U 1 1 61BE0F08
P 6750 4450
F 0 "#PWR0194" H 6750 4300 50  0001 C CNN
F 1 "+3V3" H 6765 4623 50  0000 C CNN
F 2 "" H 6750 4450 50  0001 C CNN
F 3 "" H 6750 4450 50  0001 C CNN
	1    6750 4450
	1    0    0    -1  
$EndComp
Wire Wire Line
	6750 4450 6750 4550
Wire Wire Line
	6750 4850 6750 5350
Wire Wire Line
	6750 5350 6850 5350
$Comp
L Device:R R6
U 1 1 61C0DC77
P 6400 4700
F 0 "R6" H 6470 4746 50  0000 L CNN
F 1 "10k" H 6470 4655 50  0000 L CNN
F 2 "Resistor_SMD:R_0603_1608Metric_Pad0.98x0.95mm_HandSolder" V 6330 4700 50  0001 C CNN
F 3 "~" H 6400 4700 50  0001 C CNN
	1    6400 4700
	1    0    0    -1  
$EndComp
$Comp
L Device:R R14
U 1 1 61C0E1B8
P 6550 5500
F 0 "R14" H 6620 5546 50  0000 L CNN
F 1 "10k" H 6620 5455 50  0000 L CNN
F 2 "Resistor_SMD:R_0603_1608Metric_Pad0.98x0.95mm_HandSolder" V 6480 5500 50  0001 C CNN
F 3 "~" H 6550 5500 50  0001 C CNN
	1    6550 5500
	1    0    0    -1  
$EndComp
$Comp
L power:GNDD #PWR0195
U 1 1 61C0E5DA
P 6550 5750
F 0 "#PWR0195" H 6550 5500 50  0001 C CNN
F 1 "GNDD" H 6554 5595 50  0000 C CNN
F 2 "" H 6550 5750 50  0001 C CNN
F 3 "" H 6550 5750 50  0001 C CNN
	1    6550 5750
	1    0    0    -1  
$EndComp
$Comp
L power:+3V3 #PWR0196
U 1 1 61C0E9B6
P 6400 4450
F 0 "#PWR0196" H 6400 4300 50  0001 C CNN
F 1 "+3V3" H 6415 4623 50  0000 C CNN
F 2 "" H 6400 4450 50  0001 C CNN
F 3 "" H 6400 4450 50  0001 C CNN
	1    6400 4450
	1    0    0    -1  
$EndComp
Wire Wire Line
	6400 4450 6400 4550
Wire Wire Line
	6400 4850 6400 5250
Connection ~ 6400 5250
Wire Wire Line
	6400 5250 6850 5250
Wire Wire Line
	6550 5350 6550 4950
Connection ~ 6550 4950
Wire Wire Line
	6550 4950 6850 4950
Wire Wire Line
	6550 5650 6550 5750
Wire Wire Line
	3350 950  3450 950 
Wire Wire Line
	3450 950  3450 1050
Connection ~ 3450 1050
Wire Wire Line
	3050 700  3050 750 
Wire Wire Line
	8250 3250 9250 3250
Wire Wire Line
	5550 3250 5950 3250
Wire Wire Line
	3200 5750 3950 5750
Wire Wire Line
	3200 6150 4150 6150
Wire Wire Line
	3200 6350 4150 6350
Wire Wire Line
	5400 6050 6850 6050
Wire Wire Line
	5250 4950 6550 4950
Wire Wire Line
	5250 5250 6400 5250
Connection ~ 5950 3250
Wire Wire Line
	9250 8350 10300 8350
Entry Wire Line
	10300 8350 10400 8450
Text Label 9300 8350 0    50   ~ 0
VREF_1.5V
Text Label 6750 5150 1    50   ~ 0
NMI
$Comp
L power:+5VP #PWR0130
U 1 1 61AF34D3
P 750 850
F 0 "#PWR0130" H 750 700 50  0001 C CNN
F 1 "+5VP" H 765 1023 50  0000 C CNN
F 2 "" H 750 850 50  0001 C CNN
F 3 "" H 750 850 50  0001 C CNN
	1    750  850 
	1    0    0    -1  
$EndComp
$Comp
L Device:Ferrite_Bead FB2
U 1 1 61AF7DD1
P 1000 1050
F 0 "FB2" H 863 1004 50  0000 R CNN
F 1 "330R" H 863 1095 50  0000 R CNN
F 2 "Inductor_SMD:L_0603_1608Metric_Pad1.05x0.95mm_HandSolder" V 930 1050 50  0001 C CNN
F 3 "~" H 1000 1050 50  0001 C CNN
	1    1000 1050
	0    1    1    0   
$EndComp
Wire Wire Line
	1250 1050 1150 1050
Wire Wire Line
	850  1050 750  1050
Wire Wire Line
	750  1050 750  900 
$Comp
L power:+5VP #PWR0131
U 1 1 61BD037E
P 12200 5700
F 0 "#PWR0131" H 12200 5550 50  0001 C CNN
F 1 "+5VP" H 12215 5873 50  0000 C CNN
F 2 "" H 12200 5700 50  0001 C CNN
F 3 "" H 12200 5700 50  0001 C CNN
	1    12200 5700
	1    0    0    -1  
$EndComp
$Comp
L power:+5VP #PWR0197
U 1 1 61BD0A77
P 11800 2850
F 0 "#PWR0197" H 11800 2700 50  0001 C CNN
F 1 "+5VP" H 11815 3023 50  0000 C CNN
F 2 "" H 11800 2850 50  0001 C CNN
F 3 "" H 11800 2850 50  0001 C CNN
	1    11800 2850
	1    0    0    -1  
$EndComp
$Comp
L Device:C C31
U 1 1 61E28D64
P 600 1150
F 0 "C31" H 715 1196 50  0000 L CNN
F 1 "100n" H 715 1105 50  0000 L CNN
F 2 "Capacitor_SMD:C_0603_1608Metric_Pad1.08x0.95mm_HandSolder" H 638 1000 50  0001 C CNN
F 3 "~" H 600 1150 50  0001 C CNN
	1    600  1150
	1    0    0    -1  
$EndComp
Wire Wire Line
	600  1000 600  900 
Wire Wire Line
	600  900  750  900 
Connection ~ 750  900 
Wire Wire Line
	750  900  750  850 
$Comp
L power:GNDD #PWR0203
U 1 1 61E5E13D
P 600 1400
F 0 "#PWR0203" H 600 1150 50  0001 C CNN
F 1 "GNDD" H 604 1245 50  0000 C CNN
F 2 "" H 600 1400 50  0001 C CNN
F 3 "" H 600 1400 50  0001 C CNN
	1    600  1400
	1    0    0    -1  
$EndComp
Wire Wire Line
	600  1400 600  1300
Wire Wire Line
	2200 8050 2200 7950
$Comp
L Connector:Screw_Terminal_01x02 J9
U 1 1 61FB7D1E
P 2300 7750
F 0 "J9" V 2264 7562 50  0000 R CNN
F 1 "Screw_Terminal_01x02" V 2173 7562 50  0000 R CNN
F 2 "TerminalBlock_MetzConnect:TerminalBlock_MetzConnect_Type701_RT11L02HGLU_1x02_P6.35mm_Horizontal" H 2300 7750 50  0001 C CNN
F 3 "~" H 2300 7750 50  0001 C CNN
	1    2300 7750
	0    1    -1   0   
$EndComp
$Comp
L Connector:Screw_Terminal_01x02 J11
U 1 1 62045C7C
P 2300 8550
F 0 "J11" V 2172 8630 50  0000 L CNN
F 1 "Screw_Terminal_01x02" V 2263 8630 50  0000 L CNN
F 2 "TerminalBlock_MetzConnect:TerminalBlock_MetzConnect_Type701_RT11L02HGLU_1x02_P6.35mm_Horizontal" H 2300 8550 50  0001 C CNN
F 3 "~" H 2300 8550 50  0001 C CNN
	1    2300 8550
	0    1    1    0   
$EndComp
$Comp
L Mechanical:MountingHole_Pad H1
U 1 1 621A7ADE
P 13550 1100
F 0 "H1" H 13650 1149 50  0000 L CNN
F 1 "MountingHole_Pad" H 13650 1058 50  0000 L CNN
F 2 "MountingHole:MountingHole_3.2mm_M3_DIN965_Pad" H 13550 1100 50  0001 C CNN
F 3 "~" H 13550 1100 50  0001 C CNN
	1    13550 1100
	1    0    0    -1  
$EndComp
$Comp
L power:GNDD #PWR0204
U 1 1 621A86F4
P 13550 1200
F 0 "#PWR0204" H 13550 950 50  0001 C CNN
F 1 "GNDD" H 13554 1045 50  0000 C CNN
F 2 "" H 13550 1200 50  0001 C CNN
F 3 "" H 13550 1200 50  0001 C CNN
	1    13550 1200
	1    0    0    -1  
$EndComp
$Comp
L Mechanical:MountingHole_Pad H2
U 1 1 621C0A06
P 13850 1100
F 0 "H2" H 13950 1149 50  0000 L CNN
F 1 "MountingHole_Pad" H 13950 1058 50  0000 L CNN
F 2 "MountingHole:MountingHole_3.2mm_M3_DIN965_Pad" H 13850 1100 50  0001 C CNN
F 3 "~" H 13850 1100 50  0001 C CNN
	1    13850 1100
	1    0    0    -1  
$EndComp
$Comp
L power:GNDD #PWR0205
U 1 1 621C0A0C
P 13850 1200
F 0 "#PWR0205" H 13850 950 50  0001 C CNN
F 1 "GNDD" H 13854 1045 50  0000 C CNN
F 2 "" H 13850 1200 50  0001 C CNN
F 3 "" H 13850 1200 50  0001 C CNN
	1    13850 1200
	1    0    0    -1  
$EndComp
$Comp
L Mechanical:MountingHole_Pad H3
U 1 1 621D724E
P 14150 1100
F 0 "H3" H 14250 1149 50  0000 L CNN
F 1 "MountingHole_Pad" H 14250 1058 50  0000 L CNN
F 2 "MountingHole:MountingHole_3.2mm_M3_DIN965_Pad" H 14150 1100 50  0001 C CNN
F 3 "~" H 14150 1100 50  0001 C CNN
	1    14150 1100
	1    0    0    -1  
$EndComp
$Comp
L power:GNDD #PWR0206
U 1 1 621D7254
P 14150 1200
F 0 "#PWR0206" H 14150 950 50  0001 C CNN
F 1 "GNDD" H 14154 1045 50  0000 C CNN
F 2 "" H 14150 1200 50  0001 C CNN
F 3 "" H 14150 1200 50  0001 C CNN
	1    14150 1200
	1    0    0    -1  
$EndComp
$Comp
L Mechanical:MountingHole_Pad H4
U 1 1 621EE144
P 14450 1100
F 0 "H4" H 14550 1149 50  0000 L CNN
F 1 "MountingHole_Pad" H 14550 1058 50  0000 L CNN
F 2 "MountingHole:MountingHole_3.2mm_M3_DIN965_Pad" H 14450 1100 50  0001 C CNN
F 3 "~" H 14450 1100 50  0001 C CNN
	1    14450 1100
	1    0    0    -1  
$EndComp
$Comp
L power:GNDD #PWR0207
U 1 1 621EE14A
P 14450 1200
F 0 "#PWR0207" H 14450 950 50  0001 C CNN
F 1 "GNDD" H 14454 1045 50  0000 C CNN
F 2 "" H 14450 1200 50  0001 C CNN
F 3 "" H 14450 1200 50  0001 C CNN
	1    14450 1200
	1    0    0    -1  
$EndComp
Wire Wire Line
	2300 9400 2550 9400
$Comp
L Connector:Screw_Terminal_01x02 J10
U 1 1 61A5EB40
P 2300 9700
F 0 "J10" V 2172 9780 50  0000 L CNN
F 1 "Screw_Terminal_01x02" V 2263 9780 50  0000 L CNN
F 2 "TerminalBlock_MetzConnect:TerminalBlock_MetzConnect_Type701_RT11L02HGLU_1x02_P6.35mm_Horizontal" H 2300 9700 50  0001 C CNN
F 3 "~" H 2300 9700 50  0001 C CNN
	1    2300 9700
	0    1    1    0   
$EndComp
Connection ~ 2300 9200
Wire Wire Line
	2300 8250 2550 8250
Connection ~ 2300 8050
Wire Wire Line
	2300 8050 2550 8050
Wire Wire Line
	2300 4900 2300 4800
Wire Wire Line
	2300 4800 2200 4800
Wire Wire Line
	2200 4800 2200 4900
Wire Wire Line
	2300 4500 2300 4600
Wire Wire Line
	2300 4600 2200 4600
Connection ~ 2300 4800
Wire Wire Line
	2200 4600 2200 4500
$Comp
L Connector:Screw_Terminal_01x02 J4
U 1 1 623971CF
P 2300 4300
F 0 "J4" V 2264 4112 50  0000 R CNN
F 1 "Screw_Terminal_01x02" V 2173 4112 50  0000 R CNN
F 2 "TerminalBlock_MetzConnect:TerminalBlock_MetzConnect_Type701_RT11L02HGLU_1x02_P6.35mm_Horizontal" H 2300 4300 50  0001 C CNN
F 3 "~" H 2300 4300 50  0001 C CNN
	1    2300 4300
	0    1    -1   0   
$EndComp
$Comp
L Connector:Screw_Terminal_01x02 J5
U 1 1 623971D5
P 2300 5100
F 0 "J5" V 2172 5180 50  0000 L CNN
F 1 "Screw_Terminal_01x02" V 2263 5180 50  0000 L CNN
F 2 "TerminalBlock_MetzConnect:TerminalBlock_MetzConnect_Type701_RT11L02HGLU_1x02_P6.35mm_Horizontal" H 2300 5100 50  0001 C CNN
F 3 "~" H 2300 5100 50  0001 C CNN
	1    2300 5100
	0    1    1    0   
$EndComp
Wire Wire Line
	2300 4800 2550 4800
Connection ~ 2300 4600
Wire Wire Line
	2300 4600 2550 4600
Wire Wire Line
	2300 6050 2300 5950
Wire Wire Line
	2300 5950 2200 5950
Wire Wire Line
	2200 5950 2200 6050
Wire Wire Line
	2300 5650 2300 5750
Wire Wire Line
	2300 5750 2200 5750
Connection ~ 2300 5950
Wire Wire Line
	2200 5750 2200 5650
$Comp
L Connector:Screw_Terminal_01x02 J6
U 1 1 623AAB4E
P 2300 5450
F 0 "J6" V 2264 5262 50  0000 R CNN
F 1 "Screw_Terminal_01x02" V 2173 5262 50  0000 R CNN
F 2 "TerminalBlock_MetzConnect:TerminalBlock_MetzConnect_Type701_RT11L02HGLU_1x02_P6.35mm_Horizontal" H 2300 5450 50  0001 C CNN
F 3 "~" H 2300 5450 50  0001 C CNN
	1    2300 5450
	0    1    -1   0   
$EndComp
$Comp
L Connector:Screw_Terminal_01x02 J7
U 1 1 623AAB54
P 2300 6250
F 0 "J7" V 2172 6330 50  0000 L CNN
F 1 "Screw_Terminal_01x02" V 2263 6330 50  0000 L CNN
F 2 "TerminalBlock_MetzConnect:TerminalBlock_MetzConnect_Type701_RT11L02HGLU_1x02_P6.35mm_Horizontal" H 2300 6250 50  0001 C CNN
F 3 "~" H 2300 6250 50  0001 C CNN
	1    2300 6250
	0    1    1    0   
$EndComp
Wire Wire Line
	2300 5950 2550 5950
Connection ~ 2300 5750
Wire Wire Line
	2300 5750 2550 5750
Wire Wire Line
	2300 7200 2300 7100
Wire Wire Line
	2300 7100 2200 7100
Wire Wire Line
	2200 7100 2200 7200
Wire Wire Line
	2300 6800 2300 6900
Wire Wire Line
	2300 6900 2200 6900
Connection ~ 2300 7100
Wire Wire Line
	2200 6900 2200 6800
$Comp
L Connector:Screw_Terminal_01x02 J12
U 1 1 623C02FE
P 2300 6600
F 0 "J12" V 2264 6412 50  0000 R CNN
F 1 "Screw_Terminal_01x02" V 2173 6412 50  0000 R CNN
F 2 "TerminalBlock_MetzConnect:TerminalBlock_MetzConnect_Type701_RT11L02HGLU_1x02_P6.35mm_Horizontal" H 2300 6600 50  0001 C CNN
F 3 "~" H 2300 6600 50  0001 C CNN
	1    2300 6600
	0    1    -1   0   
$EndComp
$Comp
L Connector:Screw_Terminal_01x02 J13
U 1 1 623C0304
P 2300 7400
F 0 "J13" V 2172 7480 50  0000 L CNN
F 1 "Screw_Terminal_01x02" V 2263 7480 50  0000 L CNN
F 2 "TerminalBlock_MetzConnect:TerminalBlock_MetzConnect_Type701_RT11L02HGLU_1x02_P6.35mm_Horizontal" H 2300 7400 50  0001 C CNN
F 3 "~" H 2300 7400 50  0001 C CNN
	1    2300 7400
	0    1    1    0   
$EndComp
Wire Wire Line
	2300 7100 2550 7100
Connection ~ 2300 6900
Wire Wire Line
	2300 6900 2550 6900
Wire Wire Line
	3850 1500 3950 1500
Connection ~ 3950 1500
Wire Wire Line
	3950 1500 4200 1500
Wire Wire Line
	3950 8050 3950 9200
Wire Wire Line
	3950 1500 3950 4600
Entry Wire Line
	4150 4800 4250 4900
Text Label 3300 4800 0    50   ~ 0
VREF_I_A
$Sheet
S 2550 4450 650  950 
U 61A59C10
F0 "Sensor_A" 50
F1 "sensor-hall-shunt-voltage.sch" 50
F2 "+IN" I L 2550 4600 50 
F3 "-IN" I L 2550 4800 50 
F4 "VREF" I R 3200 4600 50 
F5 "VOUT_I" I R 3200 5200 50 
F6 "VOUT_V" I R 3200 5000 50 
F7 "VREF_I" I R 3200 4800 50 
$EndSheet
Wire Wire Line
	3200 4600 3950 4600
Wire Wire Line
	3200 4800 4150 4800
Wire Wire Line
	3200 5950 4150 5950
Wire Wire Line
	3200 7100 4150 7100
Wire Wire Line
	3200 8250 4150 8250
Wire Wire Line
	3200 9400 4150 9400
Wire Bus Line
	6350 6100 6350 10150
Wire Bus Line
	5150 2750 5150 6200
Wire Bus Line
	5150 2750 9600 2750
Wire Bus Line
	4250 3650 4250 10150
Wire Bus Line
	11550 5700 11550 8150
Wire Bus Line
	10400 4650 10400 10150
Wire Bus Line
	9850 3800 9850 6350
Wire Bus Line
	9850 3800 13100 3800
Entry Wire Line
	4150 9400 4250 9500
Entry Wire Line
	4150 8250 4250 8350
Entry Wire Line
	4150 7100 4250 7200
Entry Wire Line
	4150 5950 4250 6050
Text Label 3300 5950 0    50   ~ 0
VREF_I_B
Text Label 3300 7100 0    50   ~ 0
VREF_I_C
Text Label 3300 8250 0    50   ~ 0
VREF_I_D
Text Label 3300 9400 0    50   ~ 0
VREF_I_E
$EndSCHEMATC
