EESchema Schematic File Version 4
EELAYER 30 0
EELAYER END
$Descr A4 11693 8268
encoding utf-8
Sheet 6 6
Title ""
Date ""
Rev ""
Comp ""
Comment1 ""
Comment2 ""
Comment3 ""
Comment4 ""
$EndDescr
$Comp
L parts:TMCS1100 U6
U 1 1 619CB263
P 4000 4450
AR Path="/619C8E00/619CB263" Ref="U6"  Part="1" 
AR Path="/619FAB05/619CB263" Ref="U9"  Part="1" 
AR Path="/61A59C10/619CB263" Ref="U12"  Part="1" 
AR Path="/61A1E695/619CB263" Ref="U15"  Part="1" 
AR Path="/61A25C8C/619CB263" Ref="U18"  Part="1" 
F 0 "U12" H 3557 4496 50  0000 R CNN
F 1 "TMCS1100" H 3557 4405 50  0000 R CNN
F 2 "Package_SO:SOIC-8_3.9x4.9mm_P1.27mm" H 3050 4000 50  0001 C CNN
F 3 "https://www.analog.com/media/en/technical-documentation/data-sheets/AD8213.pdf" H 4000 4450 50  0001 C CNN
	1    4000 4450
	1    0    0    -1  
$EndComp
Text HLabel 2850 800  0    50   Input ~ 0
+IN
Text HLabel 2850 1050 0    50   Input ~ 0
-IN
Wire Wire Line
	3900 4050 3900 3950
Wire Wire Line
	3900 3950 3800 3950
Wire Wire Line
	3800 3950 3800 4050
Wire Wire Line
	4200 4050 4200 3950
Wire Wire Line
	4200 3950 4100 3950
Wire Wire Line
	4100 3950 4100 4050
Text HLabel 6950 4650 2    50   Input ~ 0
VREF
Text HLabel 6950 4450 2    50   Input ~ 0
VOUT_I
Wire Wire Line
	4900 4650 4400 4650
Wire Wire Line
	4400 4450 4700 4450
$Comp
L Device:C C13
U 1 1 619CC20E
P 3200 4750
AR Path="/619C8E00/619CC20E" Ref="C13"  Part="1" 
AR Path="/619FAB05/619CC20E" Ref="C16"  Part="1" 
AR Path="/61A59C10/619CC20E" Ref="C19"  Part="1" 
AR Path="/61A1E695/619CC20E" Ref="C22"  Part="1" 
AR Path="/61A25C8C/619CC20E" Ref="C25"  Part="1" 
F 0 "C19" H 3315 4796 50  0000 L CNN
F 1 "100N" H 3315 4705 50  0000 L CNN
F 2 "Capacitor_SMD:C_0603_1608Metric_Pad1.08x0.95mm_HandSolder" H 3238 4600 50  0001 C CNN
F 3 "~" H 3200 4750 50  0001 C CNN
	1    3200 4750
	1    0    0    -1  
$EndComp
Wire Wire Line
	3200 4450 3200 4600
$Comp
L parts:MAX9919 U4
U 1 1 619CE652
P 4000 2600
AR Path="/619C8E00/619CE652" Ref="U4"  Part="1" 
AR Path="/619FAB05/619CE652" Ref="U7"  Part="1" 
AR Path="/61A59C10/619CE652" Ref="U10"  Part="1" 
AR Path="/61A1E695/619CE652" Ref="U13"  Part="1" 
AR Path="/61A25C8C/619CE652" Ref="U16"  Part="1" 
F 0 "U10" H 4000 2111 50  0000 C CNN
F 1 "MAX9919" H 4000 2020 50  0000 C CNN
F 2 "Package_SO:SOIC-8-1EP_3.9x4.9mm_P1.27mm_EP2.41x3.3mm" H 3000 2150 50  0001 C CNN
F 3 "https://www.analog.com/media/en/technical-documentation/data-sheets/AD8213.pdf" H 4000 2600 50  0001 C CNN
	1    4000 2600
	1    0    0    -1  
$EndComp
Wire Wire Line
	3350 3800 4100 3800
Wire Wire Line
	4100 3800 4100 3950
Connection ~ 4100 3950
Wire Wire Line
	3800 3950 3200 3950
Connection ~ 3800 3950
$Comp
L Device:R_Shunt R7
U 1 1 619D07DC
P 4050 1750
AR Path="/619C8E00/619D07DC" Ref="R7"  Part="1" 
AR Path="/619FAB05/619D07DC" Ref="R11"  Part="1" 
AR Path="/61A59C10/619D07DC" Ref="R15"  Part="1" 
AR Path="/61A1E695/619D07DC" Ref="R19"  Part="1" 
AR Path="/61A25C8C/619D07DC" Ref="R23"  Part="1" 
F 0 "R15" V 3843 1750 50  0000 C CNN
F 1 "R" V 3934 1750 50  0000 C CNN
F 2 "parts:R_Shunt_combined_Ohmite_LVK12_and_others" V 3980 1750 50  0001 C CNN
F 3 "~" H 4050 1750 50  0001 C CNN
	1    4050 1750
	0    1    1    0   
$EndComp
Wire Wire Line
	3850 1600 3850 1750
$Comp
L Device:C C11
U 1 1 619DFBDF
P 2900 2950
AR Path="/619C8E00/619DFBDF" Ref="C11"  Part="1" 
AR Path="/619FAB05/619DFBDF" Ref="C14"  Part="1" 
AR Path="/61A59C10/619DFBDF" Ref="C17"  Part="1" 
AR Path="/61A1E695/619DFBDF" Ref="C20"  Part="1" 
AR Path="/61A25C8C/619DFBDF" Ref="C23"  Part="1" 
F 0 "C17" H 3015 2996 50  0000 L CNN
F 1 "100N" H 3015 2905 50  0000 L CNN
F 2 "Capacitor_SMD:C_0603_1608Metric_Pad1.08x0.95mm_HandSolder" H 2938 2800 50  0001 C CNN
F 3 "~" H 2900 2950 50  0001 C CNN
	1    2900 2950
	1    0    0    -1  
$EndComp
Wire Wire Line
	3550 2600 2900 2600
Wire Wire Line
	2900 2600 2900 2800
Wire Wire Line
	2900 2450 2900 2600
Connection ~ 2900 2600
Wire Wire Line
	4450 2800 4900 2800
Wire Wire Line
	4900 2800 4900 4200
Wire Wire Line
	4700 4450 4700 2600
Wire Wire Line
	4700 2600 4450 2600
Connection ~ 4700 4450
NoConn ~ 4550 2700
Wire Wire Line
	4450 2700 4550 2700
Wire Notes Line
	2450 3650 4800 3650
Wire Notes Line
	4800 3650 4800 5650
Wire Notes Line
	4800 5650 2450 5650
Wire Notes Line
	2450 5650 2450 3650
Wire Notes Line
	2450 3400 4800 3400
Wire Notes Line
	4800 3400 4800 1400
Wire Notes Line
	4800 1400 2450 1400
Wire Notes Line
	2450 1400 2450 3400
Wire Wire Line
	3350 1050 2850 1050
Wire Wire Line
	3200 800  2850 800 
$Comp
L Amplifier_Operational:MCP6001U U5
U 1 1 619FC298
P 6350 3300
AR Path="/619C8E00/619FC298" Ref="U5"  Part="1" 
AR Path="/619FAB05/619FC298" Ref="U8"  Part="1" 
AR Path="/61A59C10/619FC298" Ref="U11"  Part="1" 
AR Path="/61A1E695/619FC298" Ref="U14"  Part="1" 
AR Path="/61A25C8C/619FC298" Ref="U17"  Part="1" 
F 0 "U11" H 6694 3346 50  0000 L CNN
F 1 "MCP6476U" H 6694 3255 50  0000 L CNN
F 2 "Package_TO_SOT_SMD:SOT-23-5_HandSoldering" H 6350 3300 50  0001 C CNN
F 3 "" H 6350 3300 50  0001 C CNN
	1    6350 3300
	1    0    0    -1  
$EndComp
$Comp
L Device:R R9
U 1 1 61A01600
P 5700 3500
AR Path="/619C8E00/61A01600" Ref="R9"  Part="1" 
AR Path="/619FAB05/61A01600" Ref="R13"  Part="1" 
AR Path="/61A59C10/61A01600" Ref="R17"  Part="1" 
AR Path="/61A1E695/61A01600" Ref="R21"  Part="1" 
AR Path="/61A25C8C/61A01600" Ref="R25"  Part="1" 
F 0 "R17" H 5770 3546 50  0000 L CNN
F 1 "47k" H 5770 3455 50  0000 L CNN
F 2 "Resistor_SMD:R_0603_1608Metric_Pad0.98x0.95mm_HandSolder" V 5630 3500 50  0001 C CNN
F 3 "~" H 5700 3500 50  0001 C CNN
	1    5700 3500
	1    0    0    -1  
$EndComp
Wire Wire Line
	5500 3200 5700 3200
Wire Wire Line
	5700 3200 5700 3350
Wire Wire Line
	5700 3200 6050 3200
Connection ~ 5700 3200
Wire Wire Line
	6050 3400 5950 3400
Wire Wire Line
	5950 3400 5950 3650
Wire Wire Line
	5950 3650 6750 3650
Wire Wire Line
	6750 3650 6750 3300
Wire Wire Line
	6750 3300 6650 3300
Wire Wire Line
	6750 3650 6950 3650
Connection ~ 6750 3650
Text HLabel 6950 3650 2    50   Input ~ 0
VOUT_V
$Comp
L Device:C C12
U 1 1 61A11A85
P 5850 2650
AR Path="/619C8E00/61A11A85" Ref="C12"  Part="1" 
AR Path="/619FAB05/61A11A85" Ref="C15"  Part="1" 
AR Path="/61A59C10/61A11A85" Ref="C18"  Part="1" 
AR Path="/61A1E695/61A11A85" Ref="C21"  Part="1" 
AR Path="/61A25C8C/61A11A85" Ref="C24"  Part="1" 
F 0 "C18" H 5965 2696 50  0000 L CNN
F 1 "100N" H 5965 2605 50  0000 L CNN
F 2 "Capacitor_SMD:C_0603_1608Metric_Pad1.08x0.95mm_HandSolder" H 5888 2500 50  0001 C CNN
F 3 "~" H 5850 2650 50  0001 C CNN
	1    5850 2650
	1    0    0    -1  
$EndComp
Wire Wire Line
	5850 2400 5850 2500
Wire Wire Line
	5850 2400 6250 2400
Wire Wire Line
	6250 2400 6250 3000
Wire Wire Line
	6250 3800 6250 3600
$Comp
L power:GNDD #PWR0139
U 1 1 61A1B018
P 6250 3800
AR Path="/619C8E00/61A1B018" Ref="#PWR0139"  Part="1" 
AR Path="/619FAB05/61A1B018" Ref="#PWR0149"  Part="1" 
AR Path="/61A59C10/61A1B018" Ref="#PWR0159"  Part="1" 
AR Path="/61A1E695/61A1B018" Ref="#PWR0169"  Part="1" 
AR Path="/61A25C8C/61A1B018" Ref="#PWR0179"  Part="1" 
F 0 "#PWR0159" H 6250 3550 50  0001 C CNN
F 1 "GNDD" H 6254 3645 50  0000 C CNN
F 2 "" H 6250 3800 50  0001 C CNN
F 3 "" H 6250 3800 50  0001 C CNN
	1    6250 3800
	1    0    0    -1  
$EndComp
$Comp
L power:GNDD #PWR0140
U 1 1 61A1B2F6
P 4000 5150
AR Path="/619C8E00/61A1B2F6" Ref="#PWR0140"  Part="1" 
AR Path="/619FAB05/61A1B2F6" Ref="#PWR0150"  Part="1" 
AR Path="/61A59C10/61A1B2F6" Ref="#PWR0160"  Part="1" 
AR Path="/61A1E695/61A1B2F6" Ref="#PWR0170"  Part="1" 
AR Path="/61A25C8C/61A1B2F6" Ref="#PWR0180"  Part="1" 
F 0 "#PWR0160" H 4000 4900 50  0001 C CNN
F 1 "GNDD" H 4004 4995 50  0000 C CNN
F 2 "" H 4000 5150 50  0001 C CNN
F 3 "" H 4000 5150 50  0001 C CNN
	1    4000 5150
	1    0    0    -1  
$EndComp
$Comp
L power:GNDD #PWR0141
U 1 1 61A1B536
P 3200 5150
AR Path="/619C8E00/61A1B536" Ref="#PWR0141"  Part="1" 
AR Path="/619FAB05/61A1B536" Ref="#PWR0151"  Part="1" 
AR Path="/61A59C10/61A1B536" Ref="#PWR0161"  Part="1" 
AR Path="/61A1E695/61A1B536" Ref="#PWR0171"  Part="1" 
AR Path="/61A25C8C/61A1B536" Ref="#PWR0181"  Part="1" 
F 0 "#PWR0161" H 3200 4900 50  0001 C CNN
F 1 "GNDD" H 3204 4995 50  0000 C CNN
F 2 "" H 3200 5150 50  0001 C CNN
F 3 "" H 3200 5150 50  0001 C CNN
	1    3200 5150
	1    0    0    -1  
$EndComp
$Comp
L power:GNDD #PWR0142
U 1 1 61A1B780
P 2900 3200
AR Path="/619C8E00/61A1B780" Ref="#PWR0142"  Part="1" 
AR Path="/619FAB05/61A1B780" Ref="#PWR0152"  Part="1" 
AR Path="/61A59C10/61A1B780" Ref="#PWR0162"  Part="1" 
AR Path="/61A1E695/61A1B780" Ref="#PWR0172"  Part="1" 
AR Path="/61A25C8C/61A1B780" Ref="#PWR0182"  Part="1" 
F 0 "#PWR0162" H 2900 2950 50  0001 C CNN
F 1 "GNDD" H 2904 3045 50  0000 C CNN
F 2 "" H 2900 3200 50  0001 C CNN
F 3 "" H 2900 3200 50  0001 C CNN
	1    2900 3200
	1    0    0    -1  
$EndComp
$Comp
L power:GNDD #PWR0143
U 1 1 61A1B9F0
P 3450 2950
AR Path="/619C8E00/61A1B9F0" Ref="#PWR0143"  Part="1" 
AR Path="/619FAB05/61A1B9F0" Ref="#PWR0153"  Part="1" 
AR Path="/61A59C10/61A1B9F0" Ref="#PWR0163"  Part="1" 
AR Path="/61A1E695/61A1B9F0" Ref="#PWR0173"  Part="1" 
AR Path="/61A25C8C/61A1B9F0" Ref="#PWR0183"  Part="1" 
F 0 "#PWR0163" H 3450 2700 50  0001 C CNN
F 1 "GNDD" H 3454 2795 50  0000 C CNN
F 2 "" H 3450 2950 50  0001 C CNN
F 3 "" H 3450 2950 50  0001 C CNN
	1    3450 2950
	1    0    0    -1  
$EndComp
$Comp
L power:GNDD #PWR0145
U 1 1 61A1BFF6
P 5850 2950
AR Path="/619C8E00/61A1BFF6" Ref="#PWR0145"  Part="1" 
AR Path="/619FAB05/61A1BFF6" Ref="#PWR0155"  Part="1" 
AR Path="/61A59C10/61A1BFF6" Ref="#PWR0165"  Part="1" 
AR Path="/61A1E695/61A1BFF6" Ref="#PWR0175"  Part="1" 
AR Path="/61A25C8C/61A1BFF6" Ref="#PWR0185"  Part="1" 
F 0 "#PWR0165" H 5850 2700 50  0001 C CNN
F 1 "GNDD" H 5854 2795 50  0000 C CNN
F 2 "" H 5850 2950 50  0001 C CNN
F 3 "" H 5850 2950 50  0001 C CNN
	1    5850 2950
	1    0    0    -1  
$EndComp
Wire Wire Line
	5850 2800 5850 2950
Wire Wire Line
	4000 5150 4000 4850
Wire Wire Line
	3200 5150 3200 4900
Wire Wire Line
	2900 3100 2900 3200
Wire Wire Line
	3450 2950 3450 2750
Wire Wire Line
	3450 2750 3550 2750
Wire Wire Line
	4700 4450 5200 4450
Wire Wire Line
	3200 4450 3600 4450
Wire Wire Line
	3200 4450 3200 4300
Connection ~ 3200 4450
$Comp
L power:+5V #PWR0146
U 1 1 61A49888
P 2900 2450
AR Path="/619C8E00/61A49888" Ref="#PWR0146"  Part="1" 
AR Path="/619FAB05/61A49888" Ref="#PWR0156"  Part="1" 
AR Path="/61A59C10/61A49888" Ref="#PWR0166"  Part="1" 
AR Path="/61A1E695/61A49888" Ref="#PWR0176"  Part="1" 
AR Path="/61A25C8C/61A49888" Ref="#PWR0186"  Part="1" 
F 0 "#PWR0166" H 2900 2300 50  0001 C CNN
F 1 "+5V" H 2915 2623 50  0000 C CNN
F 2 "" H 2900 2450 50  0001 C CNN
F 3 "" H 2900 2450 50  0001 C CNN
	1    2900 2450
	1    0    0    -1  
$EndComp
$Comp
L power:+3.3VA #PWR0147
U 1 1 61A49B6A
P 3200 4300
AR Path="/619C8E00/61A49B6A" Ref="#PWR0147"  Part="1" 
AR Path="/619FAB05/61A49B6A" Ref="#PWR0157"  Part="1" 
AR Path="/61A59C10/61A49B6A" Ref="#PWR0167"  Part="1" 
AR Path="/61A1E695/61A49B6A" Ref="#PWR0177"  Part="1" 
AR Path="/61A25C8C/61A49B6A" Ref="#PWR0187"  Part="1" 
F 0 "#PWR0167" H 3200 4150 50  0001 C CNN
F 1 "+3.3VA" H 3215 4473 50  0000 C CNN
F 2 "" H 3200 4300 50  0001 C CNN
F 3 "" H 3200 4300 50  0001 C CNN
	1    3200 4300
	1    0    0    -1  
$EndComp
$Comp
L power:+3.3VA #PWR0148
U 1 1 61A49EA3
P 6250 2250
AR Path="/619C8E00/61A49EA3" Ref="#PWR0148"  Part="1" 
AR Path="/619FAB05/61A49EA3" Ref="#PWR0158"  Part="1" 
AR Path="/61A59C10/61A49EA3" Ref="#PWR0168"  Part="1" 
AR Path="/61A1E695/61A49EA3" Ref="#PWR0178"  Part="1" 
AR Path="/61A25C8C/61A49EA3" Ref="#PWR0188"  Part="1" 
F 0 "#PWR0168" H 6250 2100 50  0001 C CNN
F 1 "+3.3VA" H 6265 2423 50  0000 C CNN
F 2 "" H 6250 2250 50  0001 C CNN
F 3 "" H 6250 2250 50  0001 C CNN
	1    6250 2250
	1    0    0    -1  
$EndComp
Wire Wire Line
	6250 2250 6250 2400
Connection ~ 6250 2400
Wire Wire Line
	5050 3200 5200 3200
Text Notes 2500 3600 0    50   ~ 0
Hall-Effect
Text Notes 2500 1350 0    50   ~ 0
Shunt
Wire Wire Line
	4250 1500 4250 1750
Wire Wire Line
	4150 1900 4150 2050
Wire Wire Line
	4150 2050 4250 2050
Wire Wire Line
	4250 2050 4250 2200
Wire Wire Line
	3850 2200 3850 2050
Wire Wire Line
	3850 2050 3950 2050
Wire Wire Line
	3950 2050 3950 1900
$Comp
L Device:R R8
U 1 1 61A01086
P 5350 3200
AR Path="/619C8E00/61A01086" Ref="R8"  Part="1" 
AR Path="/619FAB05/61A01086" Ref="R12"  Part="1" 
AR Path="/61A59C10/61A01086" Ref="R16"  Part="1" 
AR Path="/61A1E695/61A01086" Ref="R20"  Part="1" 
AR Path="/61A25C8C/61A01086" Ref="R24"  Part="1" 
F 0 "R16" V 5143 3200 50  0000 C CNN
F 1 "1M" V 5234 3200 50  0000 C CNN
F 2 "Resistor_SMD:R_1206_3216Metric_Pad1.30x1.75mm_HandSolder" V 5280 3200 50  0001 C CNN
F 3 "~" H 5350 3200 50  0001 C CNN
	1    5350 3200
	0    1    1    0   
$EndComp
Wire Wire Line
	3200 800  3200 1500
Wire Wire Line
	3350 1050 3350 1600
Wire Wire Line
	3200 1500 4250 1500
Connection ~ 3200 1500
Wire Wire Line
	3200 1500 3200 3950
Wire Wire Line
	3350 1600 3850 1600
Connection ~ 3350 1600
Wire Wire Line
	3350 1600 3350 3800
Wire Wire Line
	4050 3200 4050 3000
$Comp
L power:GNDD #PWR0144
U 1 1 61A1BD56
P 4050 3200
AR Path="/619C8E00/61A1BD56" Ref="#PWR0144"  Part="1" 
AR Path="/619FAB05/61A1BD56" Ref="#PWR0154"  Part="1" 
AR Path="/61A59C10/61A1BD56" Ref="#PWR0164"  Part="1" 
AR Path="/61A1E695/61A1BD56" Ref="#PWR0174"  Part="1" 
AR Path="/61A25C8C/61A1BD56" Ref="#PWR0184"  Part="1" 
F 0 "#PWR0164" H 4050 2950 50  0001 C CNN
F 1 "GNDD" H 4054 3045 50  0000 C CNN
F 2 "" H 4050 3200 50  0001 C CNN
F 3 "" H 4050 3200 50  0001 C CNN
	1    4050 3200
	1    0    0    -1  
$EndComp
$Comp
L power:GNDD #PWR0189
U 1 1 61ABA43B
P 3950 3200
AR Path="/619C8E00/61ABA43B" Ref="#PWR0189"  Part="1" 
AR Path="/619FAB05/61ABA43B" Ref="#PWR0190"  Part="1" 
AR Path="/61A59C10/61ABA43B" Ref="#PWR0191"  Part="1" 
AR Path="/61A1E695/61ABA43B" Ref="#PWR0192"  Part="1" 
AR Path="/61A25C8C/61ABA43B" Ref="#PWR0193"  Part="1" 
F 0 "#PWR0191" H 3950 2950 50  0001 C CNN
F 1 "GNDD" H 3954 3045 50  0000 C CNN
F 2 "" H 3950 3200 50  0001 C CNN
F 3 "" H 3950 3200 50  0001 C CNN
	1    3950 3200
	1    0    0    -1  
$EndComp
Wire Wire Line
	3950 3000 3950 3200
$Comp
L Device:R R18
U 1 1 61AE2A02
P 5350 4450
AR Path="/619C8E00/61AE2A02" Ref="R18"  Part="1" 
AR Path="/619FAB05/61AE2A02" Ref="R22"  Part="1" 
AR Path="/61A59C10/61AE2A02" Ref="R26"  Part="1" 
AR Path="/61A1E695/61AE2A02" Ref="R27"  Part="1" 
AR Path="/61A25C8C/61AE2A02" Ref="R28"  Part="1" 
F 0 "R26" V 5143 4450 50  0000 C CNN
F 1 "3k3" V 5234 4450 50  0000 C CNN
F 2 "Resistor_SMD:R_0603_1608Metric_Pad0.98x0.95mm_HandSolder" V 5280 4450 50  0001 C CNN
F 3 "~" H 5350 4450 50  0001 C CNN
	1    5350 4450
	0    1    1    0   
$EndComp
Wire Wire Line
	5500 4450 5900 4450
$Comp
L Device:C C26
U 1 1 61AE31AA
P 5900 4900
AR Path="/619C8E00/61AE31AA" Ref="C26"  Part="1" 
AR Path="/619FAB05/61AE31AA" Ref="C27"  Part="1" 
AR Path="/61A59C10/61AE31AA" Ref="C28"  Part="1" 
AR Path="/61A1E695/61AE31AA" Ref="C29"  Part="1" 
AR Path="/61A25C8C/61AE31AA" Ref="C30"  Part="1" 
F 0 "C28" H 6015 4946 50  0000 L CNN
F 1 "1n" H 6015 4855 50  0000 L CNN
F 2 "Capacitor_SMD:C_0603_1608Metric_Pad1.08x0.95mm_HandSolder" H 5938 4750 50  0001 C CNN
F 3 "~" H 5900 4900 50  0001 C CNN
	1    5900 4900
	1    0    0    -1  
$EndComp
$Comp
L power:GNDD #PWR0198
U 1 1 61AE3A0B
P 5900 5150
AR Path="/619C8E00/61AE3A0B" Ref="#PWR0198"  Part="1" 
AR Path="/619FAB05/61AE3A0B" Ref="#PWR0199"  Part="1" 
AR Path="/61A59C10/61AE3A0B" Ref="#PWR0200"  Part="1" 
AR Path="/61A1E695/61AE3A0B" Ref="#PWR0201"  Part="1" 
AR Path="/61A25C8C/61AE3A0B" Ref="#PWR0202"  Part="1" 
F 0 "#PWR0200" H 5900 4900 50  0001 C CNN
F 1 "GNDD" H 5904 4995 50  0000 C CNN
F 2 "" H 5900 5150 50  0001 C CNN
F 3 "" H 5900 5150 50  0001 C CNN
	1    5900 5150
	1    0    0    -1  
$EndComp
Wire Wire Line
	5900 5150 5900 5050
Wire Wire Line
	5900 4750 5900 4450
Connection ~ 5900 4450
Wire Wire Line
	5900 4450 6950 4450
Wire Wire Line
	5050 1050 3350 1050
Connection ~ 3350 1050
$Comp
L Device:Net-Tie_2 NT?
U 1 1 625192E0
P 5350 4650
AR Path="/625192E0" Ref="NT?"  Part="1" 
AR Path="/619C8E00/625192E0" Ref="NT1"  Part="1" 
AR Path="/619FAB05/625192E0" Ref="NT2"  Part="1" 
AR Path="/61A1E695/625192E0" Ref="NT3"  Part="1" 
AR Path="/61A25C8C/625192E0" Ref="NT4"  Part="1" 
AR Path="/61A59C10/625192E0" Ref="NT5"  Part="1" 
F 0 "NT5" H 5350 4831 50  0000 C CNN
F 1 "Net-Tie_2" H 5350 4740 50  0000 C CNN
F 2 "parts:NetTie-2_SMD_Pad0.25mm" H 5350 4650 50  0001 C CNN
F 3 "~" H 5350 4650 50  0001 C CNN
	1    5350 4650
	-1   0    0    1   
$EndComp
Wire Wire Line
	5250 4650 4900 4650
Connection ~ 4900 4650
Wire Wire Line
	5050 3200 5050 1050
Wire Wire Line
	5450 4650 5700 4650
Connection ~ 5700 4650
Wire Wire Line
	5700 4650 6950 4650
Wire Wire Line
	5700 3650 5700 4650
Wire Wire Line
	4900 4200 6950 4200
Connection ~ 4900 4200
Wire Wire Line
	4900 4200 4900 4650
Text HLabel 6950 4200 2    50   Input ~ 0
VREF_I
$EndSCHEMATC
